[
  [
    1,
    "Especies nativas con potencial forrajero y multiprop\u00f3sito \n",
    []
  ],
  [
    2,
    "\n",
    []
  ],
  [
    3,
    "El conocimiento local es un proceso din\u00e1mico que se adquiere y se acumula con base en las experiencias propias y de generaciones pasadas.\n",
    []
  ],
  [
    4,
    "Algunos autores se\u00f1alan que es la base de inspiraci\u00f3n para acceder al conocimiento cient\u00edfico.\n",
    []
  ],
  [
    5,
    "En este sentido, se reconoce que los campesinos no s\u00f3lo conocen las caracter\u00edsticas de su regi\u00f3n, sino que poseen conocimientos y experiencias que les permiten adaptarse a su medio y producir lo que necesitan para su subsistencia.\n",
    []
  ],
  [
    6,
    "Son capaces de generar tecnolog\u00edas, intermedias o procesos, que desarrollan por medio de pruebas o ensayos en sus terrenos o cultivos; adem\u00e1s de que socializan o transfieren a otros campesinos este tipo de pr\u00e1cticas.\n",
    []
  ],
  [
    7,
    "A esta tarea se le ha llamado intercambio de experiencias o capacitaci\u00f3n de campesino a campesino.\n",
    []
  ],
  [
    8,
    "Es relevante registrar y sistematizar esta informaci\u00f3n que representa parte de la cultura e identidad rural.\n",
    []
  ],
  [
    9,
    "Los productores poseen conocimientos ancestrales sobre el manejo y uso de especies de los estratos arb\u00f3reo, herb\u00e1ceo y arbustivo, ligados en buena medida a la cacer\u00eda, ya que no exist\u00eda la actividad de crianza de animales.\n",
    []
  ],
  [
    10,
    "Hoy d\u00eda es necesario abordar el conocimiento local sobre las especies potencialmente forrajeras, retomar estos conocimientos para analizarlos, asumir las experiencias de \u00e9xito e incorporarlas a los sistemas actuales de producci\u00f3n en la modalidad de agroforester\u00eda, con el fin de promover un uso sustentable de las especies.\n",
    []
  ],
  [
    11,
    "El rescate de este conocimiento podr\u00eda tomarse como una innovaci\u00f3n tecnol\u00f3gica que ofrezca a la ganader\u00eda posibilidades de ser competitiva.\n",
    []
  ],
  [
    12,
    "El conocimiento se origina de observaciones diarias y de la experimentaci\u00f3n con formas de vida, sistemas productivos y ecosistemas naturales (Mu\u00f1oz, 2004).\n",
    []
  ],
  [
    13,
    "Cuando se aborda el conocimiento local es necesario considerar los atributos y conocimientos de la poblaci\u00f3n, es decir, describir su entorno ecol\u00f3gico tal como lo percibe (Guarino y Friis-Hansen, 1995).\n",
    []
  ],
  [
    14,
    "La informaci\u00f3n debe tomarse directamente de las personas locales (Moss y Guarino, 1995).\n",
    []
  ],
  [
    15,
    "Este conocimiento representa una reserva importante de experiencias y saberes para la toma de decisiones ante los distintos problemas y retos que enfrenta una comunidad (Quiroz, 1992).\n",
    []
  ],
  [
    16,
    "Con esta visi\u00f3n se llev\u00f3 a cabo un estudio en tres zonas del estado: oriente, centro y sur.\n",
    []
  ],
  [
    17,
    "En la zona oriente se trabaj\u00f3 en las localidades de Kuzan, Sucop\u00f3, Xu\u2019yat, El Crucero y Tizim\u00edn, de los municipios de Tizim\u00edn y Valladolid.\n",
    []
  ],
  [
    18,
    "En la zona centro, las localidades de Suyt\u00fan (Tixkokob), San Miguel (Dzilam Gonz\u00e1lez), Canincab (Acanceh), Mococh\u00e1, Conkal y M\u00e9rida.\n",
    []
  ],
  [
    19,
    "En la zona sur, las localidades de San Luis Huechil, Becanch\u00e9n y Tekax, Tahdzi\u00fa y Peto.\n",
    []
  ],
  [
    20,
    "Para la evaluaci\u00f3n se emplearon cuestionarios y una gu\u00eda semi-estructurada para grabar las entrevistas con medios magn\u00e9ticos.\n",
    []
  ],
  [
    21,
    "Los entrevistados identificaron en campo las especies que refirieron, lo cual permiti\u00f3 registrar el nombre com\u00fan y cient\u00edfico.\n",
    []
  ],
  [
    22,
    "Los informantes de la zona centro fueron contactados con la cooperaci\u00f3n de la Asociaci\u00f3n Ganadera Local Especializada en Ovinos de M\u00e9rida (AGLEOM); y los de las zonas oriente y sur, por medio de visitas a las comunidades, identificando a ganaderos con conocimiento de especies forrajeras.\n",
    []
  ],
  [
    23,
    "El trabajo se realiz\u00f3 en su mayor parte en lengua maya.\n",
    []
  ],
  [
    24,
    "Entre las variables contempladas en el estudio destacan: n\u00famero total de especies con potencial de uso reportadas para su respectiva zona y n\u00famero de familias incluidas en las especies nombradas, estrato en que se ubica el n\u00famero de especies con potencial forrajero, partes consumibles de las plantas con potencial forrajero y ubicaci\u00f3n de usos en general de estas plantas, fenolog\u00eda, potencial medicinal, plantas da\u00f1inas y especies mel\u00edferas.\n",
    []
  ],
  [
    25,
    "Para el an\u00e1lisis de la informaci\u00f3n proporcionada se utiliz\u00f3 un dise\u00f1o de investigaci\u00f3n no experimental, transeccional del tipo correlacional/causal (Hern\u00e1ndez y otros, 1998); y se emple\u00f3 adem\u00e1s el programa \u201cS\u00edmil\u201d de la Facultad de Entomolog\u00eda de Granada, Espa\u00f1a (P\u00e9rez, 2002).\n",
    []
  ],
  [
    26,
    "De este modo, se compararon las zonas utilizando los coeficientes de similitud de Jaccard y Sorensen, para determinar la similitud en la composici\u00f3n de especies para cada zona.\n",
    []
  ],
  [
    27,
    "Las encuestas se aplicaron a un total de 21 productores, de los cuales, siete corresponden a la zona oriente; siete a la zona centro; y siete a la zona sur.\n",
    []
  ],
  [
    28,
    "Se obtuvo un total de 98 especies vegetales mencionadas por los informantes de las tres zonas referidas.\n",
    []
  ],
  [
    29,
    "Los resultados indican que de las 35 familias bot\u00e1nicas mencionadas, la que registra el mayor n\u00famero de especies es la Leguminosae con 31; seguida de Boraginaceae con seis, Euphorbiaceae con cinco y Compositae y Convolvulaceae con cuatro cada una.\n",
    []
  ],
  [
    30,
    "El resto de las familias presentan menos de cuatro especies, de las cuales 19 est\u00e1n representadas por dos o m\u00e1s especies y 16 por una sola especie.\n",
    []
  ],
  [
    31,
    "En la Figura 1 se muestra el n\u00famero de especies que representan a cada uno de los estratos mencionados por los informantes de las tres zonas.\n",
    []
  ],
  [
    32,
    "El estrato arb\u00f3reo es el de mayor representaci\u00f3n, en el que se reportaron 59 especies (57.29%); las plantas arb\u00f3reas son proporcionadas al ganado por corte, debido a su altura.\n",
    []
  ],
  [
    33,
    "En el estrato arbustivo se registr\u00f3 un total de 19 especies (18.45%).\n",
    []
  ],
  [
    34,
    "Y en el herb\u00e1ceo, 16 plantas (15.53%).\n",
    []
  ],
  [
    35,
    "El resto de las especies se ubican como: enredaderas con 4 (3.88%); palmas con 2 (1.94%); rastreras con 1 (0.97%); trepadoras con 1 (0.97%); y bejuco con 1 (0.97%).\n",
    []
  ],
  [
    36,
    "La mayor\u00eda de las especies arbustivas y herb\u00e1ceas son consumidas por el ganado de libre pastoreo en los potreros o praderas; en el caso de las plantas herb\u00e1ceas, una gran parte son consumidas por completo debido a su bajo porte.\n",
    []
  ],
  [
    37,
    "En el Cuadro 1 se presentan las especies con potencial forrajero mencionadas por los entrevistados de las tres zonas.\n",
    []
  ],
  [
    38,
    "En total se reportan 103 especies diferentes.\n",
    []
  ],
  [
    39,
    "Se observa que la zona sur (muestra 3) posee un mayor n\u00famero de especies en comparaci\u00f3n con las zonas oriente y centro (muestras 1 y 2).\n",
    []
  ],
  [
    40,
    "Los \u00edndices de similitud para las zonas evaluadas indican que las zonas oriente y centro comparten 25 especies en com\u00fan; las zonas oriente y sur, 37 especies; y las zonas centro y sur, 24 especies.\n",
    []
  ],
  [
    41,
    "El coeficiente de similitud de Jaccard muestra que las zonas oriente y sur son similares en un 0.389; las zonas oriente y centro, en un 0.321; y las zonas centro y sur, en un 0.296.\n",
    []
  ],
  [
    42,
    "Cabe mencionar que algunas de las especies forrajeras se repiten en las tres zonas.\n",
    []
  ],
  [
    43,
    "En la zona sur se reporta un total de 67 plantas (65%), lo cual puede deberse a las condiciones edafol\u00f3gicas y climatol\u00f3gicas; en la zona oriente, 65 especies (63.1%); y en la zona centro se reportan s\u00f3lo 38 especies (37.0%).\n",
    []
  ],
  [
    44,
    "En la zona oriente se reportan 22 especies que no fueron descritas en las otras dos zonas; en la zona centro se mencionan ocho especies que no se reportan en las otras dos; y, por \u00faltimo, en la zona sur se se\u00f1alan 25 especies no reportadas en las dos zonas restantes.\n",
    []
  ],
  [
    45,
    "Por lo tanto, 48 especies fueron mencionadas en m\u00e1s de una zona, de las cuales, 28 se mencionaron en dos zonas y 20 en las tres zonas. \n",
    []
  ],
  [
    46,
    "Lo anterior permite comparar y establecer par\u00e1metros de conocimientos y existencia de especies con potencial en las tres zonas estudiadas.\n",
    []
  ],
  [
    47,
    "La zona sur es la que posee el mayor conocimiento de especies nativas con potencial forrajero, seguida de la zona oriente; y la zona centro es la que posee el menor n\u00famero de especies y por ende sugiere la p\u00e9rdida de conocimiento.\n",
    []
  ],
  [
    48,
    "En la Figura 2 se presentan las especies con mayor frecuencia total, es decir, est\u00e1n mencionadas en las tres zonas.\n",
    []
  ],
  [
    49,
    "El ja\u2019abin (Piscidia piscipula) fue la especie m\u00e1s se\u00f1alada por los informantes, seguida por chakaj (Bursera simaruba), pixoy (Guazuma ulmifolia), chukum (Havardia albicans), katsim (Acacia gaumeri), ts\u2019its\u2019ilche\u2019 (Gymnopodium floribundum), ram\u00f3n (Brosimum alicastrum), piich (Enterolobium cyclocarpum), kitinch\u00e9 (Caesalpinia gaumeri), tajonal (Viguiera dentata) y tso\u2019ots kab (Merremia aegyptia).\n",
    [
      {
        "arg2_text": "Havardia albicans",
        "arg1_offset": [
          147,
          153
        ],
        "arg2_line": 49,
        "arg2_offset": [
          155,
          172
        ],
        "arg1_text": "chukum",
        "type": "alias",
        "arg1_line": 49
      },
      {
        "arg2_text": "Acacia gaumeri",
        "arg1_offset": [
          175,
          181
        ],
        "arg2_line": 49,
        "arg2_offset": [
          183,
          197
        ],
        "arg1_text": "katsim",
        "type": "alias",
        "arg1_line": 49
      },
      {
        "arg2_text": "Gymnopodium floribundum",
        "arg1_offset": [
          200,
          213
        ],
        "arg2_line": 49,
        "arg2_offset": [
          215,
          238
        ],
        "arg1_text": "ts\u2019its\u2019ilche\u2019",
        "type": "alias",
        "arg1_line": 49
      },
      {
        "arg2_text": "Brosimum alicastrum",
        "arg1_offset": [
          241,
          246
        ],
        "arg2_line": 49,
        "arg2_offset": [
          248,
          267
        ],
        "arg1_text": "ram\u00f3n",
        "type": "alias",
        "arg1_line": 49
      },
      {
        "arg2_text": "Piscidia piscipula",
        "arg1_offset": [
          3,
          10
        ],
        "arg2_line": 49,
        "arg2_offset": [
          12,
          30
        ],
        "arg1_text": "ja\u2019abin",
        "type": "alias",
        "arg1_line": 49
      },
      {
        "arg2_text": "Bursera simaruba",
        "arg1_offset": [
          93,
          99
        ],
        "arg2_line": 49,
        "arg2_offset": [
          101,
          117
        ],
        "arg1_text": "chakaj",
        "type": "alias",
        "arg1_line": 49
      },
      {
        "arg2_text": "Guazuma ulmifolia",
        "arg1_offset": [
          120,
          125
        ],
        "arg2_line": 49,
        "arg2_offset": [
          127,
          144
        ],
        "arg1_text": "pixoy",
        "type": "alias",
        "arg1_line": 49
      },
      {
        "arg2_text": "Enterolobium cyclocarpum",
        "arg1_offset": [
          270,
          275
        ],
        "arg2_line": 49,
        "arg2_offset": [
          277,
          301
        ],
        "arg1_text": "piich",
        "type": "alias",
        "arg1_line": 49
      },
      {
        "arg2_text": "Caesalpinia gaumeri",
        "arg1_offset": [
          304,
          312
        ],
        "arg2_line": 49,
        "arg2_offset": [
          314,
          333
        ],
        "arg1_text": "kitinch\u00e9",
        "type": "alias",
        "arg1_line": 49
      },
      {
        "text": "Bursera simaruba",
        "type": "Nombre_cientifico",
        "offset": [
          101,
          117
        ]
      },
      {
        "text": "ja\u2019abin",
        "type": "Nombre_comun",
        "offset": [
          3,
          10
        ]
      },
      {
        "text": "chakaj",
        "type": "Nombre_comun",
        "offset": [
          93,
          99
        ]
      },
      {
        "text": "pixoy",
        "type": "Nombre_comun",
        "offset": [
          120,
          125
        ]
      },
      {
        "text": "Guazuma ulmifolia",
        "type": "Nombre_cientifico",
        "offset": [
          127,
          144
        ]
      },
      {
        "text": "Havardia albicans",
        "type": "Nombre_cientifico",
        "offset": [
          155,
          172
        ]
      },
      {
        "text": "Piscidia piscipula",
        "type": "Nombre_cientifico",
        "offset": [
          12,
          30
        ]
      },
      {
        "text": "chukum",
        "type": "Nombre_comun",
        "offset": [
          147,
          153
        ]
      },
      {
        "text": "katsim",
        "type": "Nombre_comun",
        "offset": [
          175,
          181
        ]
      },
      {
        "arg2_text": "Viguiera dentata",
        "arg1_offset": [
          336,
          343
        ],
        "arg2_line": 49,
        "arg2_offset": [
          345,
          361
        ],
        "arg1_text": "tajonal",
        "type": "alias",
        "arg1_line": 49
      },
      {
        "arg2_text": "Merremia aegyptia",
        "arg1_offset": [
          365,
          376
        ],
        "arg2_line": 49,
        "arg2_offset": [
          378,
          395
        ],
        "arg1_text": "tso\u2019ots kab",
        "type": "alias",
        "arg1_line": 49
      },
      {
        "text": "tajonal",
        "type": "Nombre_comun",
        "offset": [
          336,
          343
        ]
      },
      {
        "text": "kitinch\u00e9",
        "type": "Nombre_comun",
        "offset": [
          304,
          312
        ]
      },
      {
        "text": "ts\u2019its\u2019ilche\u2019",
        "type": "Nombre_comun",
        "offset": [
          200,
          213
        ]
      },
      {
        "text": "piich",
        "type": "Nombre_comun",
        "offset": [
          270,
          275
        ]
      },
      {
        "text": "ram\u00f3n",
        "type": "Nombre_comun",
        "offset": [
          241,
          246
        ]
      },
      {
        "text": "tso\u2019ots kab",
        "type": "Nombre_comun",
        "offset": [
          365,
          376
        ]
      },
      {
        "text": "Enterolobium cyclocarpum",
        "type": "Nombre_cientifico",
        "offset": [
          277,
          301
        ]
      },
      {
        "text": "Gymnopodium floribundum",
        "type": "Nombre_cientifico",
        "offset": [
          215,
          238
        ]
      },
      {
        "text": "Brosimum alicastrum",
        "type": "Nombre_cientifico",
        "offset": [
          248,
          267
        ]
      },
      {
        "text": "Acacia gaumeri",
        "type": "Nombre_cientifico",
        "offset": [
          183,
          197
        ]
      },
      {
        "text": "Viguiera dentata",
        "type": "Nombre_cientifico",
        "offset": [
          345,
          361
        ]
      },
      {
        "text": "Merremia aegyptia",
        "type": "Nombre_cientifico",
        "offset": [
          378,
          395
        ]
      },
      {
        "text": "Caesalpinia gaumeri",
        "type": "Nombre_cientifico",
        "offset": [
          314,
          333
        ]
      }
    ]
  ],
  [
    50,
    "En cuanto a las partes consumidas por los animales (Figura 3), se encontr\u00f3 que la parte m\u00e1s importante de las plantas forrajeras es el follaje; seguido del aprovechamiento de la planta completa, mayormente en plantas herb\u00e1ceas.\n",
    []
  ],
  [
    51,
    "Los frutos que son consumidos por el ganado tienen ciertas caracter\u00edsticas que los hacen atractivos, ya que algunos son dulces, olorosos, suaves, \u00e1cidos, jugosos; se presentan solos o en racimos y sus colores var\u00edan entre verdes, naranjas, rojos, morados, blancos...\n",
    []
  ],
  [
    52,
    "Las especies forrajeras adem\u00e1s tienen otros usos.\n",
    []
  ],
  [
    53,
    "Destacan las plantas utilizadas para postes, construcci\u00f3n, combustible (le\u00f1a y carb\u00f3n), muebles, artesan\u00edas y cerco vivo.\n",
    [
      {
        "text": "utilizadas para postes, construcci\u00f3n, combustible (le\u00f1a y carb\u00f3n), muebles, artesan\u00edas y cerco vivo",
        "type": "Uso",
        "offset": [
          21,
          120
        ]
      }
    ]
  ],
  [
    54,
    "Fueron se\u00f1aladas 23 especies aptas para la construcci\u00f3n, entre las que sobresalen el ja\u2019abin (P. piscipula), el chukum (H. albicans) y el kitinche\u2019 (C. gaumeri), las cuales son utilizadas como postes secos. \n",
    [
      {
        "arg2_text": "on utilizadas como postes secos",
        "arg1_offset": [
          94,
          106
        ],
        "arg2_line": 54,
        "arg2_offset": [
          174,
          205
        ],
        "arg1_text": "P. piscipula",
        "type": "se_usa",
        "arg1_line": 54
      },
      {
        "arg2_text": "on utilizadas como postes secos",
        "arg1_offset": [
          112,
          118
        ],
        "arg2_line": 54,
        "arg2_offset": [
          174,
          205
        ],
        "arg1_text": "chukum",
        "type": "se_usa",
        "arg1_line": 54
      },
      {
        "arg2_text": "C. gaumeri",
        "arg1_offset": [
          138,
          146
        ],
        "arg2_line": 54,
        "arg2_offset": [
          149,
          159
        ],
        "arg1_text": "kitinche",
        "type": "alias",
        "arg1_line": 54
      },
      {
        "arg2_text": "on utilizadas como postes secos",
        "arg1_offset": [
          85,
          92
        ],
        "arg2_line": 54,
        "arg2_offset": [
          174,
          205
        ],
        "arg1_text": "ja\u2019abin",
        "type": "se_usa",
        "arg1_line": 54
      },
      {
        "arg2_text": "P. piscipula",
        "arg1_offset": [
          85,
          92
        ],
        "arg2_line": 54,
        "arg2_offset": [
          94,
          106
        ],
        "arg1_text": "ja\u2019abin",
        "type": "alias",
        "arg1_line": 54
      },
      {
        "arg2_text": "H. albicans",
        "arg1_offset": [
          112,
          118
        ],
        "arg2_line": 54,
        "arg2_offset": [
          120,
          131
        ],
        "arg1_text": "chukum",
        "type": "alias",
        "arg1_line": 54
      },
      {
        "arg2_text": "on utilizadas como postes secos",
        "arg1_offset": [
          120,
          131
        ],
        "arg2_line": 54,
        "arg2_offset": [
          174,
          205
        ],
        "arg1_text": "H. albicans",
        "type": "se_usa",
        "arg1_line": 54
      },
      {
        "arg2_text": "on utilizadas como postes secos",
        "arg1_offset": [
          138,
          146
        ],
        "arg2_line": 54,
        "arg2_offset": [
          174,
          205
        ],
        "arg1_text": "kitinche",
        "type": "se_usa",
        "arg1_line": 54
      },
      {
        "text": "on utilizadas como postes secos",
        "type": "Uso",
        "offset": [
          174,
          205
        ]
      },
      {
        "text": "kitinche",
        "type": "Nombre_comun",
        "offset": [
          138,
          146
        ]
      },
      {
        "text": "C. gaumeri",
        "type": "Nombre_cientifico",
        "offset": [
          149,
          159
        ]
      },
      {
        "text": "chukum",
        "type": "Nombre_comun",
        "offset": [
          112,
          118
        ]
      },
      {
        "text": "H. albicans",
        "type": "Nombre_cientifico",
        "offset": [
          120,
          131
        ]
      },
      {
        "text": "ja\u2019abin",
        "type": "Nombre_comun",
        "offset": [
          85,
          92
        ]
      },
      {
        "text": "P. piscipula",
        "type": "Nombre_cientifico",
        "offset": [
          94,
          106
        ]
      },
      {
        "arg2_text": "on utilizadas como postes secos",
        "arg1_offset": [
          149,
          159
        ],
        "arg2_line": 54,
        "arg2_offset": [
          174,
          205
        ],
        "arg1_text": "C. gaumeri",
        "type": "se_usa",
        "arg1_line": 54
      }
    ]
  ],
  [
    55,
    "Entre las plantas utilizadas como combustible (le\u00f1a y carb\u00f3n) aparece en primer lugar el katsim \u201cbox y sak\u201d (Acacia gaumeri), le siguen el ja\u2019abin (P. piscipula), el chukum (H. albicans) y el resto que corresponde a 23 plantas.\n",
    [
      {
        "text": "utilizadas como combustible (le\u00f1a y carb\u00f3n)",
        "type": "Combustible",
        "offset": [
          18,
          61
        ]
      },
      {
        "text": "chukum",
        "type": "Nombre_comun",
        "offset": [
          166,
          172
        ]
      },
      {
        "text": "P. piscipula",
        "type": "Nombre_cientifico",
        "offset": [
          148,
          160
        ]
      },
      {
        "text": "ja\u2019abin",
        "type": "Nombre_comun",
        "offset": [
          139,
          146
        ]
      },
      {
        "text": "katsim",
        "type": "Nombre_comun",
        "offset": [
          89,
          95
        ]
      },
      {
        "text": "H. albicans",
        "type": "Nombre_cientifico",
        "offset": [
          174,
          185
        ]
      },
      {
        "text": "Acacia gaumeri",
        "type": "Nombre_cientifico",
        "offset": [
          109,
          123
        ]
      },
      {
        "arg2_text": "utilizadas como combustible (le\u00f1a y carb\u00f3n)",
        "arg1_offset": [
          174,
          185
        ],
        "arg2_line": 55,
        "arg2_offset": [
          18,
          61
        ],
        "arg1_text": "H. albicans",
        "type": "se_usa",
        "arg1_line": 55
      },
      {
        "arg2_text": "utilizadas como combustible (le\u00f1a y carb\u00f3n)",
        "arg1_offset": [
          166,
          172
        ],
        "arg2_line": 55,
        "arg2_offset": [
          18,
          61
        ],
        "arg1_text": "chukum",
        "type": "se_usa",
        "arg1_line": 55
      },
      {
        "arg2_text": "utilizadas como combustible (le\u00f1a y carb\u00f3n)",
        "arg1_offset": [
          148,
          160
        ],
        "arg2_line": 55,
        "arg2_offset": [
          18,
          61
        ],
        "arg1_text": "P. piscipula",
        "type": "se_usa",
        "arg1_line": 55
      },
      {
        "arg2_text": "utilizadas como combustible (le\u00f1a y carb\u00f3n)",
        "arg1_offset": [
          139,
          146
        ],
        "arg2_line": 55,
        "arg2_offset": [
          18,
          61
        ],
        "arg1_text": "ja\u2019abin",
        "type": "se_usa",
        "arg1_line": 55
      },
      {
        "arg2_text": "utilizadas como combustible (le\u00f1a y carb\u00f3n)",
        "arg1_offset": [
          109,
          123
        ],
        "arg2_line": 55,
        "arg2_offset": [
          18,
          61
        ],
        "arg1_text": "Acacia gaumeri",
        "type": "se_usa",
        "arg1_line": 55
      },
      {
        "arg2_text": "utilizadas como combustible (le\u00f1a y carb\u00f3n)",
        "arg1_offset": [
          89,
          95
        ],
        "arg2_line": 55,
        "arg2_offset": [
          18,
          61
        ],
        "arg1_text": "katsim",
        "type": "se_usa",
        "arg1_line": 55
      },
      {
        "arg2_text": "P. piscipula",
        "arg1_offset": [
          139,
          146
        ],
        "arg2_line": 55,
        "arg2_offset": [
          148,
          160
        ],
        "arg1_text": "ja\u2019abin",
        "type": "alias",
        "arg1_line": 55
      },
      {
        "arg2_text": "Acacia gaumeri",
        "arg1_offset": [
          89,
          95
        ],
        "arg2_line": 55,
        "arg2_offset": [
          109,
          123
        ],
        "arg1_text": "katsim",
        "type": "alias",
        "arg1_line": 55
      }
    ]
  ],
  [
    56,
    "Las especies que se utilizan para fabricar muebles son pocas (14), y de ellas destacan el ja\u2019abin (P. piscipula) y el piich (E. cyclocarpum).\n",
    [
      {
        "arg2_text": "se utilizan para fabricar muebles",
        "arg1_offset": [
          125,
          139
        ],
        "arg2_line": 56,
        "arg2_offset": [
          17,
          50
        ],
        "arg1_text": "E. cyclocarpum",
        "type": "se_usa",
        "arg1_line": 56
      },
      {
        "arg2_text": "se utilizan para fabricar muebles",
        "arg1_offset": [
          90,
          97
        ],
        "arg2_line": 56,
        "arg2_offset": [
          17,
          50
        ],
        "arg1_text": "ja\u2019abin",
        "type": "se_usa",
        "arg1_line": 56
      },
      {
        "arg2_text": "se utilizan para fabricar muebles",
        "arg1_offset": [
          99,
          111
        ],
        "arg2_line": 56,
        "arg2_offset": [
          17,
          50
        ],
        "arg1_text": "P. piscipula",
        "type": "se_usa",
        "arg1_line": 56
      },
      {
        "arg2_text": "se utilizan para fabricar muebles",
        "arg1_offset": [
          118,
          123
        ],
        "arg2_line": 56,
        "arg2_offset": [
          17,
          50
        ],
        "arg1_text": "piich",
        "type": "se_usa",
        "arg1_line": 56
      },
      {
        "arg2_text": "E. cyclocarpum",
        "arg1_offset": [
          118,
          123
        ],
        "arg2_line": 56,
        "arg2_offset": [
          125,
          139
        ],
        "arg1_text": "piich",
        "type": "alias",
        "arg1_line": 56
      },
      {
        "text": "E. cyclocarpum",
        "type": "Nombre_cientifico",
        "offset": [
          125,
          139
        ]
      },
      {
        "text": "piich",
        "type": "Nombre_comun",
        "offset": [
          118,
          123
        ]
      },
      {
        "text": "P. piscipula",
        "type": "Nombre_cientifico",
        "offset": [
          99,
          111
        ]
      },
      {
        "text": "ja\u2019abin",
        "type": "Nombre_comun",
        "offset": [
          90,
          97
        ]
      },
      {
        "text": "se utilizan para fabricar muebles",
        "type": "Uso",
        "offset": [
          17,
          50
        ]
      },
      {
        "arg2_text": "P. piscipula",
        "arg1_offset": [
          90,
          97
        ],
        "arg2_line": 56,
        "arg2_offset": [
          99,
          111
        ],
        "arg1_text": "ja\u2019abin",
        "type": "alias",
        "arg1_line": 56
      }
    ]
  ],
  [
    57,
    "Existen muy pocas especies \u00fatiles para los artesanos.\n",
    []
  ],
  [
    58,
    "S\u00f3lo se reportan 5 especies para elaborar artesan\u00edas de madera como el \u00e1lamo (Ficus cotinifolia), el chakaj (B. simaruba), el kitinche\u2019 (C. gaumeri) y el piich (E. cyclocarpum).\n",
    [
      {
        "arg2_text": "C. gaumeri",
        "arg1_offset": [
          126,
          135
        ],
        "arg2_line": 58,
        "arg2_offset": [
          137,
          147
        ],
        "arg1_text": "kitinche\u2019",
        "type": "alias",
        "arg1_line": 58
      },
      {
        "arg2_text": "E. cyclocarpum",
        "arg1_offset": [
          154,
          159
        ],
        "arg2_line": 58,
        "arg2_offset": [
          161,
          175
        ],
        "arg1_text": "piich",
        "type": "alias",
        "arg1_line": 58
      },
      {
        "arg2_text": "elaborar artesan\u00edas de madera",
        "arg1_offset": [
          71,
          76
        ],
        "arg2_line": 58,
        "arg2_offset": [
          33,
          62
        ],
        "arg1_text": "\u00e1lamo",
        "type": "se_usa",
        "arg1_line": 58
      },
      {
        "arg2_text": "elaborar artesan\u00edas de madera",
        "arg1_offset": [
          78,
          95
        ],
        "arg2_line": 58,
        "arg2_offset": [
          33,
          62
        ],
        "arg1_text": "Ficus cotinifolia",
        "type": "se_usa",
        "arg1_line": 58
      },
      {
        "arg2_text": "B. simaruba",
        "arg1_offset": [
          101,
          107
        ],
        "arg2_line": 58,
        "arg2_offset": [
          109,
          120
        ],
        "arg1_text": "chakaj",
        "type": "alias",
        "arg1_line": 58
      },
      {
        "arg2_text": "elaborar artesan\u00edas de madera",
        "arg1_offset": [
          161,
          175
        ],
        "arg2_line": 58,
        "arg2_offset": [
          33,
          62
        ],
        "arg1_text": "E. cyclocarpum",
        "type": "se_usa",
        "arg1_line": 58
      },
      {
        "arg2_text": "elaborar artesan\u00edas de madera",
        "arg1_offset": [
          154,
          159
        ],
        "arg2_line": 58,
        "arg2_offset": [
          33,
          62
        ],
        "arg1_text": "piich",
        "type": "se_usa",
        "arg1_line": 58
      },
      {
        "arg2_text": "elaborar artesan\u00edas de madera",
        "arg1_offset": [
          109,
          120
        ],
        "arg2_line": 58,
        "arg2_offset": [
          33,
          62
        ],
        "arg1_text": "B. simaruba",
        "type": "se_usa",
        "arg1_line": 58
      },
      {
        "arg2_text": "elaborar artesan\u00edas de madera",
        "arg1_offset": [
          101,
          107
        ],
        "arg2_line": 58,
        "arg2_offset": [
          33,
          62
        ],
        "arg1_text": "chakaj",
        "type": "se_usa",
        "arg1_line": 58
      },
      {
        "arg2_text": "elaborar artesan\u00edas de madera",
        "arg1_offset": [
          137,
          147
        ],
        "arg2_line": 58,
        "arg2_offset": [
          33,
          62
        ],
        "arg1_text": "C. gaumeri",
        "type": "se_usa",
        "arg1_line": 58
      },
      {
        "arg2_text": "elaborar artesan\u00edas de madera",
        "arg1_offset": [
          126,
          135
        ],
        "arg2_line": 58,
        "arg2_offset": [
          33,
          62
        ],
        "arg1_text": "kitinche\u2019",
        "type": "se_usa",
        "arg1_line": 58
      },
      {
        "text": "elaborar artesan\u00edas de madera",
        "type": "Artesanal",
        "offset": [
          33,
          62
        ]
      },
      {
        "text": "\u00e1lamo",
        "type": "Nombre_comun",
        "offset": [
          71,
          76
        ]
      },
      {
        "text": "chakaj",
        "type": "Nombre_comun",
        "offset": [
          101,
          107
        ]
      },
      {
        "text": "B. simaruba",
        "type": "Nombre_cientifico",
        "offset": [
          109,
          120
        ]
      },
      {
        "text": "kitinche\u2019",
        "type": "Nombre_comun",
        "offset": [
          126,
          135
        ]
      },
      {
        "text": "C. gaumeri",
        "type": "Nombre_cientifico",
        "offset": [
          137,
          147
        ]
      },
      {
        "text": "piich",
        "type": "Nombre_comun",
        "offset": [
          154,
          159
        ]
      },
      {
        "text": "E. cyclocarpum",
        "type": "Nombre_cientifico",
        "offset": [
          161,
          175
        ]
      },
      {
        "text": "Ficus cotinifolia",
        "type": "Nombre_cientifico",
        "offset": [
          78,
          95
        ]
      }
    ]
  ],
  [
    59,
    "Por \u00faltimo, se registran 9 especies que son aprovechadas para cercos vivos, de las cuales el chakaj (B. simaruba) se menciona m\u00e1s frecuentemente.\n",
    [
      {
        "arg2_text": "aprovechadas para cercos vivos",
        "arg1_offset": [
          93,
          99
        ],
        "arg2_line": 59,
        "arg2_offset": [
          44,
          74
        ],
        "arg1_text": "chakaj",
        "type": "se_usa",
        "arg1_line": 59
      },
      {
        "arg2_text": "B. simaruba",
        "arg1_offset": [
          93,
          99
        ],
        "arg2_line": 59,
        "arg2_offset": [
          101,
          112
        ],
        "arg1_text": "chakaj",
        "type": "alias",
        "arg1_line": 59
      },
      {
        "arg2_text": "aprovechadas para cercos vivos",
        "arg1_offset": [
          101,
          112
        ],
        "arg2_line": 59,
        "arg2_offset": [
          44,
          74
        ],
        "arg1_text": "B. simaruba",
        "type": "se_usa",
        "arg1_line": 59
      },
      {
        "text": "aprovechadas para cercos vivos",
        "type": "Construccion_vivienda",
        "offset": [
          44,
          74
        ]
      },
      {
        "text": "chakaj",
        "type": "Nombre_comun",
        "offset": [
          93,
          99
        ]
      },
      {
        "text": "B. simaruba",
        "type": "Nombre_cientifico",
        "offset": [
          101,
          112
        ]
      }
    ]
  ],
  [
    60,
    "El conocimiento local reflejado indica que la zona sur es la que posee mayores conocimientos sobre los diferentes usos alternativos que se dan a las especies forrajeras, ya que en sus diferentes usos las especies recibieron 137 menciones por parte de los informantes de esta zona.\n",
    []
  ],
  [
    61,
    "Le sigue la zona oriente con 75 menciones en total, incluyendo todos los usos reportados.\n",
    []
  ],
  [
    62,
    "La zona que posee el menor conocimiento local es la zona centro, ya que s\u00f3lo reporta 63 menciones de un total de 40 especies con seis probables usos, adem\u00e1s del forrajero.\n",
    []
  ],
  [
    63,
    "El conocimiento de los informantes respecto a condiciones fenol\u00f3gicas de las especies indica que de las 103 plantas identificadas, el 73% corresponde a especies perennes y el 22% a plantas anuales; el resto (5%) se refiere a aquellas que no fueron descritas por los productores o informantes.\n",
    []
  ],
  [
    64,
    "En la validaci\u00f3n del conocimiento local de plantas forrajeras con atributos medicinales, se registraron 9 plantas que poseen diferentes propiedades curativas para el hombre y los animales.\n",
    []
  ],
  [
    65,
    "Las especies ben\u00e9ficas como medicamento para el humano son: caf\u00e9 de monte (Arrabidaea floribunda), chakaj (B. simaruba), chintok\u2019 (Krugiodendron ferreum), e\u2019le\u2019muy (Malmea depressa), k\u2019ak\u2019alche\u2019 (Diospyros cuneata) y ts\u2019uru\u2019 took\u2019 (Bauhinia divaricata), las cuales se utilizan principalmente para tratar mordeduras de v\u00edbora, afecciones del ri\u00f1\u00f3n y diarrea.\n",
    [
      {
        "text": "Arrabidaea floribunda",
        "type": "Nombre_cientifico",
        "offset": [
          75,
          96
        ]
      },
      {
        "text": "Krugiodendron ferreum",
        "type": "Nombre_cientifico",
        "offset": [
          131,
          152
        ]
      },
      {
        "text": "Malmea depressa",
        "type": "Nombre_cientifico",
        "offset": [
          165,
          180
        ]
      },
      {
        "text": "Diospyros cuneata",
        "type": "Nombre_cientifico",
        "offset": [
          196,
          213
        ]
      },
      {
        "text": "Bauhinia divaricata",
        "type": "Nombre_cientifico",
        "offset": [
          232,
          251
        ]
      },
      {
        "arg2_text": "ben\u00e9ficas como medicamento para el humano",
        "arg1_offset": [
          183,
          194
        ],
        "arg2_line": 65,
        "arg2_offset": [
          13,
          54
        ],
        "arg1_text": "k\u2019ak\u2019alche\u2019",
        "type": "se_usa",
        "arg1_line": 65
      },
      {
        "arg2_text": "ben\u00e9ficas como medicamento para el humano",
        "arg1_offset": [
          165,
          180
        ],
        "arg2_line": 65,
        "arg2_offset": [
          13,
          54
        ],
        "arg1_text": "Malmea depressa",
        "type": "se_usa",
        "arg1_line": 65
      },
      {
        "arg2_text": "ben\u00e9ficas como medicamento para el humano",
        "arg1_offset": [
          155,
          163
        ],
        "arg2_line": 65,
        "arg2_offset": [
          13,
          54
        ],
        "arg1_text": "e\u2019le\u2019muy",
        "type": "se_usa",
        "arg1_line": 65
      },
      {
        "arg2_text": "ben\u00e9ficas como medicamento para el humano",
        "arg1_offset": [
          131,
          152
        ],
        "arg2_line": 65,
        "arg2_offset": [
          13,
          54
        ],
        "arg1_text": "Krugiodendron ferreum",
        "type": "se_usa",
        "arg1_line": 65
      },
      {
        "arg2_text": "se utilizan principalmente para tratar mordeduras de v\u00edbora, afecciones del ri\u00f1\u00f3n y diarrea",
        "arg1_offset": [
          217,
          230
        ],
        "arg2_line": 65,
        "arg2_offset": [
          265,
          356
        ],
        "arg1_text": "ts\u2019uru\u2019 took\u2019",
        "type": "se_usa",
        "arg1_line": 65
      },
      {
        "arg2_text": "ben\u00e9ficas como medicamento para el humano",
        "arg1_offset": [
          232,
          251
        ],
        "arg2_line": 65,
        "arg2_offset": [
          13,
          54
        ],
        "arg1_text": "Bauhinia divaricata",
        "type": "se_usa",
        "arg1_line": 65
      },
      {
        "arg2_text": "ben\u00e9ficas como medicamento para el humano",
        "arg1_offset": [
          217,
          230
        ],
        "arg2_line": 65,
        "arg2_offset": [
          13,
          54
        ],
        "arg1_text": "ts\u2019uru\u2019 took\u2019",
        "type": "se_usa",
        "arg1_line": 65
      },
      {
        "arg2_text": "ben\u00e9ficas como medicamento para el humano",
        "arg1_offset": [
          196,
          213
        ],
        "arg2_line": 65,
        "arg2_offset": [
          13,
          54
        ],
        "arg1_text": "Diospyros cuneata",
        "type": "se_usa",
        "arg1_line": 65
      },
      {
        "arg2_text": "se utilizan principalmente para tratar mordeduras de v\u00edbora, afecciones del ri\u00f1\u00f3n y diarrea",
        "arg1_offset": [
          232,
          251
        ],
        "arg2_line": 65,
        "arg2_offset": [
          265,
          356
        ],
        "arg1_text": "Bauhinia divaricata",
        "type": "se_usa",
        "arg1_line": 65
      },
      {
        "arg2_text": "Arrabidaea floribunda",
        "arg1_offset": [
          60,
          73
        ],
        "arg2_line": 65,
        "arg2_offset": [
          75,
          96
        ],
        "arg1_text": "caf\u00e9 de monte",
        "type": "alias",
        "arg1_line": 65
      },
      {
        "arg2_text": "ben\u00e9ficas como medicamento para el humano",
        "arg1_offset": [
          107,
          118
        ],
        "arg2_line": 65,
        "arg2_offset": [
          13,
          54
        ],
        "arg1_text": "B. simaruba",
        "type": "se_usa",
        "arg1_line": 65
      },
      {
        "arg2_text": "ben\u00e9ficas como medicamento para el humano",
        "arg1_offset": [
          121,
          129
        ],
        "arg2_line": 65,
        "arg2_offset": [
          13,
          54
        ],
        "arg1_text": "chintok\u2019",
        "type": "se_usa",
        "arg1_line": 65
      },
      {
        "arg2_text": "Malmea depressa",
        "arg1_offset": [
          155,
          163
        ],
        "arg2_line": 65,
        "arg2_offset": [
          165,
          180
        ],
        "arg1_text": "e\u2019le\u2019muy",
        "type": "alias",
        "arg1_line": 65
      },
      {
        "arg2_text": "Diospyros cuneata",
        "arg1_offset": [
          183,
          194
        ],
        "arg2_line": 65,
        "arg2_offset": [
          196,
          213
        ],
        "arg1_text": "k\u2019ak\u2019alche\u2019",
        "type": "alias",
        "arg1_line": 65
      },
      {
        "arg2_text": "B. simaruba",
        "arg1_offset": [
          99,
          105
        ],
        "arg2_line": 65,
        "arg2_offset": [
          107,
          118
        ],
        "arg1_text": "chakaj",
        "type": "alias",
        "arg1_line": 65
      },
      {
        "arg2_text": "Krugiodendron ferreum",
        "arg1_offset": [
          121,
          129
        ],
        "arg2_line": 65,
        "arg2_offset": [
          131,
          152
        ],
        "arg1_text": "chintok\u2019",
        "type": "alias",
        "arg1_line": 65
      },
      {
        "arg2_text": "ben\u00e9ficas como medicamento para el humano",
        "arg1_offset": [
          75,
          96
        ],
        "arg2_line": 65,
        "arg2_offset": [
          13,
          54
        ],
        "arg1_text": "Arrabidaea floribunda",
        "type": "se_usa",
        "arg1_line": 65
      },
      {
        "arg2_text": "ben\u00e9ficas como medicamento para el humano",
        "arg1_offset": [
          99,
          105
        ],
        "arg2_line": 65,
        "arg2_offset": [
          13,
          54
        ],
        "arg1_text": "chakaj",
        "type": "se_usa",
        "arg1_line": 65
      },
      {
        "arg2_text": "Bauhinia divaricata",
        "arg1_offset": [
          217,
          230
        ],
        "arg2_line": 65,
        "arg2_offset": [
          232,
          251
        ],
        "arg1_text": "ts\u2019uru\u2019 took\u2019",
        "type": "alias",
        "arg1_line": 65
      },
      {
        "arg2_text": "ben\u00e9ficas como medicamento para el humano",
        "arg1_offset": [
          60,
          73
        ],
        "arg2_line": 65,
        "arg2_offset": [
          13,
          54
        ],
        "arg1_text": "caf\u00e9 de monte",
        "type": "se_usa",
        "arg1_line": 65
      },
      {
        "text": "se utilizan principalmente para tratar mordeduras de v\u00edbora, afecciones del ri\u00f1\u00f3n y diarrea",
        "type": "Medicinal",
        "offset": [
          265,
          356
        ]
      },
      {
        "text": "ts\u2019uru\u2019 took\u2019",
        "type": "Nombre_comun",
        "offset": [
          217,
          230
        ]
      },
      {
        "text": "chintok\u2019",
        "type": "Nombre_comun",
        "offset": [
          121,
          129
        ]
      },
      {
        "text": "B. simaruba",
        "type": "Nombre_cientifico",
        "offset": [
          107,
          118
        ]
      },
      {
        "text": "k\u2019ak\u2019alche\u2019",
        "type": "Nombre_comun",
        "offset": [
          183,
          194
        ]
      },
      {
        "text": "e\u2019le\u2019muy",
        "type": "Nombre_comun",
        "offset": [
          155,
          163
        ]
      },
      {
        "text": "ben\u00e9ficas como medicamento para el humano",
        "type": "Medicinal",
        "offset": [
          13,
          54
        ]
      },
      {
        "text": "chakaj",
        "type": "Nombre_comun",
        "offset": [
          99,
          105
        ]
      },
      {
        "text": "caf\u00e9 de monte",
        "type": "Nombre_comun",
        "offset": [
          60,
          73
        ]
      }
    ]
  ],
  [
    66,
    "Por su parte, el ch\u2019iich\u2019 puut (Carica papaya) y el chukum (H. albicans) ayudan a aliviar el dolor por mordedura de v\u00edbora y picadura de insectos en el hombre y los animales.\n",
    [
      {
        "text": "H. albicans",
        "type": "Nombre_cientifico",
        "offset": [
          60,
          71
        ]
      },
      {
        "text": "ayudan a aliviar el dolor por mordedura de v\u00edbora y picadura de insectos en el hombre y los animales",
        "type": "Medicinal",
        "offset": [
          73,
          173
        ]
      },
      {
        "text": "ch\u2019iich\u2019 puut",
        "type": "Nombre_comun",
        "offset": [
          17,
          30
        ]
      },
      {
        "text": "chukum",
        "type": "Nombre_comun",
        "offset": [
          52,
          58
        ]
      },
      {
        "text": "Carica papaya",
        "type": "Nombre_cientifico",
        "offset": [
          32,
          45
        ]
      },
      {
        "arg2_text": "Carica papaya",
        "arg1_offset": [
          17,
          30
        ],
        "arg2_line": 66,
        "arg2_offset": [
          32,
          45
        ],
        "arg1_text": "ch\u2019iich\u2019 puut",
        "type": "alias",
        "arg1_line": 66
      },
      {
        "arg2_text": "H. albicans",
        "arg1_offset": [
          52,
          58
        ],
        "arg2_line": 66,
        "arg2_offset": [
          60,
          71
        ],
        "arg1_text": "chukum",
        "type": "alias",
        "arg1_line": 66
      },
      {
        "arg2_text": "ayudan a aliviar el dolor por mordedura de v\u00edbora y picadura de insectos en el hombre y los animales",
        "arg1_offset": [
          17,
          30
        ],
        "arg2_line": 66,
        "arg2_offset": [
          73,
          173
        ],
        "arg1_text": "ch\u2019iich\u2019 puut",
        "type": "se_usa",
        "arg1_line": 66
      },
      {
        "arg2_text": "ayudan a aliviar el dolor por mordedura de v\u00edbora y picadura de insectos en el hombre y los animales",
        "arg1_offset": [
          32,
          45
        ],
        "arg2_line": 66,
        "arg2_offset": [
          73,
          173
        ],
        "arg1_text": "Carica papaya",
        "type": "se_usa",
        "arg1_line": 66
      },
      {
        "arg2_text": "ayudan a aliviar el dolor por mordedura de v\u00edbora y picadura de insectos en el hombre y los animales",
        "arg1_offset": [
          52,
          58
        ],
        "arg2_line": 66,
        "arg2_offset": [
          73,
          173
        ],
        "arg1_text": "chukum",
        "type": "se_usa",
        "arg1_line": 66
      },
      {
        "arg2_text": "ayudan a aliviar el dolor por mordedura de v\u00edbora y picadura de insectos en el hombre y los animales",
        "arg1_offset": [
          60,
          71
        ],
        "arg2_line": 66,
        "arg2_offset": [
          73,
          173
        ],
        "arg1_text": "H. albicans",
        "type": "se_usa",
        "arg1_line": 66
      }
    ]
  ],
  [
    67,
    "El pixoy (G. ulmifolia) ayuda a disminuir la diarrea en corderos (animales).\n",
    [
      {
        "text": "ayuda a disminuir la diarrea en corderos (animales)",
        "type": "Medicinal",
        "offset": [
          24,
          75
        ]
      },
      {
        "text": "pixoy",
        "type": "Nombre_comun",
        "offset": [
          3,
          8
        ]
      },
      {
        "text": "G. ulmifolia",
        "type": "Nombre_cientifico",
        "offset": [
          10,
          22
        ]
      },
      {
        "arg2_text": "G. ulmifolia",
        "arg1_offset": [
          3,
          8
        ],
        "arg2_line": 67,
        "arg2_offset": [
          10,
          22
        ],
        "arg1_text": "pixoy",
        "type": "alias",
        "arg1_line": 67
      },
      {
        "arg2_text": "ayuda a disminuir la diarrea en corderos (animales)",
        "arg1_offset": [
          10,
          22
        ],
        "arg2_line": 67,
        "arg2_offset": [
          24,
          75
        ],
        "arg1_text": "G. ulmifolia",
        "type": "se_usa",
        "arg1_line": 67
      },
      {
        "arg2_text": "ayuda a disminuir la diarrea en corderos (animales)",
        "arg1_offset": [
          3,
          8
        ],
        "arg2_line": 67,
        "arg2_offset": [
          24,
          75
        ],
        "arg1_text": "pixoy",
        "type": "se_usa",
        "arg1_line": 67
      }
    ]
  ],
  [
    68,
    "Dentro de las praderas o ranchos de libre pastoreo existen plantas forrajeras que ocasionan alg\u00fan da\u00f1o a los animales, pero los productores desconocen la sustancia t\u00f3xica o qu\u00edmica que provoca este efecto negativo.\n",
    []
  ],
  [
    69,
    "Los principales padecimientos que causan las especies son hinchaz\u00f3n en diferentes partes del cuerpo del animal, malestar estomacal y lesi\u00f3n en la ubre de las hembras gestantes.\n",
    []
  ],
  [
    70,
    "Estos resultados muestran claramente que, en cuanto a especies forrajeras da\u00f1inas, la zona oriente es la que posee el mayor conocimiento local con 10 especies (55.6%); seguida de la zona sur (33.3%); y, al igual que en el resto de las variables estudiadas, la zona centro es la que mostr\u00f3 el menor conocimiento local (11.1%).\n",
    []
  ],
  [
    71,
    "Las especies con mayor frecuencia relativa o porcentaje de menciones son el waxiim, seguido del chinch\u00edn chay y el ikab\u00e1n.\n",
    [
      {
        "text": "waxiim",
        "type": "Nombre_comun",
        "offset": [
          76,
          82
        ]
      },
      {
        "text": "chinch\u00edn chay",
        "type": "Nombre_comun",
        "offset": [
          96,
          109
        ]
      },
      {
        "text": "ikab\u00e1n",
        "type": "Nombre_comun",
        "offset": [
          115,
          121
        ]
      }
    ]
  ],
  [
    72,
    "El conocimiento local sobre las especies mel\u00edferas es muy amplio.\n",
    []
  ],
  [
    73,
    "Entre las principales especies que proporcionan miel, polen y cera a los apiarios, tenemos un total de 17 especies ampliamente conocidas por los informantes, de las cuales, las m\u00e1s nombradas fueron: el ja\u2019abin (P. piscipula), el ts\u2019its\u2019ilche\u2019 (G. floribundum), el tajonal (V. dentata), el pixoy (G. ulmifolia) y el chakaj (B. simaruba).",
    [
      {
        "arg2_text": "proporcionan miel, polen y cera a los apiarios",
        "arg1_offset": [
          289,
          294
        ],
        "arg2_line": 73,
        "arg2_offset": [
          35,
          81
        ],
        "arg1_text": "pixoy",
        "type": "se_usa",
        "arg1_line": 73
      },
      {
        "arg2_text": "proporcionan miel, polen y cera a los apiarios",
        "arg1_offset": [
          273,
          283
        ],
        "arg2_line": 73,
        "arg2_offset": [
          35,
          81
        ],
        "arg1_text": "V. dentata",
        "type": "se_usa",
        "arg1_line": 73
      },
      {
        "arg2_text": "G. ulmifolia",
        "arg1_offset": [
          289,
          294
        ],
        "arg2_line": 73,
        "arg2_offset": [
          296,
          308
        ],
        "arg1_text": "pixoy",
        "type": "alias",
        "arg1_line": 73
      },
      {
        "arg2_text": "V. dentata",
        "arg1_offset": [
          264,
          271
        ],
        "arg2_line": 73,
        "arg2_offset": [
          273,
          283
        ],
        "arg1_text": "tajonal",
        "type": "alias",
        "arg1_line": 73
      },
      {
        "arg2_text": "proporcionan miel, polen y cera a los apiarios",
        "arg1_offset": [
          202,
          209
        ],
        "arg2_line": 73,
        "arg2_offset": [
          35,
          81
        ],
        "arg1_text": "ja\u2019abin",
        "type": "se_usa",
        "arg1_line": 73
      },
      {
        "arg2_text": "B. simaruba",
        "arg1_offset": [
          315,
          321
        ],
        "arg2_line": 73,
        "arg2_offset": [
          323,
          334
        ],
        "arg1_text": "chakaj",
        "type": "alias",
        "arg1_line": 73
      },
      {
        "arg2_text": "proporcionan miel, polen y cera a los apiarios",
        "arg1_offset": [
          229,
          242
        ],
        "arg2_line": 73,
        "arg2_offset": [
          35,
          81
        ],
        "arg1_text": "ts\u2019its\u2019ilche\u2019",
        "type": "se_usa",
        "arg1_line": 73
      },
      {
        "arg2_text": "proporcionan miel, polen y cera a los apiarios",
        "arg1_offset": [
          211,
          223
        ],
        "arg2_line": 73,
        "arg2_offset": [
          35,
          81
        ],
        "arg1_text": "P. piscipula",
        "type": "se_usa",
        "arg1_line": 73
      },
      {
        "arg2_text": "proporcionan miel, polen y cera a los apiarios",
        "arg1_offset": [
          264,
          271
        ],
        "arg2_line": 73,
        "arg2_offset": [
          35,
          81
        ],
        "arg1_text": "tajonal",
        "type": "se_usa",
        "arg1_line": 73
      },
      {
        "arg2_text": "proporcionan miel, polen y cera a los apiarios",
        "arg1_offset": [
          244,
          258
        ],
        "arg2_line": 73,
        "arg2_offset": [
          35,
          81
        ],
        "arg1_text": "G. floribundum",
        "type": "se_usa",
        "arg1_line": 73
      },
      {
        "text": "chakaj",
        "type": "Nombre_comun",
        "offset": [
          315,
          321
        ]
      },
      {
        "text": "G. ulmifolia",
        "type": "Nombre_cientifico",
        "offset": [
          296,
          308
        ]
      },
      {
        "text": "pixoy",
        "type": "Nombre_comun",
        "offset": [
          289,
          294
        ]
      },
      {
        "text": "V. dentata",
        "type": "Nombre_cientifico",
        "offset": [
          273,
          283
        ]
      },
      {
        "text": "tajonal",
        "type": "Nombre_comun",
        "offset": [
          264,
          271
        ]
      },
      {
        "text": "G. floribundum",
        "type": "Nombre_cientifico",
        "offset": [
          244,
          258
        ]
      },
      {
        "text": "ts\u2019its\u2019ilche\u2019",
        "type": "Nombre_comun",
        "offset": [
          229,
          242
        ]
      },
      {
        "text": "P. piscipula",
        "type": "Nombre_cientifico",
        "offset": [
          211,
          223
        ]
      },
      {
        "text": "ja\u2019abin",
        "type": "Nombre_comun",
        "offset": [
          202,
          209
        ]
      },
      {
        "text": "proporcionan miel, polen y cera a los apiarios",
        "type": "Uso",
        "offset": [
          35,
          81
        ]
      },
      {
        "arg2_text": "proporcionan miel, polen y cera a los apiarios",
        "arg1_offset": [
          296,
          308
        ],
        "arg2_line": 73,
        "arg2_offset": [
          35,
          81
        ],
        "arg1_text": "G. ulmifolia",
        "type": "se_usa",
        "arg1_line": 73
      },
      {
        "arg2_text": "proporcionan miel, polen y cera a los apiarios",
        "arg1_offset": [
          315,
          321
        ],
        "arg2_line": 73,
        "arg2_offset": [
          35,
          81
        ],
        "arg1_text": "chakaj",
        "type": "se_usa",
        "arg1_line": 73
      },
      {
        "text": "B. simaruba",
        "type": "Nombre_cientifico",
        "offset": [
          323,
          334
        ]
      },
      {
        "arg2_text": "P. piscipula",
        "arg1_offset": [
          202,
          209
        ],
        "arg2_line": 73,
        "arg2_offset": [
          211,
          223
        ],
        "arg1_text": "ja\u2019abin",
        "type": "alias",
        "arg1_line": 73
      },
      {
        "arg2_text": "G. floribundum",
        "arg1_offset": [
          229,
          242
        ],
        "arg2_line": 73,
        "arg2_offset": [
          244,
          258
        ],
        "arg1_text": "ts\u2019its\u2019ilche\u2019",
        "type": "alias",
        "arg1_line": 73
      },
      {
        "arg2_text": "proporcionan miel, polen y cera a los apiarios",
        "arg1_offset": [
          323,
          334
        ],
        "arg2_line": 73,
        "arg2_offset": [
          35,
          81
        ],
        "arg1_text": "B. simaruba",
        "type": "se_usa",
        "arg1_line": 73
      }
    ]
  ]
]