[
  [
    1,
    "Foramin\u00edferos y ostr\u00e1codos \n",
    []
  ],
  [
    2,
    "\n",
    []
  ],
  [
    3,
    "Introducci\u00f3n \n",
    []
  ],
  [
    4,
    "\n",
    []
  ],
  [
    5,
    "Recientes y diversos estudios se\u00f1alan la relevancia de los foramin\u00edferos y ostr\u00e1codos, microorganismos marinos que han sido de gran utilidad para la micropaleontolog\u00eda por su funci\u00f3n ecol\u00f3gica y bioestratigrafica respectivamente.\n",
    []
  ],
  [
    6,
    "Los foramin\u00edferos son organismos unicelulares ameboides pertenecientes al reino Protista, (orden Foramin\u00edfera, Subphylum Sarcodina, Clase Granuloreticulosa) (Capriulo,1990), que forman una testa o conchilla, secretada de carbonato de calcio o aglutinada de los materiales circundantes en el medio donde se desarrollan (figura 1).\n",
    [
      {
        "text": "Subphylum Sarcodina",
        "type": "Nombre_cientifico",
        "offset": [
          111,
          130
        ]
      },
      {
        "text": "Granuloreticulosa",
        "type": "Nombre_cientifico",
        "offset": [
          138,
          155
        ]
      },
      {
        "text": "Protista",
        "type": "Nombre_cientifico",
        "offset": [
          80,
          88
        ]
      },
      {
        "text": "Foramin\u00edfera",
        "type": "Nombre_cientifico",
        "offset": [
          97,
          109
        ]
      }
    ]
  ],
  [
    7,
    "Son parte del zooplancton y de microbentos de los mares y oc\u00e9anos.\n",
    []
  ],
  [
    8,
    "La textura de la testa puede ser de porcelana, v\u00edtrea o arenosa, su tama\u00f1o oscila entre 10 \u00b5m de di\u00e1metro hasta unos cuantos cent\u00edmetros (BouDagher-Fadel, 1997), est\u00e1 a su vez se encuentra integrada por diversas c\u00e1maras que el protozoario va construyendo a lo largo de su vida, y se encuentran conectadas a trav\u00e9s de una apertura, llamada foramen (caracter\u00edstica principal de estos organismos), por medio de la cual la c\u00e9lula tiene libre movimiento y comunicaci\u00f3n entre la parte interna y externa del organismo, lo que permite interactuar con su medio ambiente (Capriulo, 1990).\n",
    []
  ],
  [
    9,
    "Estos organismos omn\u00edvoros, juegan un importante papel en el medio marino, en las redes tr\u00f3ficas y en los ciclos biogeoqu\u00edmicos de compuestos org\u00e1nicos e inorg\u00e1nicos (Machain-Castillo y Ru\u00edz-Fern\u00e1ndez, 2006).\n",
    []
  ],
  [
    10,
    "Dependiendo del h\u00e1bitat o el espacio donde se encuentren los foramin\u00edferos se dividen en planct\u00f3nicos y bent\u00f3nicos.\n",
    []
  ],
  [
    11,
    "Los primeros est\u00e1n distribuidos en la columna de agua y los segundos sobre el sedimento.\n",
    []
  ],
  [
    12,
    "Por otra parte, los ostr\u00e1codos son microcrust\u00e1ceos (phylum Arthropoda, orden Podocopida), los cuales se caracterizan por la presencia de un caparaz\u00f3n bivalvo de origen epid\u00e9rmico que encierra al organismo y presentan de cinco a ocho pares de ap\u00e9ndices.\n",
    [
      {
        "text": "Arthropoda",
        "type": "Nombre_cientifico",
        "offset": [
          59,
          69
        ]
      },
      {
        "text": "Podocopida",
        "type": "Nombre_cientifico",
        "offset": [
          77,
          87
        ]
      }
    ]
  ],
  [
    13,
    "El cuerpo est\u00e1 dividido en dos regiones: cabeza y t\u00f3rax (Ruppert, 1966; G\u00edo-Arg\u00e1ez et al., 2004).\n",
    []
  ],
  [
    14,
    "Las valvas que componen al organismo pueden estar cerradas herm\u00e9ticamente y son parte integral del cuerpo.\n",
    []
  ],
  [
    15,
    "En la mayor\u00eda de estos, se presentan calcificaciones con poros normales (orificios a trav\u00e9s de la valva de diversos tama\u00f1os y formas seg\u00fan la especie).\n",
    []
  ],
  [
    16,
    "Su tama\u00f1o var\u00eda entre 0.5 a 2 mm en promedio (Horne et al., 2002).\n",
    []
  ],
  [
    17,
    "Presentan un dimorfismo sexual, donde el macho es m\u00e1s peque\u00f1o y en general m\u00e1s alargado y activo.\n",
    []
  ],
  [
    18,
    "Crecen por mudas y presentan hasta ocho estadios larvarios, as\u00ed, al pasar de uno a otro desechan el caparaz\u00f3n y secretan uno nuevo de mayor tama\u00f1o.\n",
    []
  ],
  [
    19,
    "Durante la secreci\u00f3n del nuevo caparaz\u00f3n, el organismo incorpora, junto con el carbonato y el calcio, otros elementos afines disponibles en el medio, como magnesio, estroncio, cadmio, bario u otros contaminantes presentes.\n",
    []
  ],
  [
    20,
    "(Pokorn\u00fd, 1952; Machain-Castillo y Ruiz-Fern\u00e1ndez, 2006).\n",
    []
  ],
  [
    21,
    "Se encuentran en todos los medios acu\u00e1ticos, siendo la mayor\u00eda de vida libre.\n",
    []
  ],
  [
    22,
    "Adem\u00e1s existe una relaci\u00f3n entre la morfolog\u00eda de los ostr\u00e1codos y su ambiente.\n",
    []
  ],
  [
    23,
    "Por ejemplo, los ostr\u00e1codos bent\u00f3nicos marinos muestran estructuras simulando alas con el fin de no hundirse en el sustrato limoso y disminuir su peso espec\u00edfico.\n",
    []
  ],
  [
    24,
    "\n",
    []
  ],
  [
    25,
    "Diversidad \n",
    []
  ],
  [
    26,
    "\n",
    []
  ],
  [
    27,
    "Comparativamente, los foramin\u00edferos son m\u00e1s abundantes y diversos que los ostr\u00e1codos.\n",
    []
  ],
  [
    28,
    "Los foramin\u00edferos habitan sobre algas, conchas, rocas o en las arenas y limos en todos los oc\u00e9anos y mares.\n",
    []
  ],
  [
    29,
    "Se conocen aproximadamente 4 000 especies, de las cuales en su mayor\u00eda son bent\u00f3nicas y solo 40 de estas son planct\u00f3nicas.\n",
    []
  ],
  [
    30,
    "En la Rep\u00fablica Mexicana tan solo en las costas del estado de Campeche se han reportado 103 especies ubicadas entre la laguna y bah\u00eda (cd anexo), de las familias Rotaliidae, Discorbidae, Lituolidae, Miliolidae y Soritidae, entre otras (tabla 1).\n",
    [
      {
        "text": "Discorbidae",
        "type": "Nombre_cientifico",
        "offset": [
          174,
          185
        ]
      },
      {
        "text": "Lituolidae",
        "type": "Nombre_cientifico",
        "offset": [
          187,
          197
        ]
      },
      {
        "text": "Miliolidae",
        "type": "Nombre_cientifico",
        "offset": [
          199,
          209
        ]
      },
      {
        "text": "Rotaliidae",
        "type": "Nombre_cientifico",
        "offset": [
          162,
          172
        ]
      },
      {
        "text": "Soritidae",
        "type": "Nombre_cientifico",
        "offset": [
          212,
          221
        ]
      }
    ]
  ],
  [
    31,
    "Por lo que corresponde a los ostr\u00e1codos, de acuerdo con G\u00edo-Arg\u00e1ez et al. (2002), en los mares y litorales mexicanos se han localizado m\u00e1s de 760 especies, distribuidos de la siguiente manera: 300 en el Golfo de M\u00e9xico, 110 en el Mar Caribe y 350 en el Oc\u00e9ano Pac\u00edfico.\n",
    []
  ],
  [
    32,
    "Tal distribuci\u00f3n se relaciona con factores ambientales de las plataformas terr\u00edgenas y carbonatadas, as\u00ed como de la profundidad de los oc\u00e9anos (G\u00edo-Arga\u00e9z, 2000).\n",
    []
  ],
  [
    33,
    "Para Campeche se han registrado 90 especies entre la laguna, la bah\u00eda y la desembocadura del delta (cd anexo).\n",
    []
  ],
  [
    34,
    "De las familias m\u00e1s representativas, se encuentran Macrocyprididae, Cytherellidae, Loxoconchidae, Bairdiidae, Cytheromatidae, Schizocytheridae y Trachyleberididae. \n",
    [
      {
        "text": "Loxoconchidae",
        "type": "Nombre_cientifico",
        "offset": [
          83,
          96
        ]
      },
      {
        "text": "Macrocyprididae",
        "type": "Nombre_cientifico",
        "offset": [
          51,
          66
        ]
      },
      {
        "text": "Cytherellidae",
        "type": "Nombre_cientifico",
        "offset": [
          68,
          81
        ]
      },
      {
        "text": "Trachyleberididae",
        "type": "Nombre_cientifico",
        "offset": [
          145,
          162
        ]
      },
      {
        "text": "Cytheromatidae",
        "type": "Nombre_cientifico",
        "offset": [
          110,
          124
        ]
      },
      {
        "text": "Schizocytheridae",
        "type": "Nombre_cientifico",
        "offset": [
          126,
          142
        ]
      },
      {
        "text": "Bairdiidae",
        "type": "Nombre_cientifico",
        "offset": [
          98,
          108
        ]
      }
    ]
  ],
  [
    35,
    "Distribuci\u00f3n \n",
    []
  ],
  [
    36,
    "\n",
    []
  ],
  [
    37,
    "Como grupo, los foramin\u00edferos se encuentran en un amplio rango de ambientes marinos.\n",
    [
      {
        "text": "foramin\u00edferos",
        "type": "Nombre_cientifico",
        "offset": [
          16,
          29
        ]
      }
    ]
  ],
  [
    38,
    "En Campeche, en la laguna de T\u00e9rminos, Ayala- Casta\u00f1ares (1963) encontr\u00f3 que los foramin\u00edferos no presentan tendencias de distribuci\u00f3n muy marcadas en las lagunas litorales, debido al car\u00e1cter transicional de estos ambientes con factores ecol\u00f3gicos muy variables.\n",
    []
  ],
  [
    39,
    "De modo que s\u00f3lo viven seres con gran capacidad de adaptaci\u00f3n a estos cambios ecol\u00f3gicos, a pesar que muchos tambi\u00e9n habitan otros medios menos variables.\n",
    []
  ],
  [
    40,
    "El n\u00famero de g\u00e9neros y especies tienden a aumentar desde la zona con salinidad baja hasta las zonas muy salinas, particularmente en la Boca de Paso Real.\n",
    []
  ],
  [
    41,
    "Algunos de los g\u00e9neros y especies identificados, parecen comportarse con tendencia hacia ciertas condiciones ambientales favorables para ellos, como la especie Ammonia beccarii (Linnaeus) y sus variantes, as\u00ed como Elphidium gunteri Cole, ambas especies predominan en las poblaciones, aunque en las diferentes biofacies o unidades biol\u00f3gicas que se presentan a lo largo de la laguna se encuentran asociadas con especies que contribuyen a su mejor diferenciaci\u00f3n.\n",
    [
      {
        "text": "Elphidium gunteri",
        "type": "Nombre_cientifico",
        "offset": [
          214,
          231
        ]
      }
    ]
  ],
  [
    42,
    "La asociaci\u00f3n faun\u00edstica se encuentra constituida por Ammonia beccarii y vars.,\n",
    []
  ],
  [
    43,
    "Cribrononion lene, Cellanthus gunteri, Palmerinella palmerae, Ammobaculites dilatus y Elphidium incertum mexicanum (Segura y Wong-Chan, 1980).\n",
    [
      {
        "text": "Cribrononion lene",
        "type": "Nombre_cientifico",
        "offset": [
          0,
          17
        ]
      },
      {
        "text": "Cellanthus gunteri",
        "type": "Nombre_cientifico",
        "offset": [
          19,
          37
        ]
      },
      {
        "text": "Palmerinella palmerae",
        "type": "Nombre_cientifico",
        "offset": [
          39,
          60
        ]
      },
      {
        "text": "Ammobaculites dilatus",
        "type": "Nombre_cientifico",
        "offset": [
          62,
          83
        ]
      },
      {
        "text": "Elphidium incertum mexicanum",
        "type": "Nombre_cientifico",
        "offset": [
          86,
          114
        ]
      }
    ]
  ],
  [
    44,
    "Los ostr\u00e1codos son de gran utilidad como indicadores en ambientes costeros, ya que se distribuyen en todos los ambientes acu\u00e1ticos, tanto dulceacu\u00edcolas como salobres y marinos, con grupos caracter\u00edsticos y f\u00e1cilmente diferenciables para cada tipo de salinidad.\n",
    []
  ],
  [
    45,
    "En un estudio realizado por G\u00edo-Arg\u00e1ez (2000), se determinaron las asociaciones representativas y sus patrones de distribuci\u00f3n.\n",
    []
  ],
  [
    46,
    "Tales resultados mostraron cuatro factores o asociaciones significativas.\n",
    []
  ],
  [
    47,
    "Cada una de esas asociaciones se encuentra representada por especies indicadoras de las aguas que se encuentran en esa zona. \n",
    []
  ],
  [
    48,
    "\n",
    []
  ],
  [
    49,
    "Importancia \n",
    []
  ],
  [
    50,
    "\n",
    []
  ],
  [
    51,
    "Los foramin\u00edferos y ostr\u00e1codos son importantes en el rubro ecol\u00f3gico y econ\u00f3mico.\n",
    []
  ],
  [
    52,
    "Varias especies de foramin\u00edferos y ostr\u00e1codos presentan rangos estrechos de tolerancia a par\u00e1metros ambientales.\n",
    []
  ],
  [
    53,
    "En el Golfo de M\u00e9xico las asociaciones de foramin\u00edferos (Machain-Castillo, 1989) sirven como indicadores para la localizaci\u00f3n de mantos petrol\u00edferos mediante estudios estratigr\u00e1ficos para ubicar secuencias sedimentarias en el tiempo geol\u00f3gico (Cant\u00fa-Chapa, 2007).\n",
    []
  ],
  [
    54,
    "Las variaciones morfol\u00f3gicas, composici\u00f3n qu\u00edmica, abundancia y/o distribuci\u00f3n de los organismos permite que sean utilizados como indicadores ecol\u00f3gicos de masas de agua, circulaci\u00f3n oce\u00e1nica y cambios ambientales como la presencia de contaminantes en el medio, ya que en el caso de los ostr\u00e1codos, el caparaz\u00f3n mantiene las mismas concentraciones que se presentaban al momento de su calcificaci\u00f3n y con ello, conocer su cantidad en proporciones inalteradas (Machain-Castillo y Ruiz-Fern\u00e1ndez, 2006).\n",
    []
  ],
  [
    55,
    "Adem\u00e1s, el tama\u00f1o, la resistencia de sus cuerpos, y sus ciclos de vida caracter\u00edsticos permite su preservaci\u00f3n y respuesta a las modificaciones ambientales de modo que son utilizados como indicadores paleoecol\u00f3gicos y bioestratigraficos en la micropaleontolog\u00eda. \n",
    []
  ],
  [
    56,
    "\n",
    []
  ],
  [
    57,
    "Situaci\u00f3n, amenazas y acciones para su conservaci\u00f3n \n",
    []
  ],
  [
    58,
    "\n",
    []
  ],
  [
    59,
    "Existen pocos trabajos para ambos grupos con respecto a este t\u00f3pico, por lo que es necesario realizar estudios comparativos con la finalidad de conocer c\u00f3mo se ha modificado al paso de los a\u00f1os la distribuci\u00f3n, abundancia y posible migraci\u00f3n de las diferentes poblaciones, y determinar la verdadera situaci\u00f3n ecol\u00f3gica en la que se encuentra la zona mar\u00edtima y continental del estado de Campeche.\n",
    []
  ],
  [
    60,
    "Las poblaci\u00f3nes de foramin\u00edferos y ostr\u00e1codos, est\u00e1n siendo afectadas por la contaminaci\u00f3n antropogenica, producto de los desechos industriales y de la descarga de aguas dentro de los cuerpos lagunares as\u00ed como por la contaminaci\u00f3n de la industria petrolera, a causa de derrames accidentales.\n",
    []
  ],
  [
    61,
    "Otra amenaza para su modificaci\u00f3n poblacional, es el calentamiento global, ya que modifica la temperatura del agua de los oc\u00e9anos afectando la densidad y salinidad del ambiente mar\u00edtimo en general.\n",
    []
  ],
  [
    62,
    "Tabla 2. Asociaciones biol\u00f3gicas de ostr\u00e1co",
    []
  ]
]