[
  [
    1,
    "INTRODUCCI\u00d3N \n",
    []
  ],
  [
    2,
    "\n",
    []
  ],
  [
    3,
    "La biodiversidad en el ecosistema suelo, a pesar de su riqueza ha sido poco estudiada, ya que por ser un ambiente compacto y opaco se ha dificultado trabajar en \u00e9l.\n",
    []
  ],
  [
    4,
    "El suelo no es solamente la parte f\u00edsica en donde se anclan y crecen las ra\u00edces de las plantas, ni s\u00f3lo el sitio donde muchos animales tienen sus madrigueras.\n",
    []
  ],
  [
    5,
    "Actualmente, el avance en las t\u00e9cnicas anal\u00edticas ha permitido mostrar qu\u00e9 tan vivo y din\u00e1- mico es el suelo.\n",
    []
  ],
  [
    6,
    "Se ha tratado, tambi\u00e9n, de correlacionar la biodiversidad que est\u00e1 arriba del suelo y la que est\u00e1 abajo; hasta la fecha no se ha logrado obtener conclusiones claras debido a la falta de evidencias y al hecho de que los efectos de la biodiversidad del suelo sobre la productividad de las plantas, composici\u00f3n y diversidad, dependen de las condiciones particulares de cada ambiente (Wardle et al., 2004).\n",
    []
  ],
  [
    7,
    "En los ecosistemas terrestres la energ\u00eda es capturada por las plantas a trav\u00e9s de la fotos\u00edntesis y es utilizada para respirar, como para formar su biomasa.\n",
    []
  ],
  [
    8,
    "La contraparte de este proceso es la descom- posici\u00f3n de la materia org\u00e1nica (Heal et al., 1997). \u00c9sta permite, por un lado, que se reciclen los nutrientes, generando mol\u00e9culas sencillas para ser absorbidas de nuevo por las plantas y, por otro lado, que se convierta en humus, el cual es una forma estable de la materia org\u00e1nica que funciona como alimento para los habitantes del suelo y como reservorio de nutrientes, mismo que se libera lentamente para las plantas (figura 1).\n",
    []
  ],
  [
    9,
    "Adem\u00e1s, la materia org\u00e1- nica tambi\u00e9n contribuye a la estructura del suelo, secuestra el bi\u00f3xido de carbono, retiene los nutrientes y el agua, ayuda a amortiguar los cambios de temperatura, la erosi\u00f3n y compactaci\u00f3n (Labrador- Moreno, 1996).\n",
    []
  ],
  [
    10,
    "De manera general aumenta la resilencia del suelo (Kay y Angers, 2000).\n",
    []
  ],
  [
    11,
    "\n",
    []
  ],
  [
    12,
    "BIODIVERSIDAD DEL SUELO \n",
    []
  ],
  [
    13,
    "\n",
    []
  ],
  [
    14,
    "El intervalo de tama\u00f1o de los organismos que habitan el suelo es amplio: va desde las bacterias unicelulares que miden fracciones de micras, pasando por los hongos que producen muchas esporas y metros de filamentos (hifas), hasta los vertebrados que hacen madrigueras en \u00e9l.\n",
    []
  ],
  [
    15,
    "Por ello la fauna del suelo se ha clasificado en la microfauna y mesofauna (<2 mm) que comprende los \u00e1caros, col\u00e9mbolos y nem\u00e1todos entre otros; la macrofauna (>2 mm) que incluye las lombrices de tierra, hormigas, termitas, ciempi\u00e9s, milpi\u00e9s y gallinas ciegas, etc., y la megafauna constituida por los vertebrados.\n",
    [
      {
        "text": "termitas",
        "type": "Nombre_comun",
        "offset": [
          214,
          222
        ]
      },
      {
        "text": "ciempi\u00e9s",
        "type": "Nombre_comun",
        "offset": [
          224,
          232
        ]
      },
      {
        "text": "milpi\u00e9s",
        "type": "Nombre_comun",
        "offset": [
          234,
          241
        ]
      },
      {
        "text": "gallinas ciegas",
        "type": "Nombre_comun",
        "offset": [
          244,
          259
        ]
      },
      {
        "text": "lombrices de tierra",
        "type": "Nombre_comun",
        "offset": [
          183,
          202
        ]
      },
      {
        "text": "hormigas",
        "type": "Nombre_comun",
        "offset": [
          204,
          212
        ]
      }
    ]
  ],
  [
    16,
    "En un gramo de suelo existen m\u00e1s de 100 millones de bacterias, cientos de protozoarios y varias decenas de nem\u00e1todos, aparte de varios metros de hifas y cientos de esporas de hongos.\n",
    []
  ],
  [
    17,
    "En un metro cuadrado puede haber cientos de artr\u00f3podos (cochinillas, ara\u00f1as, ciempi\u00e9s, milpi\u00e9s e insectos) y decenas de lombrices de tierra.\n",
    [
      {
        "text": "cochinillas",
        "type": "Nombre_comun",
        "offset": [
          56,
          67
        ]
      },
      {
        "text": "ara\u00f1as",
        "type": "Nombre_comun",
        "offset": [
          69,
          75
        ]
      },
      {
        "text": "milpi\u00e9s",
        "type": "Nombre_comun",
        "offset": [
          87,
          94
        ]
      },
      {
        "text": "ciempi\u00e9s",
        "type": "Nombre_comun",
        "offset": [
          77,
          85
        ]
      },
      {
        "text": "lombrices de tierra",
        "type": "Nombre_comun",
        "offset": [
          120,
          139
        ]
      }
    ]
  ],
  [
    18,
    "Adem\u00e1s, la mayor\u00eda de las plantas tienen sus ra\u00edces y sus semillas que se entierran (banco de semillas) en el suelo.\n",
    []
  ],
  [
    19,
    "\n",
    []
  ],
  [
    20,
    "Redes alimenticias (tr\u00f3ficas) y grupos funcionales \n",
    []
  ],
  [
    21,
    "\n",
    []
  ],
  [
    22,
    "Los organismos del suelo forman redes alimenticias complejas, que se inician y concluyen con las bacterias y los hongos, capaces de descomponer cualquier material org\u00e1nico.\n",
    []
  ],
  [
    23,
    "Se denomina grupo funcional a un conjunto de organismos que pueden ser diferentes pero que efect\u00faan una funci\u00f3n semejante.\n",
    []
  ],
  [
    24,
    "Por ejemplo, diferentes especies de bacterias pueden conformar el grupo funcional de los fijadores de nitr\u00f3geno.\n",
    []
  ],
  [
    25,
    "Otro ejemplo evidente es el de los \u201cingenieros\u201d del ecosistema que se encarga de incrementar la estructura del suelo.\n",
    []
  ],
  [
    26,
    "Esta \u201cingenier\u00eda\u201d puede ser el resultado de sus movimientos en el suelo (galer\u00edas o madrigueras), de su alimentaci\u00f3n a base de tierra (ge\u00f3faga) o de su metabolismo.\n",
    []
  ],
  [
    27,
    "Por ejemplo, los hongos micorriz\u00f3genos secretan una sustancia cementante llamada glomalina (carbohidratos), que le da cohesi\u00f3n a los terrones y agregados (Wolfe, 2006); de la misma manera, las bacterias contribuyen a la estructura del suelo produciendo compuestos similares.\n",
    []
  ],
  [
    28,
    "Las lombrices de tierra ge\u00f3fagas igualmente tienen un impacto enorme en la estructura del suelo y la din\u00e1mica de la materia org\u00e1nica \u00a1Una poblaci\u00f3n de 33 000 lombrices en una hect\u00e1rea de pastizal de Plan de las Hayas, Veracruz, puede ingerir y excretar anualmente m\u00e1s de 400 toneladas de suelo! (Lavelle et al., 1987).\n",
    []
  ],
  [
    29,
    "\n",
    []
  ],
  [
    30,
    "Interacciones \n",
    []
  ],
  [
    31,
    "\n",
    []
  ],
  [
    32,
    "Entre los organismos del suelo, por ser un medio compacto, opaco, heterog\u00e9neo y pobre en alimento, existen adaptaciones e interacciones para poder sobrevivir.\n",
    []
  ],
  [
    33,
    "Un ejemplo de esto se observa en la zona de influencia de la ra\u00edz de las plantas (riz\u00f3sfera), donde hay una gran actividad.\n",
    []
  ],
  [
    34,
    "Las ra\u00edces activan a las bacterias y hongos secretando alimento de calidad (\u201cexudados\u201d); los exudados constituyen del 16 hasta el 33 % del carbono fijado en la fotos\u00edntesis (Heal et al., 1997) y promueven que las bacterias y hongos mineralicen y humifiquen la materia org\u00e1- nica muerta y adem\u00e1s produzcan hormonas vegetales, vitaminas y otros compuestos, los que a su vez estimulan el crecimiento de las plantas.\n",
    []
  ],
  [
    35,
    "Ciertas bacterias y hongos llevan a cabo asociaciones \u00edntimas en las ra\u00edces, formando n\u00f3dulos y micorrizas, respectivamente.\n",
    []
  ],
  [
    36,
    "Dentro de la gran diversidad biol\u00f3gica que hay en el suelo, tambi\u00e9n se encuentran organismos pat\u00f3genos que provocan enfermedades a las plantas.\n",
    []
  ],
  [
    37,
    "Por ejemplo, algunas bacterias, virus, hongos y algunos animales como los nem\u00e1todos y las larvas de los escarabajos pueden volverse plaga o ser vector de enfermedades.\n",
    []
  ],
  [
    38,
    "Sin embargo, estas enfermedades o actividades paras\u00edticas suceden con mayor frecuencia cuando el suelo ha perdido su equilibrio y salud, en particular cuando su biodiversidad se ha empobrecido.\n",
    []
  ],
  [
    39,
    "Cabe se\u00f1alar que la biodiversidad del suelo depende del tipo de clima, del suelo mineral y tipo de vegetaci\u00f3n y, a su vez, esta biodiversidad ejercer\u00e1 un efecto en el sistema suelo.\n",
    []
  ],
  [
    40,
    "En las \u00faltimas d\u00e9cadas, en M\u00e9xico se ha empezado a estudiar el suelo con una visi\u00f3n integrada y de sistema ecol\u00f3gico.\n",
    []
  ],
  [
    41,
    "En particular \u00c1lvarez-S\u00e1nchez y Naranjo-Garc\u00eda (2003) reunieron trabajos acerca del funcionamiento del suelo en la selva tropical h\u00fameda de M\u00e9xico.\n",
    []
  ],
  [
    42,
    "Por otro lado, Fragoso y Reyes (2001) compilaron varios art\u00edculos sobre el estado actual de la diversidad de algunos grupos funcionales del suelo.\n",
    []
  ],
  [
    43,
    "\n",
    []
  ],
  [
    44,
    "EL PROYECTO \u201cCONSERVACI\u00d3N Y MANEJO SOSTENIBLE DE LA BIODIVERSIDAD EN EL SUELO\u201d \n",
    []
  ],
  [
    45,
    "\n",
    []
  ],
  [
    46,
    "En el siglo pasado, cuando ocurri\u00f3 la \u201crevoluci\u00f3n verde\u201d en la agricultura, se crey\u00f3 que era suficiente con manejar las propiedades f\u00edsicas y qu\u00edmicas de los suelos para acrecentar su productividad, menospreci\u00e1ndose la importancia de su aspecto biol\u00f3gico.\n",
    []
  ],
  [
    47,
    "Con la llegada de los tractores, los fertilizantes inor- g\u00e1nicos, los plaguicidas y herbicidas qu\u00edmicos, m\u00e1s la irrigaci\u00f3n y el monocultivo de plantas seleccionadas, se crey\u00f3 que se ten\u00edan solucionados los problemas agr\u00edcolas.\n",
    []
  ],
  [
    48,
    "Sin embargo, el manejo desbalanceado de estos elementos acentu\u00f3 problemas como la p\u00e9rdida o erosi\u00f3n de suelo, la contaminaci\u00f3n del agua ocasion\u00f3 problemas de la salud debido a los agentes qu\u00edmicos, la salinizaci\u00f3n por riego con aguas ricas en sales y la proliferaci\u00f3n de plagas por los mono- cultivos.\n",
    []
  ],
  [
    49,
    "A ra\u00edz de la crisis en la agricultura desencadenada por la revoluci\u00f3n verde y la falta de conocimiento sobre la biodiversidad y la biolog\u00eda del suelo, algu- nas agencias y organizaciones interesadas han apo- yado investigaciones sobre el tema de la biolog\u00eda y ecolog\u00eda de los suelos.\n",
    []
  ],
  [
    50,
    "En particular se est\u00e1 llevando a cabo un amplio proyecto internacional denominado: \u201cConservaci\u00f3n y Manejo Sostenible de la Biodiversidad en el Suelo\u201d (Conservation and Sus- tainable Management of Below-Ground Biodiver- sity, CSM-BGBD, por sus siglas en ingl\u00e9s) (CSM-BGBD 2002-2009). \u00c9ste es ejecutado por el Tropical Soil Biology and Fertility Institute (TSBF) del Centro de Investigaciones Agr\u00edcolas Tropicales (CIAT), en el que participan siete pa\u00edses: Indonesia, India, Uganda, Kenia, Costa de Marfil, Brasil y M\u00e9xico.\n",
    []
  ],
  [
    51,
    "El financiamiento es del Fondo para el Medio Ambiente (GEF).\n",
    []
  ],
  [
    52,
    "En nuestro pa\u00eds es el Insti- tuto de Ecolog\u00eda, A.C. quien est\u00e1 coordinando dicho proyecto, cuyo objetivo general es conocer la biodiversidad del suelo y proporcionar conocimien- tos y t\u00e9cnicas para manejar y conservar esta biodi- versidad en paisajes tropicales.\n",
    []
  ],
  [
    53,
    "Una fortaleza del proyecto BGBD es que con- junta la participaci\u00f3n de varios especialistas en el estudio de organismos del suelo y de otras discipli- nas, con campesinos y ONG.\n",
    []
  ],
  [
    54,
    "Es un proyecto inte- grador, tanto en el plano acad\u00e9mico, al considerar al suelo como un todo, como en la vinculaci\u00f3n con el sector campesino y en quienes toman decisiones.\n",
    []
  ],
  [
    55,
    "La intenci\u00f3n es demostrar la importancia de la biodi- versidad bajo el suelo para los servicios ambientales y la posibilidad de su manejo para hacer un uso sus- tentable del suelo como recurso productivo.\n",
    []
  ],
  [
    56,
    "\n",
    []
  ],
  [
    57,
    "Inventarios \n",
    []
  ],
  [
    58,
    "\n",
    []
  ],
  [
    59,
    "La zona de amortiguamiento de la Reserva de la Biosfera Los Tuxtlas (Veracruz), en particular la zona del volc\u00e1n Santa Marta, se escogi\u00f3 como sitio de trabajo en M\u00e9xico debido a su gran biodiversi- dad arriba del suelo.\n",
    []
  ],
  [
    60,
    "Los inventarios se llevaron a cabo en cuatro dife- rentes usos de suelo (selva, acahual, maizal y pasti- zal) y en tres ejidos (Adolfo L\u00f3pez Mateos, municipio de Catemaco; San Fernando, municipio de Soteapan y Venustiano Carranza, municipio de Tatahuicapan).\n",
    []
  ],
  [
    61,
    "Considerando que la biodiversidad del suelo es tan amplia, se efectuaron inventarios s\u00f3lo de ciertos grupos importantes para la agricultura o que pudie- ran ser bioindicadores de la salud del suelo.\n",
    []
  ],
  [
    62,
    "Un grupo o una especie bioindicador se refiere a orga- nismos cuya presencia o ausencia permiten r\u00e1pida- mente diagnosticar si dicho suelo ha sido altamente perturbado o se ha conservado.\n",
    []
  ],
  [
    63,
    "Los grupos inventariados fueron: las bacterias fijadoras de nitr\u00f3geno (Rhizobium), los hongos micorriz\u00f3genos (formadores de micorrizas) y fito- pat\u00f3genos (capaces de producir enfermedad a plan- tas); de la microfauna, los nem\u00e1todos de vida libre o par\u00e1sitos; de la mesofauna los col\u00e9mbolos (Collembola), de la macrofauna, los ciempi\u00e9s y milpi\u00e9s (Miriapoda y Diplopoda), comejenes (Ter- mitidae), las hormigas (Formicidae), los escaraba- jos (Coleoptera), las cucarachas (Blattidae) y las lombrices de tierra (Oligochaeta).\n",
    [
      {
        "text": "Oligochaeta",
        "type": "Nombre_cientifico",
        "offset": [
          509,
          520
        ]
      },
      {
        "text": "Formicidae",
        "type": "Nombre_cientifico",
        "offset": [
          410,
          420
        ]
      },
      {
        "text": "Blattidae",
        "type": "Nombre_cientifico",
        "offset": [
          471,
          480
        ]
      },
      {
        "text": "Coleoptera",
        "type": "Nombre_cientifico",
        "offset": [
          442,
          452
        ]
      },
      {
        "text": "hormigas",
        "type": "Nombre_comun",
        "offset": [
          400,
          408
        ]
      },
      {
        "arg2_text": "Coleoptera",
        "arg1_offset": [
          427,
          440
        ],
        "arg2_line": 63,
        "arg2_offset": [
          442,
          452
        ],
        "arg1_text": "escaraba- jos",
        "type": "alias",
        "arg1_line": 63
      },
      {
        "arg2_text": "Ter- mitidae",
        "arg1_offset": [
          370,
          379
        ],
        "arg2_line": 63,
        "arg2_offset": [
          381,
          393
        ],
        "arg1_text": "comejenes",
        "type": "alias",
        "arg1_line": 63
      },
      {
        "arg2_text": "Blattidae",
        "arg1_offset": [
          459,
          469
        ],
        "arg2_line": 63,
        "arg2_offset": [
          471,
          480
        ],
        "arg1_text": "cucarachas",
        "type": "alias",
        "arg1_line": 63
      },
      {
        "arg2_text": "Oligochaeta",
        "arg1_offset": [
          488,
          507
        ],
        "arg2_line": 63,
        "arg2_offset": [
          509,
          520
        ],
        "arg1_text": "lombrices de tierra",
        "type": "alias",
        "arg1_line": 63
      },
      {
        "arg2_text": "Miriapoda",
        "arg1_offset": [
          326,
          334
        ],
        "arg2_line": 63,
        "arg2_offset": [
          346,
          355
        ],
        "arg1_text": "ciempi\u00e9s",
        "type": "alias",
        "arg1_line": 63
      },
      {
        "arg2_text": "Diplopoda",
        "arg1_offset": [
          337,
          344
        ],
        "arg2_line": 63,
        "arg2_offset": [
          358,
          367
        ],
        "arg1_text": "milpi\u00e9s",
        "type": "alias",
        "arg1_line": 63
      },
      {
        "arg2_text": "Formicidae",
        "arg1_offset": [
          400,
          408
        ],
        "arg2_line": 63,
        "arg2_offset": [
          410,
          420
        ],
        "arg1_text": "hormigas",
        "type": "alias",
        "arg1_line": 63
      },
      {
        "text": "Rhizobium",
        "type": "Nombre_cientifico",
        "offset": [
          71,
          80
        ]
      },
      {
        "text": "Diplopoda",
        "type": "Nombre_cientifico",
        "offset": [
          358,
          367
        ]
      },
      {
        "text": "Ter- mitidae",
        "type": "Nombre_cientifico",
        "offset": [
          381,
          393
        ]
      },
      {
        "text": "Miriapoda",
        "type": "Nombre_cientifico",
        "offset": [
          346,
          355
        ]
      },
      {
        "text": "milpi\u00e9s",
        "type": "Nombre_comun",
        "offset": [
          337,
          344
        ]
      },
      {
        "text": "ciempi\u00e9s",
        "type": "Nombre_comun",
        "offset": [
          326,
          334
        ]
      },
      {
        "text": "escaraba- jos",
        "type": "Nombre_comun",
        "offset": [
          427,
          440
        ]
      },
      {
        "text": "cucarachas",
        "type": "Nombre_comun",
        "offset": [
          459,
          469
        ]
      },
      {
        "text": "comejenes",
        "type": "Nombre_comun",
        "offset": [
          370,
          379
        ]
      },
      {
        "text": "lombrices de tierra",
        "type": "Nombre_comun",
        "offset": [
          488,
          507
        ]
      }
    ]
  ],
  [
    64,
    "Cada grupo fue inventariado con una metodolog\u00eda propia (Moreira et al., 2008).\n",
    []
  ],
  [
    65,
    "Una vez colectados o aislados los organismos, se pudieron identificar algunos s\u00f3lo a nivel de orden o clase y otros hasta especie o morfo-especie (que puede ser una nueva especie o una especie ya identi- ficada).\n",
    []
  ],
  [
    66,
    "Tambi\u00e9n en cinco puntos de cada uso de suelo y en cada ejido se hicieron muestreos para caracterizar la vegetaci\u00f3n primaria y secundaria en los diferentes usos de suelo (L\u00f3pez-Cano, 2006), usando la metodolog\u00eda propuesta por Castillo- Campos (2003).\n",
    []
  ],
  [
    67,
    "Esto para estimar la diversidad alfa y beta entre las comunidades vegetales, y posterior- mente hacer una correlaci\u00f3n entre la biodiversidad arriba y abajo del suelo.\n",
    []
  ],
  [
    68,
    "Para clasificar los tipos de suelos en cada ejido se efectuaron dos perfiles edafol\u00f3gicos, uno en el bosque y el otro en un uso de suelo.\n",
    []
  ],
  [
    69,
    "En cada punto del muestreo se determinaron, adem\u00e1s, los par\u00e1metros f\u00edsicos, qu\u00edmicos y bioqu\u00edmicos, tales como: pH, densidad aparente, densidad relativa, porosidad, textura, humedad de suelo, conductividad el\u00e9ctrica, C, N, P total, K, Mg, Ca, CIC, N-NH4, N-NO3, deshidrogenasas y b-glucosidasas.\n",
    []
  ],
  [
    70,
    "Algunos de los par\u00e1metros se presentan en el cuadro 1 (R\u00edos, 2006 y Mondrag\u00f3n, datos no publicados).\n",
    []
  ],
  [
    71,
    "\n",
    []
  ],
  [
    72,
    "Sitios \n",
    []
  ],
  [
    73,
    "\n",
    []
  ],
  [
    74,
    "Los tres ejidos o sitios de estudio presentan caracter\u00edsticas diferentes en cuanto a cubierta forestal, altitud, geoformas, precipitaci\u00f3n, geolog\u00eda y tipo de suelo (cuadro1): \n",
    []
  ],
  [
    75,
    "1. Adolfo L\u00f3pez Mateos (LM) localizado entre los 18\u00b024\u201956\u2019\u2019 y 18\u00b026\u201933\u2019\u2019 de latitud norte y los 94\u00b056\u201953\u2019\u2019 y 94\u00b058\u201918\u2019\u2019 de longitud oeste.\n",
    []
  ],
  [
    76,
    "Se encuentra a 250 msnm dentro del municipio de Catemaco.\n",
    []
  ],
  [
    77,
    "La vegetaci\u00f3n primaria es la Selva Alta Perennifolia y cubre aproximadamente el 75 % del ejido.\n",
    []
  ],
  [
    78,
    "Su tipo de suelo es un Andosol l\u00favico (FAO et al., 1999).\n",
    []
  ],
  [
    79,
    "Las especies y nombre com\u00fan de \u00e1rboles m\u00e1s abundantes son: Trichilia breviflora (carne de caba- llo 2), Trichospermum galeottii (coapetate), Trophis mexicana (ojoshi), Alfaroa mexicana (peinecillo), Cynometra retusa (zapotillo), Guarea glabra (cagalt), Robinsonella mirandae (manzanillo), Pseudolmedia oxyphyllaria (tomatillo), Poulsenia armata (abababi), Saurauia scabrida (pipicho).\n",
    [
      {
        "text": "Trichilia breviflora",
        "type": "Nombre_cientifico",
        "offset": [
          59,
          79
        ]
      },
      {
        "text": "Trichospermum galeottii",
        "type": "Nombre_cientifico",
        "offset": [
          104,
          127
        ]
      },
      {
        "arg2_text": "Trichilia breviflora",
        "arg1_offset": [
          81,
          99
        ],
        "arg2_line": 79,
        "arg2_offset": [
          59,
          79
        ],
        "arg1_text": "carne de caba- llo",
        "type": "alias",
        "arg1_line": 79
      },
      {
        "arg2_text": "Trichospermum galeottii",
        "arg1_offset": [
          129,
          138
        ],
        "arg2_line": 79,
        "arg2_offset": [
          104,
          127
        ],
        "arg1_text": "coapetate",
        "type": "alias",
        "arg1_line": 79
      },
      {
        "arg2_text": "Poulsenia armata",
        "arg1_offset": [
          346,
          353
        ],
        "arg2_line": 79,
        "arg2_offset": [
          328,
          344
        ],
        "arg1_text": "abababi",
        "type": "alias",
        "arg1_line": 79
      },
      {
        "arg2_text": "Saurauia scabrida",
        "arg1_offset": [
          375,
          382
        ],
        "arg2_line": 79,
        "arg2_offset": [
          356,
          373
        ],
        "arg1_text": "pipicho",
        "type": "alias",
        "arg1_line": 79
      },
      {
        "arg2_text": "Robinsonella mirandae",
        "arg1_offset": [
          276,
          286
        ],
        "arg2_line": 79,
        "arg2_offset": [
          253,
          274
        ],
        "arg1_text": "manzanillo",
        "type": "alias",
        "arg1_line": 79
      },
      {
        "arg2_text": "Pseudolmedia oxyphyllaria",
        "arg1_offset": [
          316,
          325
        ],
        "arg2_line": 79,
        "arg2_offset": [
          289,
          314
        ],
        "arg1_text": "tomatillo",
        "type": "alias",
        "arg1_line": 79
      },
      {
        "arg2_text": "Cynometra retusa",
        "arg1_offset": [
          217,
          226
        ],
        "arg2_line": 79,
        "arg2_offset": [
          199,
          215
        ],
        "arg1_text": "zapotillo",
        "type": "alias",
        "arg1_line": 79
      },
      {
        "arg2_text": "Guarea glabra",
        "arg1_offset": [
          244,
          250
        ],
        "arg2_line": 79,
        "arg2_offset": [
          229,
          242
        ],
        "arg1_text": "cagalt",
        "type": "alias",
        "arg1_line": 79
      },
      {
        "arg2_text": "Trophis mexicana",
        "arg1_offset": [
          159,
          165
        ],
        "arg2_line": 79,
        "arg2_offset": [
          141,
          157
        ],
        "arg1_text": "ojoshi",
        "type": "alias",
        "arg1_line": 79
      },
      {
        "arg2_text": "Alfaroa mexicana",
        "arg1_offset": [
          186,
          196
        ],
        "arg2_line": 79,
        "arg2_offset": [
          168,
          184
        ],
        "arg1_text": "peinecillo",
        "type": "alias",
        "arg1_line": 79
      },
      {
        "text": "pipicho",
        "type": "Nombre_comun",
        "offset": [
          375,
          382
        ]
      },
      {
        "text": "Guarea glabra",
        "type": "Nombre_cientifico",
        "offset": [
          229,
          242
        ]
      },
      {
        "text": "Robinsonella mirandae",
        "type": "Nombre_cientifico",
        "offset": [
          253,
          274
        ]
      },
      {
        "text": "Poulsenia armata",
        "type": "Nombre_cientifico",
        "offset": [
          328,
          344
        ]
      },
      {
        "text": "Pseudolmedia oxyphyllaria",
        "type": "Nombre_cientifico",
        "offset": [
          289,
          314
        ]
      },
      {
        "text": "Trophis mexicana",
        "type": "Nombre_cientifico",
        "offset": [
          141,
          157
        ]
      },
      {
        "text": "Saurauia scabrida",
        "type": "Nombre_cientifico",
        "offset": [
          356,
          373
        ]
      },
      {
        "text": "Cynometra retusa",
        "type": "Nombre_cientifico",
        "offset": [
          199,
          215
        ]
      },
      {
        "text": "Alfaroa mexicana",
        "type": "Nombre_cientifico",
        "offset": [
          168,
          184
        ]
      },
      {
        "text": "cagalt",
        "type": "Nombre_comun",
        "offset": [
          244,
          250
        ]
      },
      {
        "text": "manzanillo",
        "type": "Nombre_comun",
        "offset": [
          276,
          286
        ]
      },
      {
        "text": "peinecillo",
        "type": "Nombre_comun",
        "offset": [
          186,
          196
        ]
      },
      {
        "text": "zapotillo",
        "type": "Nombre_comun",
        "offset": [
          217,
          226
        ]
      },
      {
        "text": "coapetate",
        "type": "Nombre_comun",
        "offset": [
          129,
          138
        ]
      },
      {
        "text": "ojoshi",
        "type": "Nombre_comun",
        "offset": [
          159,
          165
        ]
      },
      {
        "text": "carne de caba- llo",
        "type": "Nombre_comun",
        "offset": [
          81,
          99
        ]
      },
      {
        "text": "tomatillo",
        "type": "Nombre_comun",
        "offset": [
          316,
          325
        ]
      },
      {
        "text": "abababi",
        "type": "Nombre_comun",
        "offset": [
          346,
          353
        ]
      }
    ]
  ],
  [
    80,
    "La transformaci\u00f3n de la selva ha reducido considerablemente el n\u00famero de especies de plantas, principalmente las especies de \u00e1rboles (L\u00f3pez-Cano, 2006). \n",
    []
  ],
  [
    81,
    "2. San Fernando Soteapan (SF) localizado entre los 18\u00b015\u00b408\u2019 y 18\u00b019\u00b455\u2019\u2019 de latitud norte y los 94\u00b052\u00b400\u2019\u2019 y 94\u00b054\u00b406\u2019\u2019 de longitud oeste.\n",
    []
  ],
  [
    82,
    "Se encuentra a 850 msnm, dentro del municipio de Soteapan.\n",
    []
  ],
  [
    83,
    "La selva cubre aproximadamente el 50 % del ejido.\n",
    []
  ],
  [
    84,
    "Sus tipos de suelo son Lixisol cr\u00f3mico y Acrisol \u00e1ndico (FAO et al., 1999).\n",
    []
  ],
  [
    85,
    "Este ejido, por su altura, posee elementos flo- r\u00edsticos de bosque mes\u00f3filo como Quercus af. insignis (encino blanco o ttamuk\u00fb), Talauma mexicana (mo\u00f1i\u00e1cui), Alchornea latifolia (palo de achiote) y Liquidambar macrophylla, por mencionar algunos, mientras que tambi\u00e9n posee elementos de selva alta o de transici\u00f3n como son: Dendropanax arboreus (palo de atole), Randia pterocarpa (palo de bejuco), Trophis sp. (escobillo), Alfaroa mexicana, entre otros. \n",
    [
      {
        "arg2_text": "Quercus af. insignis",
        "arg1_offset": [
          103,
          116
        ],
        "arg2_line": 85,
        "arg2_offset": [
          81,
          101
        ],
        "arg1_text": "encino blanco",
        "type": "alias",
        "arg1_line": 85
      },
      {
        "arg2_text": "Quercus af. insignis",
        "arg1_offset": [
          119,
          126
        ],
        "arg2_line": 85,
        "arg2_offset": [
          81,
          101
        ],
        "arg1_text": "ttamuk\u00fb",
        "type": "alias",
        "arg1_line": 85
      },
      {
        "text": "mo\u00f1i\u00e1cui",
        "type": "Nombre_comun",
        "offset": [
          147,
          155
        ]
      },
      {
        "text": "ttamuk\u00fb",
        "type": "Nombre_comun",
        "offset": [
          119,
          126
        ]
      },
      {
        "text": "encino blanco",
        "type": "Nombre_comun",
        "offset": [
          103,
          116
        ]
      },
      {
        "text": "escobillo",
        "type": "Nombre_comun",
        "offset": [
          410,
          419
        ]
      },
      {
        "text": "palo de bejuco",
        "type": "Nombre_comun",
        "offset": [
          380,
          394
        ]
      },
      {
        "text": "palo de atole",
        "type": "Nombre_comun",
        "offset": [
          345,
          358
        ]
      },
      {
        "text": "palo de achiote",
        "type": "Nombre_comun",
        "offset": [
          179,
          194
        ]
      },
      {
        "text": "Quercus af. insignis",
        "type": "Nombre_cientifico",
        "offset": [
          81,
          101
        ]
      },
      {
        "text": "Dendropanax arboreus",
        "type": "Nombre_cientifico",
        "offset": [
          323,
          343
        ]
      },
      {
        "text": "Alfaroa mexicana",
        "type": "Nombre_cientifico",
        "offset": [
          422,
          438
        ]
      },
      {
        "text": "Alchornea latifolia",
        "type": "Nombre_cientifico",
        "offset": [
          158,
          177
        ]
      },
      {
        "text": "Randia pterocarpa",
        "type": "Nombre_cientifico",
        "offset": [
          361,
          378
        ]
      },
      {
        "text": "Liquidambar macrophylla",
        "type": "Nombre_cientifico",
        "offset": [
          198,
          221
        ]
      },
      {
        "text": "Talauma mexicana",
        "type": "Nombre_cientifico",
        "offset": [
          129,
          145
        ]
      },
      {
        "text": "Trophis sp.",
        "type": "Nombre_cientifico",
        "offset": [
          397,
          408
        ]
      },
      {
        "arg2_text": "Trophis sp.",
        "arg1_offset": [
          410,
          419
        ],
        "arg2_line": 85,
        "arg2_offset": [
          397,
          408
        ],
        "arg1_text": "escobillo",
        "type": "alias",
        "arg1_line": 85
      },
      {
        "arg2_text": "Randia pterocarpa",
        "arg1_offset": [
          380,
          394
        ],
        "arg2_line": 85,
        "arg2_offset": [
          361,
          378
        ],
        "arg1_text": "palo de bejuco",
        "type": "alias",
        "arg1_line": 85
      },
      {
        "arg2_text": "Dendropanax arboreus",
        "arg1_offset": [
          345,
          358
        ],
        "arg2_line": 85,
        "arg2_offset": [
          323,
          343
        ],
        "arg1_text": "palo de atole",
        "type": "alias",
        "arg1_line": 85
      },
      {
        "arg2_text": "Alchornea latifolia",
        "arg1_offset": [
          179,
          194
        ],
        "arg2_line": 85,
        "arg2_offset": [
          158,
          177
        ],
        "arg1_text": "palo de achiote",
        "type": "alias",
        "arg1_line": 85
      },
      {
        "arg2_text": "Talauma mexicana",
        "arg1_offset": [
          147,
          155
        ],
        "arg2_line": 85,
        "arg2_offset": [
          129,
          145
        ],
        "arg1_text": "mo\u00f1i\u00e1cui",
        "type": "alias",
        "arg1_line": 85
      }
    ]
  ],
  [
    86,
    "3. Venustiano Carranza (VC) localizado entre los 18\u00b019\u201909\u2019\u2019y 18\u00b021\u00b450\u2019\u2019 de latitud norte y los 94\u00b044\u00b441\u2019\u2019 y 94\u00b046\u00b444\u2019\u2019 de longitud oeste.\n",
    []
  ],
  [
    87,
    "Se encuentra a 250 msnm, dentro del municipio de Tatahuicapan.\n",
    []
  ],
  [
    88,
    "La selva cubre aproximadamente el 25 % del ejido.\n",
    []
  ],
  [
    89,
    "Sus tipos de suelo son Lixisol cr\u00f3mico y Acrisol pl\u00edntico (FAO et al., 1999).\n",
    []
  ],
  [
    90,
    "El tipo de vegetaci\u00f3n que sol\u00eda cubrir grandes extensiones de terreno era la Selva Alta Perennifolia caracterizada por Protium copal (copal), Robinsonella mirandae (manzanillo), Siparuna andina (naranji- llo), Brosimum alicastrum (ojoshi grande), Gouania stipularis (asta), Dialium guianense (paque), Guarea grandifolia (sabino), Tapirira mexicana (caobilla). \n",
    [
      {
        "arg2_text": "Dialium guianense",
        "arg1_offset": [
          293,
          298
        ],
        "arg2_line": 90,
        "arg2_offset": [
          274,
          291
        ],
        "arg1_text": "paque",
        "type": "alias",
        "arg1_line": 90
      },
      {
        "arg2_text": "Guarea grandifolia",
        "arg1_offset": [
          321,
          327
        ],
        "arg2_line": 90,
        "arg2_offset": [
          301,
          319
        ],
        "arg1_text": "sabino",
        "type": "alias",
        "arg1_line": 90
      },
      {
        "arg2_text": "Tapirira mexicana",
        "arg1_offset": [
          349,
          357
        ],
        "arg2_line": 90,
        "arg2_offset": [
          330,
          347
        ],
        "arg1_text": "caobilla",
        "type": "alias",
        "arg1_line": 90
      },
      {
        "text": "naranji- llo",
        "type": "Nombre_comun",
        "offset": [
          195,
          207
        ]
      },
      {
        "text": "ojoshi grande",
        "type": "Nombre_comun",
        "offset": [
          231,
          244
        ]
      },
      {
        "text": "paque",
        "type": "Nombre_comun",
        "offset": [
          293,
          298
        ]
      },
      {
        "text": "asta",
        "type": "Nombre_comun",
        "offset": [
          267,
          271
        ]
      },
      {
        "text": "sabino",
        "type": "Nombre_comun",
        "offset": [
          321,
          327
        ]
      },
      {
        "text": "caobilla",
        "type": "Nombre_comun",
        "offset": [
          349,
          357
        ]
      },
      {
        "text": "manzanillo",
        "type": "Nombre_comun",
        "offset": [
          165,
          175
        ]
      },
      {
        "text": "copal",
        "type": "Nombre_comun",
        "offset": [
          134,
          139
        ]
      },
      {
        "text": "Siparuna andina",
        "type": "Nombre_cientifico",
        "offset": [
          178,
          193
        ]
      },
      {
        "text": "Brosimum alicastrum",
        "type": "Nombre_cientifico",
        "offset": [
          210,
          229
        ]
      },
      {
        "text": "Guarea grandifolia",
        "type": "Nombre_cientifico",
        "offset": [
          301,
          319
        ]
      },
      {
        "text": "Protium copal",
        "type": "Nombre_cientifico",
        "offset": [
          119,
          132
        ]
      },
      {
        "text": "Robinsonella mirandae",
        "type": "Nombre_cientifico",
        "offset": [
          142,
          163
        ]
      },
      {
        "text": "Tapirira mexicana",
        "type": "Nombre_cientifico",
        "offset": [
          330,
          347
        ]
      },
      {
        "text": "Gouania stipularis",
        "type": "Nombre_cientifico",
        "offset": [
          247,
          265
        ]
      },
      {
        "text": "Dialium guianense",
        "type": "Nombre_cientifico",
        "offset": [
          274,
          291
        ]
      },
      {
        "arg2_text": "Gouania stipularis",
        "arg1_offset": [
          267,
          271
        ],
        "arg2_line": 90,
        "arg2_offset": [
          247,
          265
        ],
        "arg1_text": "asta",
        "type": "alias",
        "arg1_line": 90
      },
      {
        "arg2_text": "Brosimum alicastrum",
        "arg1_offset": [
          231,
          244
        ],
        "arg2_line": 90,
        "arg2_offset": [
          210,
          229
        ],
        "arg1_text": "ojoshi grande",
        "type": "alias",
        "arg1_line": 90
      },
      {
        "arg2_text": "Siparuna andina",
        "arg1_offset": [
          195,
          207
        ],
        "arg2_line": 90,
        "arg2_offset": [
          178,
          193
        ],
        "arg1_text": "naranji- llo",
        "type": "alias",
        "arg1_line": 90
      },
      {
        "arg2_text": "Robinsonella mirandae",
        "arg1_offset": [
          165,
          175
        ],
        "arg2_line": 90,
        "arg2_offset": [
          142,
          163
        ],
        "arg1_text": "manzanillo",
        "type": "alias",
        "arg1_line": 90
      },
      {
        "arg2_text": "Protium copal",
        "arg1_offset": [
          134,
          139
        ],
        "arg2_line": 90,
        "arg2_offset": [
          119,
          132
        ],
        "arg1_text": "copal",
        "type": "alias",
        "arg1_line": 90
      }
    ]
  ],
  [
    91,
    "El sistema predominante en este ejido son los pastizales para ganado vacuno.\n",
    []
  ],
  [
    92,
    "Entre los ejidos el n\u00famero de especies en las selvas respectivas es muy similar (figura 2), aunque en L\u00f3pez Mateos se re\u00fane una gran diversidad en un espacio m\u00e1s peque\u00f1o.\n",
    []
  ],
  [
    93,
    "En este \u00faltimo, el acahual es el sistema que presenta m\u00e1s especies entre todos los ejidos y usos de suelo, mientras que el maizal en cambio es el uso de suelos que presenta menos espe- cies.\n",
    []
  ],
  [
    94,
    "En el ejido Venustiano Carranza es en donde se presentan el mayor n\u00famero de especies de pasti- zales de los tres sitios, adem\u00e1s de ser el tipo de vegetaci\u00f3n dominante en este ejido.\n",
    []
  ],
  [
    95,
    "\n",
    []
  ],
  [
    96,
    "Riqueza de los organismos del suelo \n",
    []
  ],
  [
    97,
    "\n",
    []
  ],
  [
    98,
    "En el cuadro 2 se resumen los taxones encontrados en este estudio.\n",
    []
  ],
  [
    99,
    "Dentro de las bacterias fijadoras de nitr\u00f3geno se encontraron ocho especies y 17 morfo- especies, en particular de los g\u00e9neros Bradyrhizo- bium, Rhizobium, Sinorhizobium, Mesorhizobium y Burkholderia, y geno-especies nuevas no descritas con anterioridad en la literatura.\n",
    [
      {
        "text": "Bradyrhizo- bium",
        "type": "Nombre_cientifico",
        "offset": [
          127,
          143
        ]
      },
      {
        "text": "Sinorhizobium",
        "type": "Nombre_cientifico",
        "offset": [
          156,
          169
        ]
      },
      {
        "text": "Rhizobium",
        "type": "Nombre_cientifico",
        "offset": [
          145,
          154
        ]
      },
      {
        "text": "Burkholderia",
        "type": "Nombre_cientifico",
        "offset": [
          187,
          199
        ]
      },
      {
        "text": "Mesorhizobium",
        "type": "Nombre_cientifico",
        "offset": [
          171,
          184
        ]
      }
    ]
  ],
  [
    100,
    "La especie m\u00e1s abundante fue R. etli, especie caracter\u00edstica de campos de ma\u00edz y de frijol.\n",
    [
      {
        "text": "R. etli",
        "type": "Nombre_cientifico",
        "offset": [
          29,
          36
        ]
      }
    ]
  ],
  [
    101,
    "Dentro de los hongos micorriz\u00f3genos arbusculares se encontraron principalmente especies de los g\u00e9neros Acaulospora y Glomus, las especies identificadas hasta ahora son 26 y las que est\u00e1n como morfo-especies son 34, son probablemente nuevas 15 especies.\n",
    [
      {
        "text": "Glomus",
        "type": "Nombre_cientifico",
        "offset": [
          117,
          123
        ]
      },
      {
        "text": "Acaulospora",
        "type": "Nombre_cientifico",
        "offset": [
          103,
          114
        ]
      }
    ]
  ],
  [
    102,
    "Dentro de los hongos fitopat\u00f3genos de la ra\u00edz encontramos principalmente los g\u00e9neros Fusarium, Pythium, Phytophthora, Rhyzoctonia, Verticillium, Aspergillus y Penicillium.\n",
    [
      {
        "text": "Rhyzoctonia",
        "type": "Nombre_cientifico",
        "offset": [
          118,
          129
        ]
      },
      {
        "text": "Fusarium",
        "type": "Nombre_cientifico",
        "offset": [
          85,
          93
        ]
      },
      {
        "text": "Verticillium",
        "type": "Nombre_cientifico",
        "offset": [
          131,
          143
        ]
      },
      {
        "text": "Phytophthora",
        "type": "Nombre_cientifico",
        "offset": [
          104,
          116
        ]
      },
      {
        "text": "Pythium",
        "type": "Nombre_cientifico",
        "offset": [
          95,
          102
        ]
      },
      {
        "text": "Penicillium",
        "type": "Nombre_cientifico",
        "offset": [
          159,
          170
        ]
      },
      {
        "text": "Aspergillus",
        "type": "Nombre_cientifico",
        "offset": [
          145,
          156
        ]
      }
    ]
  ],
  [
    103,
    "Tambi\u00e9n se aislaron hongos saprobios como Bispora, Gilmaniella y Cunning- hamella, que promueven la descomposici\u00f3n de la materia org\u00e1nica, y hongos antagonistas a los fitopa- t\u00f3genos como es Trichoderma.\n",
    [
      {
        "arg2_text": "promueven la descomposici\u00f3n de la materia org\u00e1nica",
        "arg1_offset": [
          51,
          62
        ],
        "arg2_line": 103,
        "arg2_offset": [
          87,
          137
        ],
        "arg1_text": "Gilmaniella",
        "type": "se_usa",
        "arg1_line": 103
      },
      {
        "arg2_text": "promueven la descomposici\u00f3n de la materia org\u00e1nica",
        "arg1_offset": [
          42,
          49
        ],
        "arg2_line": 103,
        "arg2_offset": [
          87,
          137
        ],
        "arg1_text": "Bispora",
        "type": "se_usa",
        "arg1_line": 103
      },
      {
        "arg2_text": "promueven la descomposici\u00f3n de la materia org\u00e1nica",
        "arg1_offset": [
          65,
          81
        ],
        "arg2_line": 103,
        "arg2_offset": [
          87,
          137
        ],
        "arg1_text": "Cunning- hamella",
        "type": "se_usa",
        "arg1_line": 103
      },
      {
        "text": "promueven la descomposici\u00f3n de la materia org\u00e1nica",
        "type": "Ambiental",
        "offset": [
          87,
          137
        ]
      },
      {
        "text": "Cunning- hamella",
        "type": "Nombre_cientifico",
        "offset": [
          65,
          81
        ]
      },
      {
        "text": "Gilmaniella",
        "type": "Nombre_cientifico",
        "offset": [
          51,
          62
        ]
      },
      {
        "text": "Trichoderma",
        "type": "Nombre_cientifico",
        "offset": [
          191,
          202
        ]
      },
      {
        "text": "Bispora",
        "type": "Nombre_cientifico",
        "offset": [
          42,
          49
        ]
      }
    ]
  ],
  [
    104,
    "Los nem\u00e1todos fue uno de los grupos que mayor n\u00famero de g\u00e9neros present\u00f3 (130).\n",
    []
  ],
  [
    105,
    "Los nem\u00e1todos identificados se clasificaron en cinco grupos, de acuerdo con su h\u00e1bito alimenticio, ello con el fin de conocer la estructura tr\u00f3fica de los nem\u00e1todos en el suelo.\n",
    []
  ],
  [
    106,
    "Los grupos tr\u00f3ficos conformados fueron: 1) los que comen bacterias (Rhabditis, Plectus, Aphono- laimus, Acrobeles, etc.); 2) los que comen hongos (Aphelenchus, Tylenchus, etc.); 3) los omn\u00edvoros (Dorylaimus, Dorylaimoides, Aporcelaimus, etc.); 4) los depredadores (Miconchus, Monochus, Prionchu- lus, etc.), y 5) los par\u00e1sitos de plantas (Meloidogyne, Discocriconemella, Hemicycliophora, Helicotylenchus, etc.) (Franco-Navarro y God\u00ednez-Vidal, 2006).\n",
    [
      {
        "text": "Miconchus",
        "type": "Nombre_cientifico",
        "offset": [
          265,
          274
        ]
      },
      {
        "text": "Dorylaimoides",
        "type": "Nombre_cientifico",
        "offset": [
          208,
          221
        ]
      },
      {
        "text": "Aporcelaimus",
        "type": "Nombre_cientifico",
        "offset": [
          223,
          235
        ]
      },
      {
        "text": "Aphono- laimus",
        "type": "Nombre_cientifico",
        "offset": [
          88,
          102
        ]
      },
      {
        "text": "Prionchu- lus",
        "type": "Nombre_cientifico",
        "offset": [
          286,
          299
        ]
      },
      {
        "text": "Discocriconemella",
        "type": "Nombre_cientifico",
        "offset": [
          352,
          369
        ]
      },
      {
        "text": "Hemicycliophora",
        "type": "Nombre_cientifico",
        "offset": [
          371,
          386
        ]
      },
      {
        "text": "Helicotylenchus",
        "type": "Nombre_cientifico",
        "offset": [
          388,
          403
        ]
      },
      {
        "text": "Rhabditis",
        "type": "Nombre_cientifico",
        "offset": [
          68,
          77
        ]
      },
      {
        "text": "Dorylaimus",
        "type": "Nombre_cientifico",
        "offset": [
          196,
          206
        ]
      },
      {
        "text": "Tylenchus",
        "type": "Nombre_cientifico",
        "offset": [
          160,
          169
        ]
      },
      {
        "text": "Plectus",
        "type": "Nombre_cientifico",
        "offset": [
          79,
          86
        ]
      },
      {
        "text": "Meloidogyne",
        "type": "Nombre_cientifico",
        "offset": [
          339,
          350
        ]
      },
      {
        "text": "Aphelenchus",
        "type": "Nombre_cientifico",
        "offset": [
          147,
          158
        ]
      },
      {
        "text": "Acrobeles",
        "type": "Nombre_cientifico",
        "offset": [
          104,
          113
        ]
      },
      {
        "text": "Monochus",
        "type": "Nombre_cientifico",
        "offset": [
          276,
          284
        ]
      }
    ]
  ],
  [
    107,
    "Los col\u00e9mbolos se agruparon en siete familias y no fueron tan abundantes como se esperaba.\n",
    []
  ],
  [
    108,
    "Por su parte, las termitas fue un grupo poco diverso, ya que s\u00f3lo se presentaron seis especies y tres morfo-especies, siendo el g\u00e9nero m\u00e1s representado Nasutiter- mes.\n",
    []
  ],
  [
    109,
    "En cuanto a las cucarachas de campo, son pocas y presentaron solo seis especies y nueve morfo-especies.\n",
    []
  ],
  [
    110,
    "Anaplecta e Ischnoptera fueron los g\u00e9neros m\u00e1s representados.\n",
    [
      {
        "text": "Ischnoptera",
        "type": "Nombre_cientifico",
        "offset": [
          12,
          23
        ]
      },
      {
        "text": "Anaplecta",
        "type": "Nombre_cientifico",
        "offset": [
          0,
          9
        ]
      }
    ]
  ],
  [
    111,
    "Para los ciempi\u00e9s y milpi\u00e9s se identificaron nueve especies y 39 morfo-especies.\n",
    []
  ],
  [
    112,
    "Los ciempi\u00e9s mejor representados fueron los Geophilomorpha del g\u00e9nero Neogeophilus sp4 (107 registros) y los Scolopendromorpha del g\u00e9nero Newportia sp1 (40).\n",
    [
      {
        "text": "Neogeophilus",
        "type": "Nombre_cientifico",
        "offset": [
          70,
          82
        ]
      },
      {
        "text": "Scolopendromorpha",
        "type": "Nombre_cientifico",
        "offset": [
          109,
          126
        ]
      },
      {
        "text": "Geophilomorpha",
        "type": "Nombre_cientifico",
        "offset": [
          44,
          58
        ]
      },
      {
        "text": "Newportia",
        "type": "Nombre_cientifico",
        "offset": [
          138,
          147
        ]
      }
    ]
  ],
  [
    113,
    "Dentro de los milpi\u00e9s, los g\u00e9neros m\u00e1s repre- sentados fueron Prostemmilus sp1 (45), Glomerides- mus sp1 (24) y Hollistophalidae sp1 (68).\n",
    [
      {
        "text": "Hollistophalidae",
        "type": "Nombre_cientifico",
        "offset": [
          112,
          128
        ]
      },
      {
        "text": "Glomerides- mus",
        "type": "Nombre_cientifico",
        "offset": [
          85,
          100
        ]
      },
      {
        "text": "Prostemmilus",
        "type": "Nombre_cientifico",
        "offset": [
          62,
          74
        ]
      }
    ]
  ],
  [
    114,
    "Las hormigas y los escarabajos son los grupos que presentaron m\u00e1s especies y/o morfo-especies (141 y 189, respectivamente).\n",
    []
  ],
  [
    115,
    "Los g\u00e9neros y especies m\u00e1s representadas para las hormigas fueron Solenopsis geminata (168) y Solenopsis sp3 (67), Wasmania auropunctata (84), Octostruma balzani (86), Hypoponera opacior (76) (Rojas et al., 2006; Hern\u00e1ndez, 2007).\n",
    [
      {
        "text": "Wasmania auropunctata",
        "type": "Nombre_comun",
        "offset": [
          115,
          136
        ]
      },
      {
        "text": "Solenopsis geminata",
        "type": "Nombre_cientifico",
        "offset": [
          66,
          85
        ]
      },
      {
        "text": "Octostruma balzani",
        "type": "Nombre_cientifico",
        "offset": [
          143,
          161
        ]
      },
      {
        "text": "Solenopsis",
        "type": "Nombre_cientifico",
        "offset": [
          94,
          104
        ]
      },
      {
        "text": "Hypoponera opacior",
        "type": "Nombre_cientifico",
        "offset": [
          168,
          186
        ]
      }
    ]
  ],
  [
    116,
    "Es importante mencionar que se encontraron dos especies muy raras: Tatuidris tatu- sia y Thaumatomyrmex ferox, que cuentan con muy pocos ejemplares en las colecciones del mundo y tres especies nuevas.\n",
    [
      {
        "text": "Thaumatomyrmex ferox",
        "type": "Nombre_cientifico",
        "offset": [
          89,
          109
        ]
      },
      {
        "text": "Tatuidris tatu- sia",
        "type": "Nombre_cientifico",
        "offset": [
          67,
          86
        ]
      }
    ]
  ],
  [
    117,
    "Adem\u00e1s se encontraron 11 especies de Strumigenys, g\u00e9nero exclusivo de la hoja- rasca y que representa m\u00e1s del 90 % del n\u00famero total de especies registradas con anterioridad para todo M\u00e9xico (12).\n",
    [
      {
        "text": "Strumigenys",
        "type": "Nombre_cientifico",
        "offset": [
          37,
          48
        ]
      }
    ]
  ],
  [
    118,
    "Los escarabajos identificados se ubicaron dentro de 52 familias; las m\u00e1s representadas y con mayor abundancia de individuos fueron: Melolonthidae, Ptilodactylidae, Staphylinidae, Scarabeidae, Chrysomelidae, Carabidae y Elateridae.\n",
    []
  ],
  [
    119,
    "Cabe se\u00f1alar que la familia Staphylinidae fue la que present\u00f3 m\u00e1s morfoespecies. \n",
    []
  ],
  [
    120,
    "Las lombrices son un grupo poco diverso, y s\u00f3lo se registraron 13 especies (tres de ellas son morfo- especies); siete especies fueron nativas u originarias de la regi\u00f3n y seis son ex\u00f3ticas, introducidas por los asentamientos humanos.\n",
    []
  ],
  [
    121,
    "Las especies m\u00e1s represen- tadas fueron las ex\u00f3ticas Pontoscolex corethrurus y Dichogaster affinis, seguidas por dos nativas: Ramie- llona sp. y Lavellodrilus parvus (Coria, 2005; Cama- rena, 2006).\n",
    [
      {
        "text": "Lavellodrilus parvus",
        "type": "Nombre_cientifico",
        "offset": [
          145,
          165
        ]
      },
      {
        "text": "Dichogaster affinis",
        "type": "Nombre_cientifico",
        "offset": [
          79,
          98
        ]
      },
      {
        "text": "Pontoscolex corethrurus",
        "type": "Nombre_cientifico",
        "offset": [
          53,
          76
        ]
      },
      {
        "text": "Ramie- llona",
        "type": "Nombre_cientifico",
        "offset": [
          126,
          138
        ]
      }
    ]
  ],
  [
    122,
    "Cabe se\u00f1alar que las lombrices de tierra fue el grupo dentro de la macrofauna que repre- sent\u00f3 la mayor biomasa por m2.\n",
    []
  ],
  [
    123,
    "\n",
    []
  ],
  [
    124,
    "EFECTO DEL PAISAJE Y DEL USO DEL SUELO EN LOS DIFERENTES ORGANISMOS DEL SUELO Y EN LOS PAR\u00c1METROS FISICOQU\u00cdMICOS DEL SUELO \n",
    []
  ],
  [
    125,
    "\n",
    []
  ],
  [
    126,
    "Con los datos de los grupos de organismos y de los par\u00e1metros fisicoqu\u00edmicos se efectuaron an\u00e1lisis estad\u00edsticos: an\u00e1lisis de varianzas (anovas) y de com- ponentes principales, para determinar el efecto del paisaje, del uso de suelo y de sus caracter\u00edsticas sobre la biodiversidad en el suelo.\n",
    []
  ],
  [
    127,
    "\n",
    []
  ],
  [
    128,
    "Efecto del paisaje \n",
    []
  ],
  [
    129,
    "\n",
    []
  ],
  [
    130,
    "La diferencia m\u00e1s fuerte en riqueza de especies y diversidad ocurri\u00f3 a escala del paisaje, es decir, entre ejidos (figura 3).\n",
    []
  ],
  [
    131,
    "El n\u00famero de especies de hormigas disminuy\u00f3 en el gradiente LM> SF> VC, mientras que las termitas presentaron el patr\u00f3n inverso respecto a su diversidad.\n",
    []
  ],
  [
    132,
    "La diversidad de lombrices nativas fue escasa en el ejido de Venustiano Carranza, el cual se caracteriz\u00f3 por tener la mayor superficie de pastizal respecto del resto de los ejidos. \n",
    []
  ],
  [
    133,
    "\n",
    []
  ],
  [
    134,
    "Efecto del uso del suelo \n",
    []
  ],
  [
    135,
    "\n",
    []
  ],
  [
    136,
    "Los grupos de las hormigas y termitas tambi\u00e9n mos- traron patrones claros en relaci\u00f3n al efecto del uso del suelo en su diversidad.\n",
    []
  ],
  [
    137,
    "En todos los ejidos, su diversidad fue mayor en selva y acahual, mientras en pastizal y maizal fue menor.\n",
    []
  ],
  [
    138,
    "Las lombrices nativas tambi\u00e9n muestran una importante sensibilidad a las actividades productivas, ya que su diversidad disminuy\u00f3 dr\u00e1sticamente con cualquier cambio de uso de suelo (figura 4).\n",
    []
  ],
  [
    139,
    "En el caso de los hongos micorrizgenos el maizal tuvo la diversidad m\u00e1s alta.\n",
    []
  ],
  [
    140,
    "\n",
    []
  ],
  [
    141,
    "Interacci\u00f3n entre paisaje y uso de suelo \n",
    []
  ],
  [
    142,
    "\n",
    []
  ],
  [
    143,
    "Los nem\u00e1todos tuvieron m\u00e1s g\u00e9neros en el ejido San Fernando, mostrando una disminuci\u00f3n en su diversidad en el maizal.\n",
    []
  ],
  [
    144,
    "En la selva del ejido Adolfo L\u00f3pez Mateos se present\u00f3 un n\u00famero de g\u00e9neros menor en nem\u00e1todos, hasta un tercio m\u00e1s bajo que el de la selva de San Fernando; adem\u00e1s de que en los usos del suelo \u00e9sta sigui\u00f3 disminuyendo siendo la menor diversidad (en t\u00e9rminos de riqueza de g\u00e9ne- ros) en los pastizales.\n",
    []
  ],
  [
    145,
    "En Venustiano Carranza fue en donde la diversidad de nem\u00e1todos fue la m\u00e1s baja tanto a nivel del paisaje como a nivel del uso de suelo; adem\u00e1s el patr\u00f3n de diversidad entre usos de suelo fue inverso al de los otros dos sitios, teniendo la selva una diversidad semejante a la del acahual y maizal, en tanto el pastizal registr\u00f3 la diversidad m\u00e1s alta (figura 5).\n",
    []
  ],
  [
    146,
    "\n",
    []
  ],
  [
    147,
    "Par\u00e1metros del suelo en los ejidos y usos de suelo \n",
    []
  ],
  [
    148,
    "\n",
    []
  ],
  [
    149,
    "Existe un gradiente de fertilidad entre los tres ejidos que se debe a diferencias en los factores formadores del suelo en cada sitio; esto genera un desarrollo de suelos diferencial y se reconoce por los valores de pH, textura, conductividad el\u00e9ctrica y bases intercambiables (cuadro 3), siendo L\u00f3pez Mateos el suelo m\u00e1s f\u00e9rtil y Venustiano Carranza el m\u00e1s pobre debido a su mayor desarrollo y lixiviaci\u00f3n, que resulta en valores de pH m\u00e1s bajos y en la p\u00e9rdida de bases intercambiables.\n",
    []
  ],
  [
    150,
    "Al interior de los ejidos se reconocen procesos de degradaci\u00f3n asociados al cambio de uso de suelo y existe una disminuci\u00f3n de la fertilidad conforme aumenta la intensidad de uso del suelo: selva>acahual = pastizal>maizal.\n",
    []
  ],
  [
    151,
    "En los tres ejidos se reconocen diferencias entre los suelos de selva y los de ma\u00edz, por los contenidos m\u00e1s bajos de materia org\u00e1nica en los suelos cultivados con ma\u00edz, aunado a un aumento de la densidad aparente y una disminuci\u00f3n en el porcentaje de porosidad.\n",
    []
  ],
  [
    152,
    "Las actividades de las enzimas b-glucosidasa y deshi- drogenasa no resultaron estad\u00edsticamente diferentes al comparar los usos del suelo, pero s\u00ed se observa una disminuci\u00f3n de las actividades en suelos con cultivo de ma\u00edz.\n",
    []
  ],
  [
    153,
    "\n",
    []
  ],
  [
    154,
    "CONCLUSIONES Y PERSPECTIVAS \n",
    []
  ],
  [
    155,
    "\n",
    []
  ],
  [
    156,
    "El muestreo logr\u00f3 superar las expectativas de diversidad para varios grupos.\n",
    []
  ],
  [
    157,
    "Para los hongos micorriz\u00f3genos se encontr\u00f3 el 25 % de las especies conocidas en todo el mundo y 39 % m\u00e1s de las especies hasta la fecha registradas para M\u00e9xico (Varela y Trejo, 2001).\n",
    []
  ],
  [
    158,
    "En el caso de los nem\u00e1todos, la cantidad de g\u00e9neros encontrada es la m\u00e1s grande reportada hasta ahora para M\u00e9xico, ello en comparaci\u00f3n con el \u00fanico estudio exhaustivo llevado a cabo en M\u00e9xico sobre nem\u00e1todos de suelo y agua dulce (Zullini, 1973, 1977a y b); en dicho trabajo se report\u00f3 un total de 42 g\u00e9neros y 67 especies.\n",
    []
  ],
  [
    159,
    "Respecto a las hormigas este muestreo permiti\u00f3 obtener 26 % m\u00e1s especies que en un estudio anterior en la misma zona (Cartas, 1993).\n",
    []
  ],
  [
    160,
    "A pesar de los esfuerzos del proyecto y de la parti- cipaci\u00f3n de especialistas en todo el pa\u00eds, hay varios grupos funcionales (hongos micorriz\u00f3genos y fitopat\u00f3genos, hormigas, cole\u00f3pteros, milpi\u00e9s y ciempi\u00e9s) con una gran cantidad de morfo-especies.\n",
    []
  ],
  [
    161,
    "Esto se debe al inmenso reto que requiere su identificaci\u00f3n.\n",
    []
  ],
  [
    162,
    "Algunas de estas morfoespecies son probablemente nuevas especies. \u00c9ste es s\u00f3lo un ejemplo m\u00e1s de la carencia de especialistas en taxonom\u00eda de organismos del suelo en nuestro pa\u00eds y demuestra la necesidad de promover esta disciplina para que se genere un cono- cimiento y recursos humanos suficientes que permitan hacer identificaciones r\u00e1pidas de dichos organismos.\n",
    []
  ],
  [
    163,
    "Sin este conocimiento detallado de la biodiversidad en el suelo ser\u00e1 dif\u00edcil tomar decisiones m\u00e1s acertadas para manejarla de manera sostenible.\n",
    []
  ],
  [
    164,
    "Con la intenci\u00f3n de contribuir al acervo y accesibilidad de informaci\u00f3n de biodiversidad de M\u00e9xico, la base de datos de biodiversidad en el suelo, generada por el proyecto BGBD, va a ser incorporada al Sistema Nacional de Informaci\u00f3n sobre Biodiversidad de la Conabio (SNIB Proyecto FS001-2007).\n",
    []
  ],
  [
    165,
    "Las lombrices nativas, hormigas, termitas y nem\u00e1todos resultaron buenos candidatos para ser utilizados como indicadores de la salud del suelo, debido a la vulnerabilidad que presentan ante los cambios de uso de suelo.\n",
    []
  ],
  [
    166,
    "En particular la riqueza de especies de hormigas, termitas y lombrices nativas reflejan un gradiente de intensidad de uso del suelo, pero con grados diferentes de sensibilidad.\n",
    []
  ],
  [
    167,
    "Pero la tendencia es a la p\u00e9rdida de diversidad conforme se intensifica el uso de suelo y a el amplio desarrollo de especies oportunistas como las hormigas del g\u00e9nero Solenopsis y la lombriz Pontoscolex corethrurus.\n",
    [
      {
        "arg2_text": "Solenopsis",
        "arg1_offset": [
          147,
          155
        ],
        "arg2_line": 167,
        "arg2_offset": [
          167,
          177
        ],
        "arg1_text": "hormigas",
        "type": "alias",
        "arg1_line": 167
      },
      {
        "arg2_text": "Pontoscolex corethrurus",
        "arg1_offset": [
          183,
          190
        ],
        "arg2_line": 167,
        "arg2_offset": [
          191,
          214
        ],
        "arg1_text": "lombriz",
        "type": "alias",
        "arg1_line": 167
      },
      {
        "text": "Pontoscolex corethrurus",
        "type": "Nombre_cientifico",
        "offset": [
          191,
          214
        ]
      },
      {
        "text": "Solenopsis",
        "type": "Nombre_cientifico",
        "offset": [
          167,
          177
        ]
      },
      {
        "text": "lombriz",
        "type": "Nombre_comun",
        "offset": [
          183,
          190
        ]
      },
      {
        "text": "hormigas",
        "type": "Nombre_comun",
        "offset": [
          147,
          155
        ]
      }
    ]
  ],
  [
    168,
    "Tambi\u00e9n el n\u00famero de especies de Rhizobia vs Bradyrhi- zobia pueden reflejar qu\u00e9 tanto el suelo ha sido manejado.\n",
    [
      {
        "text": "Bradyrhi- zobia",
        "type": "Nombre_cientifico",
        "offset": [
          45,
          60
        ]
      },
      {
        "text": "Rhizobia",
        "type": "Nombre_cientifico",
        "offset": [
          33,
          41
        ]
      }
    ]
  ],
  [
    169,
    "Se observ\u00f3 que en el maizal hab\u00eda princi- palmente especies de Rhizobium que fueron intro- ducidas con el ma\u00edz y el frijol y que los Bradyrhizobia, noduladores nativos de la selva no fueron recuperados.\n",
    [
      {
        "text": "Bradyrhizobia",
        "type": "Nombre_cientifico",
        "offset": [
          133,
          146
        ]
      },
      {
        "text": "Rhizobium",
        "type": "Nombre_cientifico",
        "offset": [
          63,
          72
        ]
      }
    ]
  ],
  [
    170,
    "El decremento en t\u00e9rminos de riqueza de espe- cies no siempre sigue la disminuci\u00f3n de la fertilidad En el ejido Venustiano Carranza se registr\u00f3 el mayor n\u00famero total de plantas en la selva, a pesar de ser el suelo m\u00e1s pobre, sin embargo, es necesario considerar que la cobertura del \u00e1rea muestreada en este estudio fue mucho mayor, comparada con la de los otros dos ejidos.\n",
    []
  ],
  [
    171,
    "As\u00ed tambi\u00e9n las termitas fueron m\u00e1s diversas en Venustiano Carranza, y los nem\u00e1to- dos especialmente en los pastizales, que es el uso de suelo mayor en este ejido.\n",
    []
  ],
  [
    172,
    "En \u00e9ste, como en otros casos, sin duda existen otras caracter\u00edsticas del pai- saje o del manejo del suelo que tambi\u00e9n determinan su biodiversidad.\n",
    []
  ],
  [
    173,
    "En estudios posteriores se investi- gar\u00e1n los papeles que juegan la distancia a la selva, la historia de uso del suelo y la diversidad espacial del paisaje.\n",
    []
  ],
  [
    174,
    "Ahora que se conoce la biodiversidad del suelo en estos sitios, el proyecto BGBD, en su segunda fase, podr\u00e1 monitorear c\u00f3mo es afectada por el uso de suelo y se podr\u00e1 determinar de qu\u00e9 manera se puede manejar el ecosistema o agroecosistema para conservarla.\n",
    []
  ],
  [
    175,
    "Adem\u00e1s, observar\u00e1 el impacto funcional que tiene esta diversidad para lograr hacer un uso sostenible del suelo y mantener o mejorar los servicios ambientales que ofrece el sistema.\n",
    []
  ],
  [
    176,
    "Por ejemplo, se podr\u00e1 inocular, en ciertos usos de suelo o viveros, hongos micorriz\u00f3genos o hacer cultivos en rotaci\u00f3n con leguminosas para aportar materia org\u00e1nica y nitr\u00f3geno al suelo y mejorar la salud y productividad de plantas comerciales.\n",
    []
  ],
  [
    177,
    "Si se tiene \u00e9xito, se establecer\u00e1n parcelas demostrativas que promuevan este tipo de tecnolog\u00edas y se dar\u00e1n a conocer a los tomadores de decisiones.\n",
    []
  ]
]