[
  [
    1,
    "INTRODUCCI\u00d3N\n",
    []
  ],
  [
    2,
    "\n",
    []
  ],
  [
    3,
    "Las familias de plantas vasculares acu\u00e1ticas estrictas o hidr\u00f3fitas, son aquellas en las que todos los g\u00e9neros que las integran desarrollan su ciclo de vida en el agua (Cuadros 1 y 2).\n",
    []
  ],
  [
    4,
    "No se incluyen las plantas subacu\u00e1ticas o tolerantes a la inundaci\u00f3n; estas dos categor\u00edas agrupan a un n\u00famero considerable de taxones no siempre bien definidos por su afinidad temporal al ambiente acu\u00e1tico y si bien son importantes como parte de la flora acu\u00e1tica, s\u00f3lo se contemplar\u00e1n de manera general en el presente trabajo.\n",
    []
  ],
  [
    5,
    "Entre los escasos estudios bot\u00e1nicos publicados que incluyen a la flora acu\u00e1tica, destacan los trabajos pioneros a principios de los a\u00f1os cincuenta sobre la vegetaci\u00f3n de la Laguna de Lerma (Ram\u00edrez y Herrera, 1954; Rioja y Herrera, 1951).\n",
    []
  ],
  [
    6,
    "Tuvo que pasar casi medio siglo para que se publicaran otras investigaciones sobre plantas acu\u00e1ticas del Estado de M\u00e9xico (Zepeda y Lot, 1999; Zepeda y Lot, 2005) (Cuadro 2).\n",
    []
  ],
  [
    7,
    "La tesis de Ramos (2000) es la contribuci\u00f3n m\u00e1s importante en cuanto a la flora y vegetaci\u00f3n de ambientes acu\u00e1ticos de la cuenca alta del r\u00edo Lerma.\n",
    []
  ],
  [
    8,
    "La referencia m\u00e1s \u00fatil para determinar y conocer las familias que incluyen a los grupos adaptados a la vida acu\u00e1tica, es la obra Flora Fanerog\u00e1mica del Valle de M\u00e9xico (Rzedowski y Rzedowski, 2001).\n",
    []
  ],
  [
    9,
    "En un contexto general, tambi\u00e9n son \u00fatiles otras referencias a manera de listados, revisiones y manuales sobre angiospermas acu\u00e1ticas de M\u00e9xico (Lot et al., 1986, 1998, 1999 y 2004).\n",
    [
      {
        "text": "angiospermas",
        "type": "Nombre_comun",
        "offset": [
          111,
          123
        ]
      }
    ]
  ],
  [
    10,
    "En este apartado se presenta una s\u00edntesis de la informaci\u00f3n referente a los g\u00e9neros y especies registrados en el Estado de M\u00e9xico, con comentarios de inter\u00e9s geogr\u00e1fico, bot\u00e1nico y ecol\u00f3gico, en un marco de referencia que parte de los contextos mundial y nacional.\n",
    []
  ],
  [
    11,
    "Para facilitar su lectura, la informaci\u00f3n se presenta en orden alfab\u00e9tico por familia.\n",
    []
  ],
  [
    12,
    "\n",
    []
  ],
  [
    13,
    "DIVERSIDAD DE ESPECIES \n",
    []
  ],
  [
    14,
    "\n",
    []
  ],
  [
    15,
    "En un an\u00e1lisis sobre la diversidad de la flora acu\u00e1tica, se destaca que entre los tres estados de la Rep\u00fablica Mexicana con mayor riqueza de especies, se encuentra el Estado de M\u00e9xico, despu\u00e9s de Veracruz (51 especies) y Chiapas (42 especies) (Lot et al., 1998).\n",
    []
  ],
  [
    16,
    "Sin embargo, al revisar recientemente la biodiversidad de Oaxaca, esta entidad se coloca pr\u00e1cticamente como el estado con el mayor n\u00famero de especies de plantas vasculares acu\u00e1ticas estrictas (Lot, 2004).\n",
    []
  ],
  [
    17,
    "De todas formas, el Estado de M\u00e9xico presenta caracter\u00edsticas geogr\u00e1ficas y ecol\u00f3gicas que lo se\u00f1alan como uno de los cinco estados con mayor riqueza de hidr\u00f3fitas de humedales, preferentemente templados y de alta monta\u00f1a (Cuadro 1).\n",
    []
  ],
  [
    18,
    "A partir de la revisi\u00f3n de las colecciones de plantas acu\u00e1ticas registradas para el Estado de M\u00e9xico en los principales herbarios institucionales, se cuenta con informaci\u00f3n de m\u00e1s de 400 ejemplares, incluyendo a 16 familias, 24 g\u00e9neros y m\u00e1s de 40 especies de hidr\u00f3fitas estrictas.\n",
    []
  ],
  [
    19,
    "Un trabajo de tesis que explora exclusivamente la cuenca alta del r\u00edo Lerma (Ramos, 2000), registra 187 especies de 54 familias como hidr\u00f3fitas estrictas, subacu\u00e1ticas y tolerantes a los humedales de dicha regi\u00f3n.\n",
    []
  ],
  [
    20,
    "La lista incluye tambi\u00e9n a especies arb\u00f3reas que se distribuyen a lo largo de las corrientes de agua como parte de la vegetaci\u00f3n ribere\u00f1a.\n",
    []
  ],
  [
    21,
    "Estos n\u00fameros manifiestan una flora acu\u00e1tica potencial importante, pero tambi\u00e9n un gran desconocimiento de la vegetaci\u00f3n presente en la diversidad de ambientes acu\u00e1ticos del estado.\n",
    []
  ],
  [
    22,
    "Si se considera que para otras regiones (cuenca del P\u00e1nuco y cuenca del Balsas), no incluidas en el mencionado estudio, se cuenta con la mayor proporci\u00f3n de colecciones (85%) sin un an\u00e1lisis publicado, podemos especular que la diversidad de plantas vasculares acu\u00e1ticas debe ser mayor a lo que hoy se conoce lagunas.\n",
    []
  ],
  [
    23,
    "\n",
    []
  ],
  [
    24,
    "ALISMATACEAE\n",
    [
      {
        "text": "ALISMATACEAE",
        "type": "Nombre_cientifico",
        "offset": [
          0,
          12
        ]
      }
    ]
  ],
  [
    25,
    "\n",
    []
  ],
  [
    26,
    "En el Estado de M\u00e9xico se han registrado los dos g\u00e9neros presentes en nuestro pa\u00eds (Echinodorus y Sagittaria).\n",
    [
      {
        "text": "Echinodorus",
        "type": "Nombre_cientifico",
        "offset": [
          84,
          95
        ]
      },
      {
        "text": "Sagittaria",
        "type": "Nombre_cientifico",
        "offset": [
          98,
          108
        ]
      }
    ]
  ],
  [
    27,
    "El primero, propio de regiones calido-h\u00famedas tropicales y el segundo, de ci\u00e9negas y lagunas de alta monta\u00f1a de regiones templadas (Lot et al., 1999).\n",
    []
  ],
  [
    28,
    "Echinodorus andrieuxi es una especie com\u00fan que se distribuye desde M\u00e9xico hasta Brasil, en diversos ambientes dulceacu\u00edcolas que van desde las charcas hasta lagunas y r\u00edos.\n",
    [
      {
        "text": "Echinodorus andrieuxi",
        "type": "Nombre_cientifico",
        "offset": [
          0,
          21
        ]
      }
    ]
  ],
  [
    29,
    "El l\u00edmite altitudinal en M\u00e9xico es de 1 800 msnm; sin embargo, en el estado es una especie rara, con escasas y antiguas colecciones que respaldan d\u00e9bilmente su presencia.\n",
    []
  ],
  [
    30,
    "La carencia de colectas m\u00e1s recientes, pone en duda su consideraci\u00f3n como elemento de la flora mexiquense, o supone la desaparici\u00f3n de sus poblaciones al cambiar las condiciones de los h\u00e1bitat donde fue registrado hace m\u00e1s de medio siglo.\n",
    []
  ],
  [
    31,
    "Las especies del g\u00e9nero Sagittaria presentes en el estado tienen valor econ\u00f3mico, fitogeogr\u00e1fico, etnobot\u00e1nico y cultural.\n",
    [
      {
        "text": "Sagittaria",
        "type": "Nombre_cientifico",
        "offset": [
          24,
          34
        ]
      }
    ]
  ],
  [
    32,
    "S. latifolia es una especie de amplia distribuci\u00f3n en el Continente Americano, desde Canad\u00e1 a Sudam\u00e9rica y las Antillas (Haynes y Holm-Nielsen, 1994) y se distribuye en 11 estados de la Rep\u00fablica.\n",
    [
      {
        "text": "S. latifolia",
        "type": "Nombre_cientifico",
        "offset": [
          0,
          12
        ]
      },
      {
        "text": "S. latifolia",
        "type": "Nombre_cientifico",
        "offset": [
          0,
          12
        ]
      }
    ]
  ],
  [
    33,
    "En el Estado de M\u00e9xico, actualmente s\u00f3lo se encuentra en Lerma y en el lago de Chalco.\n",
    []
  ],
  [
    34,
    "Recientemente se descubri\u00f3 y document\u00f3 su valor como planta alimentaria que produce la \u201cpapa de agua\u201d, anteriormente s\u00f3lo atribuida a la otra especie, S. macrophylla (Zepeda y Lot, 1999 y 2005).\n",
    [
      {
        "text": "S. macrophylla",
        "type": "Nombre_cientifico",
        "offset": [
          151,
          165
        ]
      },
      {
        "text": "S. macrophylla",
        "type": "Nombre_cientifico",
        "offset": [
          151,
          165
        ]
      }
    ]
  ],
  [
    35,
    "Menci\u00f3n especial merece S. macrophylla, en primer lugar por tratarse de una especie end\u00e9mica de M\u00e9xico, particularmente de la cuenca del r\u00edo Lerma y Valle de M\u00e9xico; en segundo t\u00e9rmino, se trata de una hidr\u00f3fita enraizada emergente, actualmente considerada en peligro de extinci\u00f3n; y finalmente porque se encuentra registrada en el C\u00f3- dice Florentino (Sahag\u00fan, 1977) por sus atributos como importante recurso alimentario de los antiguos mexicanos que consum\u00edan los tub\u00e9rculos, conocidos con el nombre cacateztli o \u201cpapa de agua\u201d (Lot y Miranda, 1983; Urbina, 1903; Zepeda y Lot, 1999).\n",
    [
      {
        "text": "S. macrophylla",
        "type": "Nombre_cientifico",
        "offset": [
          24,
          38
        ]
      },
      {
        "text": "S. macrophylla",
        "type": "Nombre_cientifico",
        "offset": [
          24,
          38
        ]
      }
    ]
  ],
  [
    36,
    "Por su alto valor biol\u00f3gico y etnobot\u00e1nico, esta especie ha sido rescatada y cultivada en invernaderos y estanques de algunos jardines bot\u00e1nicos, entre los que destaca, el de Xochitla, por su manejo hort\u00edcola, ubicado en los l\u00edmites del Estado de M\u00e9xico con el Distrito Federal (Lot, 2006).\n",
    []
  ],
  [
    37,
    "\n",
    []
  ],
  [
    38,
    "HYDROCHARITACEAE \n",
    [
      {
        "text": "HYDROCHARITACEAE",
        "type": "Nombre_cientifico",
        "offset": [
          0,
          16
        ]
      },
      {
        "text": "HYDROCHARITACEAE",
        "type": "Nombre_cientifico",
        "offset": [
          0,
          16
        ]
      }
    ]
  ],
  [
    39,
    "\n",
    []
  ],
  [
    40,
    "Familia representada en el estado por s\u00f3lo dos especies (con caracter\u00edsticas malezoides) de las siete que existen en la Rep\u00fablica.\n",
    []
  ],
  [
    41,
    "La especie introducida Egeria densa, originaria de Sudam\u00e9rica, es una planta sumergida con altas posibilidades de invadir todos los cuerpos de agua manejados y perturbados por el hombre, debido a su amplia dispersi\u00f3n vegetativa al fragmentarse sus fr\u00e1giles tallos.\n",
    [
      {
        "text": "Egeria densa",
        "type": "Nombre_cientifico",
        "offset": [
          23,
          35
        ]
      },
      {
        "text": "originaria de Sudam\u00e9r",
        "type": "Nombre_cientifico",
        "offset": [
          37,
          58
        ]
      }
    ]
  ],
  [
    42,
    "Se ha colectado a las orillas de la presa Salazar.\n",
    []
  ],
  [
    43,
    "Es una acu\u00e1tica de valor ornamental, ampliamente utilizada en acuarios.\n",
    []
  ],
  [
    44,
    "La especie Hydromystria laevigata es una hidr\u00f3fita libre flotadora, que puede crecer masivamente favorecida por la actividad humana, en zanjas, canales y charcas.\n",
    [
      {
        "arg2_text": "utilizada como abono agr\u00edcola y alimento para aves",
        "arg1_offset": [
          11,
          33
        ],
        "arg2_line": 47,
        "arg2_offset": [
          79,
          129
        ],
        "arg1_text": "Hydromystria laevigata",
        "type": "se_usa",
        "arg1_line": 44
      },
      {
        "text": "Hydromystria laevigata",
        "type": "Nombre_cientifico",
        "offset": [
          11,
          33
        ]
      }
    ]
  ],
  [
    45,
    "Se distribuye de M\u00e9xico a Argentina y las Antillas y, en nuestro pa\u00eds, crece desde el nivel del mar hasta 2 300 msnm en cinco Estados de la Rep\u00fablica.\n",
    []
  ],
  [
    46,
    "Se ha registrado en la Laguna de Almoloya del R\u00edo, as\u00ed como en numerosos canales del Municipio de Lerma.\n",
    []
  ],
  [
    47,
    "En las chinampas del sur de la ciudad de M\u00e9xico se le reconoce como una planta utilizada como abono agr\u00edcola y alimento para aves.\n",
    [
      {
        "text": "utilizada como abono agr\u00edcola y alimento para aves",
        "type": "Uso",
        "offset": [
          79,
          129
        ]
      }
    ]
  ],
  [
    48,
    "\n",
    []
  ],
  [
    49,
    "JUNCAGINACEAE\n",
    [
      {
        "text": "JUNCAGINACEAE",
        "type": "Nombre_cientifico",
        "offset": [
          0,
          13
        ]
      },
      {
        "text": "JUNCAGINACEAE",
        "type": "Nombre_cientifico",
        "offset": [
          0,
          13
        ]
      }
    ]
  ],
  [
    50,
    "\n",
    []
  ],
  [
    51,
    "Peque\u00f1a familia con dos g\u00e9neros y tres especies en nuestro pa\u00eds (se reconoci\u00f3 a la familia monoespec\u00edfica Lilaeaceae dentro de Juncaginaceae).\n",
    [
      {
        "text": "Juncaginaceae",
        "type": "Nombre_cientifico",
        "offset": [
          127,
          140
        ]
      },
      {
        "text": "Lilaeaceae",
        "type": "Nombre_cientifico",
        "offset": [
          106,
          116
        ]
      }
    ]
  ],
  [
    52,
    "En el estado se encuentran dos especies: Triglochin mexicanum y Lilaea scilloides.\n",
    [
      {
        "text": "Lilaea scilloides",
        "type": "Nombre_cientifico",
        "offset": [
          64,
          81
        ]
      },
      {
        "text": "Triglochin mexicanum",
        "type": "Nombre_cientifico",
        "offset": [
          41,
          61
        ]
      }
    ]
  ],
  [
    53,
    "La primera se distribuye en Estados Unidos y M\u00e9xico; en nuestro pa\u00eds, su intervalo de altitud sobre el nivel del mar es muy estrecho (2 200-2 250 msnm) y se desarrolla en planos inundados y lagos de origen salobre o alcalino.\n",
    []
  ],
  [
    54,
    "Se considera una especie rara, cuyas poblaciones son vulnerables y podr\u00edan estar en peligro de extinci\u00f3n.\n",
    []
  ],
  [
    55,
    "El registro m\u00e1s reciente es de 1973, consider\u00e1ndose posiblemente extinta del Distrito Federal (Lot et al., 1999).\n",
    []
  ],
  [
    56,
    "La otra especie es una hidr\u00f3fita dulceacu\u00edcola que habita en las orillas de lagos, ci\u00e9negas y charcas y tiene una distribuci\u00f3n sobre el nivel del mar entre 2 000 y 3 100 m.\n",
    []
  ],
  [
    57,
    "A pesar de su amplia distribuci\u00f3n, desde Canad\u00e1 hasta Argentina, son escasas las colectas en nuestro pa\u00eds, siendo el Estado de M\u00e9xico del que se tiene el mayor n\u00famero de recolectas, principalmente de ci\u00e9negas y pantanos temporales.\n",
    []
  ],
  [
    58,
    "\n",
    []
  ],
  [
    59,
    "LEMNACEAE\n",
    [
      {
        "text": "LEMNACEAE",
        "type": "Nombre_cientifico",
        "offset": [
          0,
          9
        ]
      },
      {
        "text": "LEMNACEAE",
        "type": "Nombre_cientifico",
        "offset": [
          0,
          9
        ]
      }
    ]
  ],
  [
    60,
    "\n",
    []
  ],
  [
    61,
    "Familia bien representada y colectada en el estado, a pesar de tratarse de formas diminutas de unos cuantos mil\u00edmetros, con mayores dificultades en la recolecci\u00f3n y preparaci\u00f3n de buenos ejemplares que la mayor\u00eda de las plantas acu\u00e1ticas.\n",
    []
  ],
  [
    62,
    "En M\u00e9xico se registran cuatro g\u00e9neros (Lemna, Spirodela, Wolffia y Wolffiella) con 12 especies.\n",
    [
      {
        "text": "Lemna",
        "type": "Nombre_cientifico",
        "offset": [
          39,
          44
        ]
      },
      {
        "text": "Spirodela",
        "type": "Nombre_cientifico",
        "offset": [
          46,
          55
        ]
      },
      {
        "text": "Wolffiella",
        "type": "Nombre_cientifico",
        "offset": [
          67,
          77
        ]
      },
      {
        "text": "Wolffia",
        "type": "Nombre_cientifico",
        "offset": [
          57,
          64
        ]
      }
    ]
  ],
  [
    63,
    "Lemna trisulca es una especie rara (libre sumergida) que no ha sido colectada desde hace 30 a\u00f1os.\n",
    [
      {
        "text": "Lemna trisulca",
        "type": "Nombre_cientifico",
        "offset": [
          0,
          14
        ]
      }
    ]
  ],
  [
    64,
    "Wolffia columbiana es indicadora de ambientes contaminados.\n",
    [
      {
        "text": "Wolffia columbiana",
        "type": "Nombre_cientifico",
        "offset": [
          0,
          18
        ]
      }
    ]
  ],
  [
    65,
    "En su conjunto, constituyen un grupo importante de hidr\u00f3fitas, la mayor\u00eda libre flotadoras, que por su gran capacidad de reproducci\u00f3n vegetativa ocupan importantes extensiones en la superficie de ambientes naturales y artificiales, siendo una de las principales fuentes de alimentaci\u00f3n de patos y otras aves acu\u00e1ticas.\n",
    [
      {
        "text": "patos",
        "type": "Nombre_comun",
        "offset": [
          289,
          294
        ]
      },
      {
        "text": "aves acu\u00e1ticas",
        "type": "Nombre_comun",
        "offset": [
          303,
          317
        ]
      }
    ]
  ],
  [
    66,
    "Lemna turionifera y L. trisulca est\u00e1n sujetas a protecci\u00f3n especial. \n",
    [
      {
        "text": "Lemna turionifera",
        "type": "Nombre_cientifico",
        "offset": [
          0,
          17
        ]
      },
      {
        "text": "L. trisulca",
        "type": "Nombre_cientifico",
        "offset": [
          20,
          31
        ]
      },
      {
        "text": "L. trisulca",
        "type": "Nombre_cientifico",
        "offset": [
          20,
          31
        ]
      }
    ]
  ],
  [
    67,
    "\n",
    []
  ],
  [
    68,
    "NAJADACEAE\n",
    [
      {
        "text": "NAJADACEAE",
        "type": "Nombre_cientifico",
        "offset": [
          0,
          10
        ]
      },
      {
        "text": "NAJADACEAE",
        "type": "Nombre_cientifico",
        "offset": [
          0,
          10
        ]
      }
    ]
  ],
  [
    69,
    "\n",
    []
  ],
  [
    70,
    "Representada en el Estado de M\u00e9xico por una de las tres especies registradas para M\u00e9xico.\n",
    []
  ],
  [
    71,
    "Najas guadalupensis var. guadalupensis es una hidr\u00f3fita enraizada sumergida que habita una gran variedad de ambientes dulceacu\u00edcolas y tambi\u00e9n se puede distribuir en h\u00e1bitats moderadamente salobres o alcalinos.\n",
    [
      {
        "text": "Najas guadalupensis var. guadalupensis",
        "type": "Nombre_cientifico",
        "offset": [
          0,
          38
        ]
      }
    ]
  ],
  [
    72,
    "En el Estado de M\u00e9xico se le conoce como \u201cpasto de agua\u201d por su gran capacidad de crecimiento vegetativo, que, aunado a actividades antropog\u00e9nicas en la modificaci\u00f3n de estanques naturales, puede llegar a convertirse en una maleza de dif\u00edcil control.\n",
    [
      {
        "arg2_text": "Najas guadalupensis var. guadalupensis",
        "arg1_offset": [
          42,
          55
        ],
        "arg2_line": 71,
        "arg2_offset": [
          0,
          38
        ],
        "arg1_text": "pasto de agua",
        "type": "alias",
        "arg1_line": 72
      },
      {
        "text": "pasto de agua",
        "type": "Nombre_comun",
        "offset": [
          42,
          55
        ]
      }
    ]
  ],
  [
    73,
    "\n",
    []
  ],
  [
    74,
    "PONTEDERIACEAE\n",
    [
      {
        "text": "PONTEDERIACEAE",
        "type": "Nombre_cientifico",
        "offset": [
          0,
          14
        ]
      },
      {
        "text": "PONTEDERIACEAE",
        "type": "Nombre_cientifico",
        "offset": [
          0,
          14
        ]
      }
    ]
  ],
  [
    75,
    "\n",
    []
  ],
  [
    76,
    "Representada por dos g\u00e9neros contrastantes en el Estado de M\u00e9xico.\n",
    []
  ],
  [
    77,
    "Por un lado sobresale el \u201clirio de agua\u201d Eichhornia crassipes (libre flotadora y malezode), originaria de la amazon\u00eda brasile\u00f1a y ampliamente distribuida y naturalizada en casi todo el territorio nacional (Novelo, 1996); y por el otro lado, encontramos al g\u00e9nero Heteranthera (enraizada) con cuatro especies de distribuci\u00f3n restringida y representado por unas cuantas colectas, la mayor\u00eda antiguas, por lo que el g\u00e9nero es considerado vulnerable ante la creciente contaminaci\u00f3n y desaparici\u00f3n de su h\u00e1bitat.\n",
    [
      {
        "text": "lirio de agua",
        "type": "Nombre_comun",
        "offset": [
          26,
          39
        ]
      },
      {
        "text": "Eichhornia crassipes",
        "type": "Nombre_cientifico",
        "offset": [
          41,
          61
        ]
      },
      {
        "text": "Heteranthera",
        "type": "Nombre_cientifico",
        "offset": [
          263,
          275
        ]
      }
    ]
  ],
  [
    78,
    "\n",
    []
  ],
  [
    79,
    "POTAMOGETONACEAE\n",
    [
      {
        "text": "POTAMOGETONACEAE",
        "type": "Nombre_cientifico",
        "offset": [
          0,
          16
        ]
      },
      {
        "text": "POTAMOGETONACEAE",
        "type": "Nombre_cientifico",
        "offset": [
          0,
          16
        ]
      }
    ]
  ],
  [
    80,
    "\n",
    []
  ],
  [
    81,
    "Es una de las familias m\u00e1s importantes desde el punto de vista ecol\u00f3gico, por la funci\u00f3n y servicio que ofrecen las agrupaciones que forman sus especies como hidr\u00f3fitas enraizadas sumergidas.\n",
    []
  ],
  [
    82,
    "Esta forma de vida cubre el fondo de la mayor\u00eda de los lagos, lagunas, estanques, r\u00edos y canales, favoreciendo el desarrollo de la vida acu\u00e1tica, particularmente de los invertebrados y formas juveniles o peque\u00f1os vertebrados.\n",
    []
  ],
  [
    83,
    "Representada por el g\u00e9nero Potamogeton con cinco especies y la especie del g\u00e9nero segregado Stuckenia (S. pectinata).\n",
    [
      {
        "text": "Stuckenia",
        "type": "Nombre_cientifico",
        "offset": [
          92,
          101
        ]
      },
      {
        "text": "Potamogeton",
        "type": "Nombre_cientifico",
        "offset": [
          27,
          38
        ]
      }
    ]
  ],
  [
    84,
    "Entre las especies de Potamogeton, sobresale P. praelongus por su distribuci\u00f3n restringida al Estado de M\u00e9xico (llanos y presa de Salazar, municipio de Ocoyoacac) y por ser una especie en peligro de extinci\u00f3n.\n",
    [
      {
        "text": "P. praelongus",
        "type": "Nombre_cientifico",
        "offset": [
          45,
          58
        ]
      },
      {
        "text": "Potamogeton",
        "type": "Nombre_cientifico",
        "offset": [
          22,
          33
        ]
      },
      {
        "text": "P. praelongus",
        "type": "Nombre_cientifico",
        "offset": [
          45,
          58
        ]
      }
    ]
  ],
  [
    85,
    "Las comunidades formadas por las especies P. illinoensis y P. nodosus tienen un gran va- lor biol\u00f3gico y ecol\u00f3gico, pero sus poblaciones se encuentran vulnerables, habi\u00e9ndose pr\u00e1cticamente extinguido del Distrito Federal. \n",
    [
      {
        "text": "P. nodosus",
        "type": "Nombre_cientifico",
        "offset": [
          59,
          69
        ]
      },
      {
        "text": "P. illinoensis",
        "type": "Nombre_cientifico",
        "offset": [
          42,
          56
        ]
      },
      {
        "text": "P. illinoensis",
        "type": "Nombre_cientifico",
        "offset": [
          42,
          56
        ]
      },
      {
        "text": "P. nodosus",
        "type": "Nombre_cientifico",
        "offset": [
          59,
          69
        ]
      }
    ]
  ],
  [
    86,
    "\n",
    []
  ],
  [
    87,
    "RUPPIACEAE\n",
    [
      {
        "text": "RUPPIACEAE",
        "type": "Nombre_cientifico",
        "offset": [
          0,
          10
        ]
      },
      {
        "text": "RUPPIACEAE",
        "type": "Nombre_cientifico",
        "offset": [
          0,
          10
        ]
      }
    ]
  ],
  [
    88,
    "\n",
    []
  ],
  [
    89,
    "Algunos autores incluyen al g\u00e9nero Ruppia dentro de la familia Potamogetonaceae.\n",
    [
      {
        "text": "Ruppia",
        "type": "Nombre_cientifico",
        "offset": [
          35,
          41
        ]
      },
      {
        "text": "Potamogetonaceae",
        "type": "Nombre_cientifico",
        "offset": [
          63,
          79
        ]
      }
    ]
  ],
  [
    90,
    "Ruppia maritima es una hidr\u00f3fila enraizada sumergida de ambientes salobres.\n",
    [
      {
        "text": "Ruppia maritima",
        "type": "Nombre_cientifico",
        "offset": [
          0,
          15
        ]
      }
    ]
  ],
  [
    91,
    "Se distribuye desde el nivel del mar, donde es abundante en lagunas costeras, hasta los 2 400 msnm en llanos y lagunas salobres continentales.\n",
    []
  ],
  [
    92,
    "Sus formaciones vegetales son importantes como zonas de refugio y alimentaci\u00f3n de aves acu\u00e1ticas y otros organismos propios de ambientes palustres. \n",
    [
      {
        "text": "aves acu\u00e1ticas",
        "type": "Nombre_comun",
        "offset": [
          82,
          96
        ]
      }
    ]
  ],
  [
    93,
    "\n",
    []
  ],
  [
    94,
    "SPARGANIACEAE\n",
    [
      {
        "text": "SPARGANIACEAE",
        "type": "Nombre_cientifico",
        "offset": [
          0,
          13
        ]
      },
      {
        "text": "SPARGANIACEAE",
        "type": "Nombre_cientifico",
        "offset": [
          0,
          13
        ]
      }
    ]
  ],
  [
    95,
    "\n",
    []
  ],
  [
    96,
    "Familia representada en M\u00e9xico por dos especies con escasos registros en unas cuantas colectas muy antiguas, es por eso que la colocan entre los taxones en peligro de extinci\u00f3n.\n",
    []
  ],
  [
    97,
    "Una de las dos especies es Sparganium eurycarpum, conocida como palma roja, es una hidr\u00f3fita enraizada emergente de h\u00e1bitat dulceacu\u00edcola o salobre; solamente se conoce una colecta de Ram\u00edrez y Herrera en 1952 de la Laguna de Lerma, por lo que puede considerarse extinta para el Estado de M\u00e9xico. \n",
    [
      {
        "text": "palma roja",
        "type": "Nombre_comun",
        "offset": [
          64,
          74
        ]
      },
      {
        "text": "Sparganium eurycarpum",
        "type": "Nombre_cientifico",
        "offset": [
          27,
          48
        ]
      }
    ]
  ],
  [
    98,
    "\n",
    []
  ],
  [
    99,
    "TYPHACEAE\n",
    [
      {
        "text": "TYPHACEAE",
        "type": "Nombre_cientifico",
        "offset": [
          0,
          9
        ]
      },
      {
        "text": "TYPHACEAE",
        "type": "Nombre_cientifico",
        "offset": [
          0,
          9
        ]
      }
    ]
  ],
  [
    100,
    "\n",
    []
  ],
  [
    101,
    "Los integrantes de la familia, en conjunto con el g\u00e9nero Schoenoplectus de la familia Cyperaceae, constituyen un importante tipo de vegetaci\u00f3n conocido popularmente como tular.\n",
    [
      {
        "text": "Schoenoplectus",
        "type": "Nombre_cientifico",
        "offset": [
          57,
          71
        ]
      },
      {
        "text": "Cyperaceae",
        "type": "Nombre_cientifico",
        "offset": [
          86,
          96
        ]
      }
    ]
  ],
  [
    102,
    "Esta agrupaci\u00f3n vegetal es quiz\u00e1 la m\u00e1s importante, entre las plantas acu\u00e1ticas, por la superficie que ocupa y el papel que tiene, no s\u00f3lo como refugio y alimentaci\u00f3n de la mayor diversidad de fauna lacustre y palustre mexicana, sino tambi\u00e9n por el desarrollo econ\u00f3mico y cultural de los antiguos mexicanos (Lot et al., 2004).\n",
    []
  ],
  [
    103,
    "En el Estado de M\u00e9xico est\u00e1n presentes las dos especies registradas para el pa\u00eds.\n",
    []
  ],
  [
    104,
    "Typha latifolia es aparentemente m\u00e1s abundante que T. domingensis, pero el n\u00famero tan bajo de colectas no permite abundar en informaci\u00f3n.\n",
    [
      {
        "text": "T. domingensis",
        "type": "Nombre_cientifico",
        "offset": [
          51,
          65
        ]
      },
      {
        "text": "Typha latifolia",
        "type": "Nombre_cientifico",
        "offset": [
          0,
          15
        ]
      },
      {
        "text": "T. domingensis",
        "type": "Nombre_cientifico",
        "offset": [
          51,
          65
        ]
      }
    ]
  ],
  [
    105,
    "\n",
    []
  ],
  [
    106,
    "ZANNICHELLIACEAE\n",
    [
      {
        "text": "ZANNICHELLIACEAE",
        "type": "Nombre_cientifico",
        "offset": [
          0,
          16
        ]
      },
      {
        "text": "ZANNICHELLIACEAE",
        "type": "Nombre_cientifico",
        "offset": [
          0,
          16
        ]
      }
    ]
  ],
  [
    107,
    "\n",
    []
  ],
  [
    108,
    "En M\u00e9xico se reconoce un g\u00e9nero monoespec\u00edfico de presumiblemente amplia distribuci\u00f3n por su car\u00e1cter cosmopolita.\n",
    []
  ],
  [
    109,
    "Sin embargo, al revisar las colecciones de Zannichellia palustris, en general, se observan cada vez menos colectas y la mayor\u00eda tienen varias d\u00e9cadas de haberse realizado.\n",
    [
      {
        "text": "Zannichellia palustris",
        "type": "Nombre_cientifico",
        "offset": [
          43,
          65
        ]
      }
    ]
  ],
  [
    110,
    "Se requiere una evaluaci\u00f3n exploratoria de campo, para verificar el estado actual de sus poblaciones en la amplia gama de ambientes donde potencialmente crece. \n",
    []
  ],
  [
    111,
    "\n",
    []
  ],
  [
    112,
    "CABOMBACEAE\n",
    [
      {
        "text": "CABOMBACEAE",
        "type": "Nombre_cientifico",
        "offset": [
          0,
          11
        ]
      },
      {
        "text": "CABOMBACEAE",
        "type": "Nombre_cientifico",
        "offset": [
          0,
          11
        ]
      }
    ]
  ],
  [
    113,
    "\n",
    []
  ],
  [
    114,
    "El registro de Cabomba palaeformis en el Estado de M\u00e9xico, en realidad, se trata de una introducci\u00f3n relativamente reciente en los canales de San Juan Teotihuac\u00e1n, realizada por personas que se dedican a la venta de acu\u00e1ticas ornamentales para los acuarios.\n",
    [
      {
        "text": "Cabomba palaeformis",
        "type": "Nombre_cientifico",
        "offset": [
          15,
          34
        ]
      }
    ]
  ],
  [
    115,
    "Esta especie, junto con otras, confirman su recolecci\u00f3n con fines comerciales y su procedencia de localidades bajas y c\u00e1lidas del estado de Veracruz (Lot y Novelo, 2001). \n",
    []
  ],
  [
    116,
    "\n",
    []
  ],
  [
    117,
    "CERATOPHYLLANCEAE\n",
    [
      {
        "text": "CERATOPHYLLANCEAE",
        "type": "Nombre_cientifico",
        "offset": [
          0,
          17
        ]
      }
    ]
  ],
  [
    118,
    "\n",
    []
  ],
  [
    119,
    "Ceratophyllum demersum, al igual que otras hidr\u00f3fitas sumergidas mencionadas (Zan- nichellia palustris, Lemna trisulca y Potamogeton spp.), es una especie cuyas poblaciones se encuentran aparentemente en peligro de extinci\u00f3n, por la falta de registros y colectas recientes.\n",
    [
      {
        "text": "Ceratophyllum demersum",
        "type": "Nombre_cientifico",
        "offset": [
          0,
          22
        ]
      },
      {
        "text": "Lemna trisulca",
        "type": "Nombre_cientifico",
        "offset": [
          104,
          118
        ]
      },
      {
        "text": "Potamogeton spp",
        "type": "Nombre_cientifico",
        "offset": [
          121,
          136
        ]
      }
    ]
  ],
  [
    120,
    "Son casos que llaman la atenci\u00f3n por su amplia distribuci\u00f3n en otras entidades de la Rep\u00fablica y en general en el resto del continente, por lo que es importante llevar a cabo estudios de campo que ayuden a clarificar el grado de vulnerabilidad de las poblaciones y el grado de contaminaci\u00f3n o degradaci\u00f3n de su h\u00e1bitat. \n",
    []
  ],
  [
    121,
    "\n",
    []
  ],
  [
    122,
    "MENYANTHACEAE \n",
    [
      {
        "text": "MENYANTHACEAE",
        "type": "Nombre_cientifico",
        "offset": [
          0,
          13
        ]
      },
      {
        "text": "MENYANTHACEAE",
        "type": "Nombre_cientifico",
        "offset": [
          0,
          13
        ]
      }
    ]
  ],
  [
    123,
    "\n",
    []
  ],
  [
    124,
    "Familia representada en el Estado de M\u00e9xico por una de las dos especies presentes en M\u00e9xico.\n",
    []
  ],
  [
    125,
    "Nymphoides fallax es una hidr\u00f3fita enraizada de hojas flotantes que se distribuye en lagos de monta\u00f1a de M\u00e9xico y Guatemala.\n",
    [
      {
        "text": "Nymphoides fallax",
        "type": "Nombre_cientifico",
        "offset": [
          0,
          17
        ]
      }
    ]
  ],
  [
    126,
    "En el estado se presenta de forma abundante en diversos municipios, entre los que destacan Lerma, Santiago Tianguis- tenco y Acambay. \n",
    []
  ],
  [
    127,
    "\n",
    []
  ],
  [
    128,
    "NYMPHAEACEAE\n",
    [
      {
        "text": "NYMPHAEACEAE",
        "type": "Nombre_cientifico",
        "offset": [
          0,
          12
        ]
      },
      {
        "text": "NYMPHAEACEAE",
        "type": "Nombre_cientifico",
        "offset": [
          0,
          12
        ]
      }
    ]
  ],
  [
    129,
    "\n",
    []
  ],
  [
    130,
    "En el estado se distribuye Nymphaea gracilis, especie end\u00e9mica de M\u00e9xico.\n",
    [
      {
        "text": "Nymphaea gracilis",
        "type": "Nombre_cientifico",
        "offset": [
          27,
          44
        ]
      }
    ]
  ],
  [
    131,
    "Sus poblaciones est\u00e1n amenazadas de extinci\u00f3n en todo el pa\u00eds de acuerdo a la NOM-059-ECOL- 2001 (Semarnat, 2002) y es una de las especies de acu\u00e1ticas m\u00e1s elegante y de gran inter\u00e9s ornamental.\n",
    []
  ],
  [
    132,
    "En el pasado represent\u00f3 un importante recurso alimentario para el hombre, a partir del tub\u00e9rculo y para los animales (cerdos) como forraje (Bonilla-Barbo- sa, 2000). N. mexicana es la otra especie registrada para el estado por tres colecciones, la m\u00e1s reciente con m\u00e1s de dos d\u00e9cadas, por lo que se le considera en peligro de extinci\u00f3n.\n",
    [
      {
        "text": "cerdos",
        "type": "Nombre_comun",
        "offset": [
          118,
          124
        ]
      },
      {
        "text": "N. mexicana",
        "type": "Nombre_cientifico",
        "offset": [
          166,
          177
        ]
      }
    ]
  ],
  [
    133,
    "No existe ning\u00fan registro documentado de la presencia de N. odorata, pero es muy posible que existiera en el pasado por su distribuci\u00f3n en la cuenca de M\u00e9xico.\n",
    [
      {
        "text": "N. odorata",
        "type": "Nombre_cientifico",
        "offset": [
          57,
          67
        ]
      },
      {
        "text": "N. odorata",
        "type": "Nombre_cientifico",
        "offset": [
          57,
          67
        ]
      }
    ]
  ],
  [
    134,
    "\n",
    []
  ],
  [
    135,
    "PODOSTEMACEAE\n",
    [
      {
        "text": "PODOSTEMACEAE",
        "type": "Nombre_cientifico",
        "offset": [
          0,
          13
        ]
      },
      {
        "text": "PODOSTEMACEAE",
        "type": "Nombre_cientifico",
        "offset": [
          0,
          13
        ]
      }
    ]
  ],
  [
    136,
    "\n",
    []
  ],
  [
    137,
    "Familia de amplia distribuci\u00f3n en regiones tropicales c\u00e1lidas que se extienden a las templadas, con numerosos endemismos restringidos a peque\u00f1as \u00e1reas geogr\u00e1ficas (Phil- brick y Novelo, 1995).\n",
    []
  ],
  [
    138,
    "Tristicha trifaria, de amplia distribuci\u00f3n mundial, est\u00e1 pobremente representada en el Estado de M\u00e9xico por una antigua colecci\u00f3n de Matuda (Holotipo) de la regi\u00f3n de San Antonio Tlatlaya (Matuda, 1956).\n",
    [
      {
        "text": "Tristicha trifaria",
        "type": "Nombre_cientifico",
        "offset": [
          0,
          18
        ]
      }
    ]
  ],
  [
    139,
    "Su forma de vida es rara entre las angiospermas, al estar adaptada como hidr\u00f3fita sumergida adherida a las rocas en r\u00edos y cascadas de fuerte corriente.\n",
    [
      {
        "text": "angiospermas",
        "type": "Nombre_comun",
        "offset": [
          35,
          47
        ]
      }
    ]
  ],
  [
    140,
    "\n",
    []
  ],
  [
    141,
    "FAMILIAS QUE INCLUYEN OTRAS PLANTAS VASCULARES ACU\u00c1TICAS EN EL ESTADO DE M\u00c9XICO \n",
    []
  ],
  [
    142,
    "\n",
    []
  ],
  [
    143,
    "Adem\u00e1s de las angiospermas acu\u00e1ticas de familias estrictas, existe un n\u00famero importante de especies acu\u00e1ticas y subacu\u00e1ticas de familias mayormente terrestres.\n",
    [
      {
        "text": "angiospermas",
        "type": "Nombre_comun",
        "offset": [
          14,
          26
        ]
      }
    ]
  ],
  [
    144,
    "En el Cuadro 3 se enlistan algunas de las m\u00e1s conocidas, registradas para el Estado de M\u00e9xico, con colecciones institucionales que las respaldan.\n",
    []
  ],
  [
    145,
    "Entre estas especies acu\u00e1ticas podemos mencionar un n\u00famero cercano a 50, que se sumar\u00eda a las m\u00e1s de 40 de las familias tratadas.\n",
    []
  ],
  [
    146,
    "Aqu\u00ed se incluyen a los helechos de los g\u00e9neros Marsilea y Salvinia, la orqu\u00eddea Spiranthes graminea y al toloache acu\u00e1tico Datura ceratocaula (end\u00e9mica de M\u00e9xico), por mencionar algunos casos de inter\u00e9s y poco conocidos como parte de la flora acu\u00e1tica de los humedales templados mexicanos. \n",
    [
      {
        "text": "toloache acu\u00e1tico",
        "type": "Nombre_comun",
        "offset": [
          105,
          122
        ]
      },
      {
        "text": "orqu\u00eddea",
        "type": "Nombre_comun",
        "offset": [
          71,
          79
        ]
      },
      {
        "text": "helechos",
        "type": "Nombre_comun",
        "offset": [
          23,
          31
        ]
      },
      {
        "text": "Salvinia",
        "type": "Nombre_cientifico",
        "offset": [
          58,
          66
        ]
      },
      {
        "text": "Datura ceratocaula",
        "type": "Nombre_cientifico",
        "offset": [
          123,
          141
        ]
      },
      {
        "text": "Marsilea",
        "type": "Nombre_cientifico",
        "offset": [
          47,
          55
        ]
      },
      {
        "text": "Spiranthes graminea",
        "type": "Nombre_cientifico",
        "offset": [
          80,
          99
        ]
      }
    ]
  ],
  [
    147,
    "\n",
    []
  ],
  [
    148,
    "DISTRIBUCI\u00d3N GEOGR\u00c1FICA\n",
    []
  ],
  [
    149,
    "\n",
    []
  ],
  [
    150,
    "La mayor\u00eda de los h\u00e1bitat donde se distribuyen las hidr\u00f3fitas corresponden a humedales dulceacu\u00edcolas, que van desde charcas temporales, ci\u00e9negas, lagos y lagunas, en cuanto a los ambientes con poca corriente (l\u00e9nticos), hasta arroyos y r\u00edos en los llamados ambientes l\u00f3ticos.\n",
    []
  ],
  [
    151,
    "Tambi\u00e9n hay que considerar aquellos cuerpos de agua modificados o construidos por el hombre, como los canales de riego, las presas y los bordos.\n",
    []
  ],
  [
    152,
    "Algunas diferencias elementales entre la mayor\u00eda de los h\u00e1bitat mencionados tienen que ver con la profundidad, temporalidad del espejo de agua y movilidad del flujo del agua.\n",
    []
  ],
  [
    153,
    "Un elemento altamente significativo en la diversidad vegetal de los diferentes ambientes presentes a lo largo y ancho del Estado de M\u00e9xico es la intercomunicaci\u00f3n y continuidad de dichos ambientes en los grandes humedales o ecosistemas constituidos por la suma de tan diversos h\u00e1bitat.\n",
    []
  ],
  [
    154,
    "Esto explica en gran medida la distribuci\u00f3n de la vegetaci\u00f3n y de algunos elementos particulares de la flora que se establecen, por ejemplo, en charcas temporales o ci\u00e9negas someras, como son las especies del g\u00e9nero insect\u00edvoro Utricularia (Olvera, 1996) o de formas de vida de talla peque\u00f1a y estructura delicada.\n",
    [
      {
        "text": "Utricularia",
        "type": "Nombre_cientifico",
        "offset": [
          228,
          239
        ]
      }
    ]
  ],
  [
    155,
    "Estos h\u00e1bitat de superficies menores y ef\u00edmeros, pueden pasar desapercibidos al ojo del ec\u00f3logo o bot\u00e1nico no especializado en esos grupos de plantas, sin embargo, su existencia es fundamental en la riqueza y la diversidad de la flora acu\u00e1tica, la cual se complementa con la presencia de formaciones vegetales que cubren grandes superficies en lagos permanentes con una importante flora y fauna acompa\u00f1ante.\n",
    []
  ],
  [
    156,
    "La existencia de peque\u00f1os cuerpos de agua funciona tambi\u00e9n como corredores biol\u00f3gicos, en conjunto con la activa participaci\u00f3n de las aves acu\u00e1ticas y otros factores que intervienen en la dispersi\u00f3n de prop\u00e1gulos a distancia.\n",
    [
      {
        "text": "aves acu\u00e1ticas",
        "type": "Nombre_comun",
        "offset": [
          134,
          148
        ]
      }
    ]
  ],
  [
    157,
    "Por otro lado, la actividad antropog\u00e9nica, particularmente de los \u00faltimos 50 a\u00f1os, ha sido determinante en la desaparici\u00f3n y contaminaci\u00f3n de la mayor\u00eda de los cuerpos de agua del Estado de M\u00e9xico.\n",
    []
  ],
  [
    158,
    "Con ello, no s\u00f3lo se ha reducido la diversidad de hidr\u00f3fitas, sino que se ha favorecido el establecimiento de malezas acu\u00e1ticas y la sustituci\u00f3n y empobrecimiento de la flora acu\u00e1tica nativa debido a la presencia de especies invasoras altamente tolerantes a los cambios producidos por la actividad humana.\n",
    []
  ],
  [
    159,
    "Estas plantas de car\u00e1cter oportunista constituyen asociaciones puras o de dos o tres especies, en ambientes que otrora manten\u00edan comunidades de varias decenas y con caracter\u00edsticas fison\u00f3micas muy variables con todas las formas de vida reconocidas en las plantas vasculares acu\u00e1ticas y en numerosas unidades de vegetaci\u00f3n.\n",
    []
  ],
  [
    160,
    "\n",
    []
  ],
  [
    161,
    "IMPORTANCIA Y USOS\n",
    []
  ],
  [
    162,
    "\n",
    []
  ],
  [
    163,
    "Las plantas vasculares acu\u00e1ticas son los elementos que constituyen la vegetaci\u00f3n de los humedales.\n",
    []
  ],
  [
    164,
    "El funcionamiento y servicios ambientales de la vegetaci\u00f3n acu\u00e1tica son fundamentales en la salud de los ecosistemas palustres y lacustres.\n",
    []
  ],
  [
    165,
    "Adem\u00e1s de ser los productores primarios de los ecosistemas acu\u00e1ticos, las hidr\u00f3fitas juegan un papel esencial en el equilibrio y desarrollo de la vida acu\u00e1tica, en la conservaci\u00f3n del h\u00e1bitat y en consecuencia en la diversidad biol\u00f3gica (Lot et al., 2004) Entre las funciones de las plantas vasculares acu\u00e1ticas, reconocidas universalmente, podemos mencionar las siguientes: 1. Proporcionan refugio a la fauna acu\u00e1tica, en sus estados larvarios o adultos. 2.\n",
    []
  ],
  [
    166,
    "Sus agrupaciones favorecen la anidaci\u00f3n, reproducci\u00f3n y alimentaci\u00f3n de organismos acu\u00e1ticos y terrestres como los anfibios. 3.\n",
    [
      {
        "text": "anfibios",
        "type": "Nombre_comun",
        "offset": [
          115,
          123
        ]
      }
    ]
  ],
  [
    167,
    "Son generadoras de energ\u00eda en forma de detritus a trav\u00e9s de la materia org\u00e1nica que forman al morir. 4.\n",
    []
  ],
  [
    168,
    "Capturan, estabilizan e intervienen en la formaci\u00f3n de sedimentos. 5.\n",
    []
  ],
  [
    169,
    "Intervienen en el movimiento y reserva del agua. 6.\n",
    []
  ],
  [
    170,
    "Oxigenan el ambiente acu\u00e1tico. 7.\n",
    []
  ],
  [
    171,
    "Son filtradoras de impurezas del agua.\n",
    []
  ],
  [
    172,
    "Sin embargo, una buena parte de los cuerpos de agua presentes en el Estado de M\u00e9xico, se encuentran en un avanzado proceso de contaminaci\u00f3n, desecaci\u00f3n y fragmentaci\u00f3n, lo que ha influido de manera dram\u00e1tica en la p\u00e9rdida de la biodiversidad y en la limitaci\u00f3n de los servicios ambientales mencionados.\n",
    []
  ],
  [
    173,
    "No todas las hidr\u00f3fitas tienen o son conocidas por un valor de uso, pero todas tienen una gran importancia ecol\u00f3gica, especialmente las formas sumergidas y las formas emergentes, nombradas gen\u00e9ricamente como tulares.\n",
    []
  ],
  [
    174,
    "Entre los usos conocidos de algunas plantas vasculares acu\u00e1ticas que se distribuyen en el Estado de M\u00e9xico, son notables las papas de agua, Sagittaria macrophylla y S. latifolia, ambas tienen un valor nutricional significativo en su cormo o tub\u00e9rculo subterr\u00e1neo que crece en el fango y que se come cocido.\n",
    [
      {
        "text": "Sagittaria macrophylla",
        "type": "Nombre_cientifico",
        "offset": [
          140,
          162
        ]
      },
      {
        "text": "S. latifolia",
        "type": "Nombre_cientifico",
        "offset": [
          165,
          177
        ]
      },
      {
        "text": "S. latifolia",
        "type": "Nombre_cientifico",
        "offset": [
          165,
          177
        ]
      }
    ]
  ],
  [
    175,
    "Otras especies son utilizadas como abono agr\u00edcola y como planta forrajera, como Hydromistria laevigata y Lemna gibba, que junto con Ruppia maritima, son alimento de aves acu\u00e1ticas.\n",
    [
      {
        "text": "aves acu\u00e1ticas",
        "type": "Nombre_comun",
        "offset": [
          165,
          179
        ]
      },
      {
        "text": "son utilizadas como abono agr\u00edcola y como planta forrajera",
        "type": "Uso",
        "offset": [
          15,
          73
        ]
      },
      {
        "arg2_text": "son utilizadas como abono agr\u00edcola y como planta forrajera",
        "arg1_offset": [
          105,
          116
        ],
        "arg2_line": 175,
        "arg2_offset": [
          15,
          73
        ],
        "arg1_text": "Lemna gibba",
        "type": "se_usa",
        "arg1_line": 175
      },
      {
        "arg2_text": "son utilizadas como abono agr\u00edcola y como planta forrajera",
        "arg1_offset": [
          132,
          147
        ],
        "arg2_line": 175,
        "arg2_offset": [
          15,
          73
        ],
        "arg1_text": "Ruppia maritima",
        "type": "se_usa",
        "arg1_line": 175
      },
      {
        "text": "Hydromistria laevigata",
        "type": "Nombre_cientifico",
        "offset": [
          80,
          102
        ]
      },
      {
        "arg2_text": "son utilizadas como abono agr\u00edcola y como planta forrajera",
        "arg1_offset": [
          80,
          102
        ],
        "arg2_line": 175,
        "arg2_offset": [
          15,
          73
        ],
        "arg1_text": "Hydromistria laevigata",
        "type": "se_usa",
        "arg1_line": 175
      },
      {
        "text": "Lemna gibba",
        "type": "Nombre_cientifico",
        "offset": [
          105,
          116
        ]
      },
      {
        "text": "Ruppia maritima",
        "type": "Nombre_cientifico",
        "offset": [
          132,
          147
        ]
      }
    ]
  ],
  [
    176,
    "Las que se usan como fibras, en la elaboraci\u00f3n de cester\u00eda, petates, artesan\u00eda, construcci\u00f3n de techos y cercas de pesebres y otras construcciones menores, son el estapil y los tules de los g\u00e9neros Schoenoplectus y Typha, de una gran tradici\u00f3n en la cultura palustre que pobl\u00f3 el centro de M\u00e9xico.\n",
    [
      {
        "text": "se usan como fibras, en la elaboraci\u00f3n de cester\u00eda, petates, artesan\u00eda, construcci\u00f3n de techos y cercas de pesebres y otras construcciones menores",
        "type": "Uso",
        "offset": [
          8,
          154
        ]
      },
      {
        "arg2_text": "se usan como fibras, en la elaboraci\u00f3n de cester\u00eda, petates, artesan\u00eda, construcci\u00f3n de techos y cercas de pesebres y otras construcciones menores",
        "arg1_offset": [
          198,
          212
        ],
        "arg2_line": 176,
        "arg2_offset": [
          8,
          154
        ],
        "arg1_text": "Schoenoplectus",
        "type": "se_usa",
        "arg1_line": 176
      },
      {
        "arg2_text": "se usan como fibras, en la elaboraci\u00f3n de cester\u00eda, petates, artesan\u00eda, construcci\u00f3n de techos y cercas de pesebres y otras construcciones menores",
        "arg1_offset": [
          215,
          220
        ],
        "arg2_line": 176,
        "arg2_offset": [
          8,
          154
        ],
        "arg1_text": "Typha",
        "type": "se_usa",
        "arg1_line": 176
      },
      {
        "text": "Typha",
        "type": "Nombre_cientifico",
        "offset": [
          215,
          220
        ]
      },
      {
        "text": "Schoenoplectus",
        "type": "Nombre_cientifico",
        "offset": [
          198,
          212
        ]
      }
    ]
  ],
  [
    177,
    "Entre las ornamentales sobresalen las especies de los g\u00e9neros Nymphaea y Nymphoides, este \u00faltimo de manera potencial, como se demuestra en su cultivo en los jardines acu\u00e1ticos del Parque Xochitla, en el Estado de M\u00e9xico. \n",
    [
      {
        "text": "Nymphaea",
        "type": "Nombre_cientifico",
        "offset": [
          62,
          70
        ]
      },
      {
        "text": "Nymphoides",
        "type": "Nombre_cientifico",
        "offset": [
          73,
          83
        ]
      }
    ]
  ],
  [
    178,
    "\n",
    []
  ],
  [
    179,
    "SITUACI\u00d3N ACTUAL \n",
    []
  ],
  [
    180,
    "\n",
    []
  ],
  [
    181,
    "El Estado de M\u00e9xico se ubica entre las primeras cinco entidades pol\u00edticas con mayor diversidad de la flora acu\u00e1tica de M\u00e9xico.\n",
    []
  ],
  [
    182,
    "En contraste, la alta diversidad de ambientes acu\u00e1ticos favorable para el desarrollo de plantas vasculares acu\u00e1ticas, se encuentra en un alarmante deterioro.\n",
    []
  ],
  [
    183,
    "La posici\u00f3n geogr\u00e1fica del estado es muy significativa en cuanto a la representaci\u00f3n de la flora acu\u00e1tica del altiplano mexicano y muy particularmente por la posici\u00f3n emblem\u00e1tica del paisaje lacustre y palustre del centro de M\u00e9xico, situaci\u00f3n reconocida en la historia y desarrollo cultural de los antiguos mexicanos.\n",
    []
  ],
  [
    184,
    "La cuenca alta del r\u00edo Lerma es el mejor ejemplo.\n",
    []
  ],
  [
    185,
    "Antes de la primera mitad del siglo XX, la Laguna de Lerma, formada por numerosos manantiales que alimentaban un extenso humedal, era una regi\u00f3n de gran belleza y con gran variedad de recursos naturales.\n",
    []
  ],
  [
    186,
    "En los \u00faltimos 50 o 60 a\u00f1os se han reducido dr\u00e1sticamente las posibilidades de mantener importantes \u00e1reas inundables sin contaminaci\u00f3n o bajo el efecto de alguna acci\u00f3n antropog\u00e9nica derivada del crecimiento urbano e industrial, de la sobreexplotaci\u00f3n del manto fre\u00e1tico, de la actividad ganadera, de la creciente deforestaci\u00f3n y del mal manejo del sistema hidrodin\u00e1mico, que entre otras cosas afecta el ciclo del agua en la regi\u00f3n. \n",
    []
  ],
  [
    187,
    "\n",
    []
  ],
  [
    188,
    "AMENAZAS\n",
    []
  ],
  [
    189,
    "\n",
    []
  ],
  [
    190,
    "Al revisar la informaci\u00f3n de las colecciones y estudios sobre la flora y la vegetaci\u00f3n propia de los humedales presentes en el Estado de M\u00e9xico, es notable el gran n\u00famero de casos que ponen en evidencia la vulnerabilidad de casi todas las poblaciones y comunidades dominadas por las hidr\u00f3fitas, principalmente de formas sumergidas y emergentes.\n",
    []
  ],
  [
    191,
    "Algunas de las familias de plantas acu\u00e1ticas son indicadoras del efecto creciente de perturbaci\u00f3n de su h\u00e1bitat y en consecuencia de la desaparici\u00f3n de los elementos flor\u00edsticos que componen diferentes tipos de vegetaci\u00f3n.\n",
    []
  ],
  [
    192,
    "Las familias Alismataceae, Potamogetonaceae, Zannichelliaceae, Ceratophyllaceae, Nymphaeaceae y Podostemaceae, incluyen taxones en peligro de desaparecer como parte de la biota del Estado de M\u00e9xico.\n",
    [
      {
        "text": "Zannichelliaceae",
        "type": "Nombre_cientifico",
        "offset": [
          45,
          61
        ]
      },
      {
        "text": "Podostemaceae",
        "type": "Nombre_cientifico",
        "offset": [
          96,
          109
        ]
      },
      {
        "text": "Nymphaeaceae",
        "type": "Nombre_cientifico",
        "offset": [
          81,
          93
        ]
      },
      {
        "text": "Ceratophyllaceae",
        "type": "Nombre_cientifico",
        "offset": [
          63,
          79
        ]
      },
      {
        "text": "Potamogetonaceae",
        "type": "Nombre_cientifico",
        "offset": [
          27,
          43
        ]
      },
      {
        "text": "Alismataceae",
        "type": "Nombre_cientifico",
        "offset": [
          13,
          25
        ]
      }
    ]
  ],
  [
    193,
    "El caso de la familia Sparganiaceae es un claro ejemplo de extinci\u00f3n en el estado y en general del altiplano mexicano, representada hasta hace 50 a\u00f1os como parte del paisaje palustre del centro de M\u00e9xico.\n",
    [
      {
        "text": "Sparganiaceae",
        "type": "Nombre_cientifico",
        "offset": [
          22,
          35
        ]
      }
    ]
  ],
  [
    194,
    "En particular hay que enfatizar y poner los hot spot en las especies end\u00e9micas y raras de M\u00e9xico, presentes a\u00fan en el estado.\n",
    []
  ],
  [
    195,
    "En primer lugar, dentro de esta categor\u00eda y como planta en peligro de extinci\u00f3n, se encuentra: Sagittaria macrophylla (Alismata- ceae), ya que sus poblaciones est\u00e1n restringidas a la regi\u00f3n inundable del R\u00edo Lerma.\n",
    [
      {
        "text": "Sagittaria macrophylla",
        "type": "Nombre_cientifico",
        "offset": [
          95,
          117
        ]
      }
    ]
  ],
  [
    196,
    "Como se mencion\u00f3 arriba, esta planta acu\u00e1tica es de gran importancia econ\u00f3mica y sobre todo cultural.\n",
    []
  ],
  [
    197,
    "Si no se hace un esfuerzo coordinado y permanente, esta especie, conocida como \u201cpapa de agua\u201d y registrada desde los c\u00f3dices mexicanos, puede desaparecer para siempre del planeta Tierra.\n",
    [
      {
        "text": "papa de agua",
        "type": "Nombre_comun",
        "offset": [
          80,
          92
        ]
      }
    ]
  ],
  [
    198,
    "El otro caso de end\u00e9mica en peligro de extinci\u00f3n corresponde a Nymphaea gracilis (Nymphaeaceae); en este, a diferencia del anterior, su distribuci\u00f3n no se restringe localmente a una regi\u00f3n del estado y su extensi\u00f3n al Valle de M\u00e9xico, sino que se presenta en otros estados de la Rep\u00fablica.\n",
    [
      {
        "text": "Nymphaeaceae",
        "type": "Nombre_cientifico",
        "offset": [
          82,
          94
        ]
      },
      {
        "text": "Nymphaea gracilis",
        "type": "Nombre_cientifico",
        "offset": [
          63,
          80
        ]
      }
    ]
  ],
  [
    199,
    "Sin embargo, como cada d\u00eda es m\u00e1s rara la presencia de sus poblaciones, en los pocos ambientes lacustres con las condiciones adecuadas para su crecimiento y reproducci\u00f3n, debe considerarse para su conservaci\u00f3n.\n",
    []
  ],
  [
    200,
    "Otro grupo de especies en peligro de extinci\u00f3n, ya sea por que sus poblaciones son vulnerables, en el sentido de que experimentan una disminuci\u00f3n por una sobreexplotaci\u00f3n o por una reducci\u00f3n significativa del h\u00e1bitat, o por la falta de exploraciones bot\u00e1nicas y colecciones recientes que nos den cuenta de su estado actual, son las siguientes: Triglochin mexicanum (Juncaginaceae), Lemna trisulca (sujeta a protecci\u00f3n especial) y Wolffiella gladiata (Lemnaceae), Heteranthera limosa, H. peduncularis, H. reniformes y H. rotundifolia (Pontederiaceae), Potamogeton illinoensis, P. praelongus y P. pusillus (Potamogetonaceae), Zannichellia palustris (Zannichelliaceae) y Sagittaria latifolia (Alismataceae).\n",
    [
      {
        "text": "H. rotundifolia",
        "type": "Nombre_cientifico",
        "offset": [
          517,
          532
        ]
      },
      {
        "text": "P. praelongus",
        "type": "Nombre_cientifico",
        "offset": [
          576,
          589
        ]
      },
      {
        "text": "H. peduncularis",
        "type": "Nombre_cientifico",
        "offset": [
          484,
          499
        ]
      },
      {
        "text": "H. reniformes",
        "type": "Nombre_cientifico",
        "offset": [
          501,
          514
        ]
      },
      {
        "text": "P. pusillus",
        "type": "Nombre_cientifico",
        "offset": [
          592,
          603
        ]
      },
      {
        "text": "Sagittaria latifolia",
        "type": "Nombre_cientifico",
        "offset": [
          668,
          688
        ]
      },
      {
        "text": "Alismataceae",
        "type": "Nombre_cientifico",
        "offset": [
          690,
          702
        ]
      },
      {
        "text": "Zannichellia palustris",
        "type": "Nombre_cientifico",
        "offset": [
          624,
          646
        ]
      },
      {
        "text": "Zannichelliaceae",
        "type": "Nombre_cientifico",
        "offset": [
          648,
          664
        ]
      },
      {
        "text": "Lemna trisulca",
        "type": "Nombre_cientifico",
        "offset": [
          382,
          396
        ]
      },
      {
        "text": "Juncaginaceae",
        "type": "Nombre_cientifico",
        "offset": [
          366,
          379
        ]
      },
      {
        "text": "Triglochin mexicanum",
        "type": "Nombre_cientifico",
        "offset": [
          344,
          364
        ]
      },
      {
        "text": "Lemnaceae",
        "type": "Nombre_cientifico",
        "offset": [
          451,
          460
        ]
      },
      {
        "text": "Heteranthera limosa",
        "type": "Nombre_cientifico",
        "offset": [
          463,
          482
        ]
      },
      {
        "text": "P. praelongus",
        "type": "Nombre_cientifico",
        "offset": [
          576,
          589
        ]
      },
      {
        "text": "Wolffiella gladiata",
        "type": "Nombre_cientifico",
        "offset": [
          430,
          449
        ]
      },
      {
        "text": "Pontederiaceae",
        "type": "Nombre_cientifico",
        "offset": [
          534,
          548
        ]
      },
      {
        "text": "Potamogeton illinoensis",
        "type": "Nombre_cientifico",
        "offset": [
          551,
          574
        ]
      },
      {
        "text": "Potamogetonaceae",
        "type": "Nombre_cientifico",
        "offset": [
          605,
          621
        ]
      },
      {
        "text": "H. rotundifolia",
        "type": "Nombre_cientifico",
        "offset": [
          517,
          532
        ]
      },
      {
        "text": "P. pusillus",
        "type": "Nombre_cientifico",
        "offset": [
          592,
          603
        ]
      },
      {
        "text": "H. peduncularis",
        "type": "Nombre_cientifico",
        "offset": [
          484,
          499
        ]
      }
    ]
  ],
  [
    201,
    "El caso de la especie sumergida Ceratophyllum demersum (Ceratophyllaceae), si bien, est\u00e1 considerada como en peligro de extinci\u00f3n en el estado, hay que tomarlo con reserva, por su amplia distribuci\u00f3n en las partes bajas de estados como Campeche, Jalisco, Michoac\u00e1n, Tabasco y Veracruz, donde incluso puede convertirse en una plaga por el r\u00e1pido crecimiento de sus poblaciones.\n",
    [
      {
        "text": "Ceratophyllum demersum",
        "type": "Nombre_cientifico",
        "offset": [
          32,
          54
        ]
      },
      {
        "text": "Ceratophyllaceae",
        "type": "Nombre_cientifico",
        "offset": [
          56,
          72
        ]
      }
    ]
  ],
  [
    202,
    "Evidentemente, dicho comportamiento se ve mermado al disminuir la temperatura en los ambientes de lagos de alta monta\u00f1a.\n",
    []
  ],
  [
    203,
    "\n",
    []
  ],
  [
    204,
    "CONSERVACI\u00d3N\n",
    []
  ],
  [
    205,
    "\n",
    []
  ],
  [
    206,
    "De continuar la falta de planeaci\u00f3n en la explotaci\u00f3n de los recursos acu\u00e1ticos, es posible que en pocos a\u00f1os existan p\u00e9rdidas irreparables en los elementos de la flora acu\u00e1tica del estado.\n",
    []
  ],
  [
    207,
    "No obstante, a\u00fan es tiempo de organizar y poner en pr\u00e1ctica la protecci\u00f3n, conservaci\u00f3n y el aprovechamiento integral de los recursos acu\u00e1ticos de la entidad.\n",
    []
  ],
  [
    208,
    "El establecimiento reciente de los humedales de las Ci\u00e9negas del Lerma como \u00c1rea de Protecci\u00f3n de Flora y Fauna (Conanp, 2005), es uno de los logros m\u00e1s reciente en este \u00e1mbito, sobre todo porque considera lo que hoy se conoce como la regi\u00f3n natural del estado m\u00e1s rica en especies acu\u00e1ticas de flora y fauna, muchas de ellas end\u00e9micas y en grave peligro de extinci\u00f3n.\n",
    []
  ],
  [
    209,
    "En el mismo sentido, destaca la creaci\u00f3n y el mantenimiento de jardines bot\u00e1nicos con colecciones de plantas acu\u00e1ticas como el de Xochitla (Lot, 2006), en los cuales es posible rescatar el conocimiento tradicional con el establecimiento y la propagaci\u00f3n de especies nativas y \u00fatiles, cuyos h\u00e1bitat est\u00e1n en peligro de desaparecer.\n",
    []
  ],
  [
    210,
    "Desafortunadamente, muchos cuerpos de agua naturales o creados por el hombre se encuentran en un alto estado de contaminaci\u00f3n, las comunidades vegetales acu\u00e1ticas est\u00e1n muy deterioradas y tienden a estar dominadas por pocas especies, que en la mayor\u00eda de los casos son invasoras o malezoides.\n",
    []
  ],
  [
    211,
    "El r\u00edo Lerma, la presa Antonio Alzate, la presa Guadalupe, el Lago de Zumpango y los remanentes del Lago de Texcoco, son \u00e1reas, que como muchas otras del pa\u00eds, requieren atenci\u00f3n urgente, fundamentalmente por su grado de contaminaci\u00f3n y porque aun son refugio de aves acu\u00e1ticas nativas y migratorias, as\u00ed como de anfibios, peces, invertebrados y plantas.\n",
    [
      {
        "text": "anfibios",
        "type": "Nombre_comun",
        "offset": [
          313,
          321
        ]
      },
      {
        "text": "peces",
        "type": "Nombre_comun",
        "offset": [
          323,
          328
        ]
      }
    ]
  ],
  [
    212,
    "Los cuerpos de agua ricos en especies de plantas acu\u00e1ticas y formas de vida, as\u00ed como los poseedores de especies nativas, tienen que incluirse en los programas de manejo y conservaci\u00f3n.\n",
    []
  ],
  [
    213,
    "La mayor\u00eda de las colectas bot\u00e1nicas del estado son de m\u00e1s de una d\u00e9cada, por lo que son necesarias exploraciones actuales y m\u00e1s exhaustivas sobre la diversidad de los ambientes acu\u00e1ticos del estado, y sobre todo, es imperante la instrumentaci\u00f3n y ejecuci\u00f3n de medidas de protecci\u00f3n y conservaci\u00f3n, encaminadas a promover el mejoramiento de la calidad del agua y un comportamiento social m\u00e1s responsable.\n",
    []
  ],
  [
    214,
    "Cabe mencionar que algunas acciones de conservaci\u00f3n han sido tomadas ya y prueba de ello es la existencia de las Regiones Hidrol\u00f3gicas Prioritarias (Arriaga et al., 1998) del estado: Humedales de Jilotepec-Ixtlahuaca, Cabecera del R\u00edo Lerma, Lagos Cr\u00e1ter del Nevado de Toluca y Remanentes del Complejo Lacustre de la Cuenca de M\u00e9xico.\n",
    []
  ],
  [
    215,
    "Las dos primeras consideradas regiones de elevada biodiversidad y las dos \u00faltimas como regiones de uso por sectores y amenazadas.\n",
    []
  ],
  [
    216,
    "\n",
    []
  ]
]