[
  [
    1,
    "3.7 plantas \r\n",
    []
  ],
  [
    2,
    "Margarita De la Cerda Lemus \r\n",
    []
  ],
  [
    3,
    "Irene Garc\u00eda Gonz\u00e1lez \r\n",
    []
  ],
  [
    4,
    "\r\n",
    []
  ],
  [
    5,
    "Introducci\u00f3n \r\n",
    []
  ],
  [
    6,
    "\r\n",
    []
  ],
  [
    7,
    "M\u00e9xico ocupa el cuarto lugar a nivel mundial en riqueza flor\u00edstica.\r\n",
    []
  ],
  [
    8,
    "Entre los factores que lo hacen un pa\u00eds de gran diversidad biol\u00f3gica est\u00e1n la topograf\u00eda, la variedad de climas y una compleja historia tanto geol\u00f3gica y biol\u00f3gica como cultural.\r\n",
    []
  ],
  [
    9,
    "Estos factores han contribuido a formar un mosaico de condiciones ambientales y microambientales que promueven una gran variedad de h\u00e1bitats y de formas de vida (Sarukh\u00e1n et al., 1996).\r\n",
    []
  ],
  [
    10,
    "La mayor concentraci\u00f3n de la diversidad vegetal en M\u00e9xico se encuentra en dos \u00e1reas, una se inicia en Chiapas, incluye Oaxaca y se prolonga por un lado hacia el centro de Veracruz, y la otra es Sinaloa y Durango (Rzedowski, 1998).\r\n",
    []
  ],
  [
    11,
    "Gran parte de esta riqueza flor\u00edstica se debe a que M\u00e9xico es el sitio de origen y evoluci\u00f3n de un gran n\u00famero de linajes vegetales, por lo cual se tiene gran n\u00famero de especies end\u00e9micas.\r\n",
    []
  ],
  [
    12,
    "Se considera que en M\u00e9xico hay entre 25 000 y 30 000 especies de plantas, aunque es sabido que hay regiones del pa\u00eds que todav\u00eda no han sido exploradas detalladamente, cont\u00e1ndose a la fecha con inventarios incompletos de su flora (Rzedowski, 1998).\r\n",
    []
  ],
  [
    13,
    "\r\n",
    []
  ],
  [
    14,
    "El estudio de las plantas en Aguascalientes \r\n",
    []
  ],
  [
    15,
    "\r\n",
    []
  ],
  [
    16,
    "Previo a la d\u00e9cada de los a\u00f1os ochenta, cuando se inici\u00f3 el estudio de la flora y la vegetaci\u00f3n del estado de Aguascalientes por parte del departamento de Biolog\u00eda de la Universidad Aut\u00f3noma de Aguascalientes, el conocimiento de \u00e9stas era muy escaso.\r\n",
    []
  ],
  [
    17,
    "La informaci\u00f3n con que se contaba hasta entonces se derivaba de algunos trabajos aislados.\r\n",
    []
  ],
  [
    18,
    "Entre los estudios se tiene el de Jos\u00e9 Moci\u00f1o, Juan de Castillo y Anastasio Echevarr\u00eda durante la Campa\u00f1a de la Real Expedici\u00f3n Bot\u00e1nica a la Nueva Espa\u00f1a en 1790.\r\n",
    []
  ],
  [
    19,
    "Posteriormente, McVaugh en 1958, 1959 y 1960 efectu\u00f3 colectas en la zona meridional de la entidad.\r\n",
    []
  ],
  [
    20,
    "En 1964 y 1966, Rzedowski y McVaugh realizaron nuevas colectas y el estudio de un macizo monta\u00f1oso situado en los municipios de Asientos y Tepezal\u00e1.\r\n",
    []
  ],
  [
    21,
    "En 1967, McVaugh recorri\u00f3 durante cinco d\u00edas la regi\u00f3n, dos meses despu\u00e9s Rzedowski realiz\u00f3 colectas adicionales.\r\n",
    []
  ],
  [
    22,
    "En este mismo a\u00f1o S\u00e1nchez et al. (1967) llevaron a cabo un estudio sobre los pastizales nativos y su capacidad forrajera en el estado de Aguascalientes.\r\n",
    []
  ],
  [
    23,
    "En 1970, Le\u00f3n\u2013C\u00e1zares present\u00f3 como tesis doctoral el \u201cEstudio ecol\u00f3gico de los pastizales del Estado\u201d.\r\n",
    []
  ],
  [
    24,
    "Bolio et al. (1979) publicaron el Estudio de la vegetaci\u00f3n forestal del estado de Aguascalientes.\r\n",
    []
  ],
  [
    25,
    "McVaugh en 1974, 1983, 1984, 1985, 1987, 1989, 1992, 1993 y 2001 en la Flora NovoGaliciana reporta las especies del estado de Aguascalientes que encontr\u00f3, incluidas en numerosas familias, entre ellas: Fagaceae, Gramineae, Compositae, Orchidaceae, Leguminosae, Bromeliaceae, Dioscoreaceae, Gimnospermas y Pteridofitas, Limnocharitaceae, Typhaceae y Ochnaceae, Loasaceae, respectivamente. 3.7.1Briofitas Margarita de la Cerda Lemus Irene Garc\u00eda Gonz\u00e1lez Las briofitas son plantas no vasculares generalmente rastreras que incluyen a las hep\u00e1ticas, los antoceros y los musgos.\r\n",
    []
  ],
  [
    26,
    "En Aguascalientes se tienen colectados varios ejemplares de estas plantas, aunque a\u00fan no est\u00e1n determinados por especie.\r\n",
    []
  ],
  [
    27,
    "En el grupo de plantas vasculares con la caracter\u00edstica en com\u00fan de propagarse por medio de esporas, se encuentran los helechos y plantas afines.\r\n",
    []
  ],
  [
    28,
    "Siqueiros y Gonz\u00e1lez (2002 y 2006) reportan 71 especies de helechos, seis selaginelas, un isoetes y un equiseto.\r\n",
    []
  ],
  [
    29,
    "\r\n",
    []
  ],
  [
    30,
    "3.7.2 Pteridofitas \r\n",
    []
  ],
  [
    31,
    "Gabriel Gonz\u00e1lez-Adame \r\n",
    []
  ],
  [
    32,
    "Mar\u00eda Elena Siqueiros-Delgado \r\n",
    []
  ],
  [
    33,
    "\r\n",
    []
  ],
  [
    34,
    "Las pteridofitas son un grupo de plantas con caracter\u00edsticas muy peculiares dentro del reino vegetal, especialmente por su ciclo de vida, donde sus dos generaciones alternantes son visibles e independientes en la madurez y su reproducci\u00f3n mediante esporas.\r\n",
    []
  ],
  [
    35,
    "Se les puede encontrar en una gran variedad de h\u00e1bitats, desde zonas tropicales hasta zonas des\u00e9rticas donde presentan algunas adaptaciones a estas condiciones, lo que les permite permanecer durante meses pr\u00e1cticamente deshidratadas en espera de la temporada de lluvias.\r\n",
    []
  ],
  [
    36,
    "Asimismo, su h\u00e1bito puede variar desde terrestres en taludes hasta epil\u00edticas, ep\u00edfitas, acu\u00e1ticas o trepadoras.\r\n",
    []
  ],
  [
    37,
    "Las pteridofitas se agrupan en alrededor de 200 g\u00e9neros que incluyen cerca de 16 000 especies (Pacheco y Lorea-Hern\u00e1ndez, 1985; Windham, 1995).\r\n",
    []
  ],
  [
    38,
    "Para M\u00e9xico, se han reconocido alrededor de 1 000 especies, en su mayor\u00eda presentes en las zonas tropicales (Lorea y Riba, 1990).\r\n",
    []
  ],
  [
    39,
    "Las pteridofitas actuales se han tratado como un grupo con similitudes en su ciclo de vida y nivel evolutivo, y se han incluido dentro de cuatro divisiones: psilotofitos, licofitos, equisetos y helechos (Bold et al., 1980; Raven et al., 1999).\r\n",
    []
  ],
  [
    40,
    "Estos cuatro grupos tradicionalmente se han tratado con el nombre com\u00fan de \u201cpteridofitas\u201d (Knobloch y Correll, 1962; Lellinger, 1989; Mickel, 1992; Smith, 1981; Mickel y Beitel, 1988).\r\n",
    []
  ],
  [
    41,
    "Estudios clad\u00edsticos moleculares, reproductivos y morfol\u00f3gicos revelan que las pteridofitas no forman un grupo natural, sino que est\u00e1n constituidas por linajes diversos y ancestrales; sus similitudes son producto de una conversi\u00f3n hacia un mismo estilo en su ciclo de vida.\r\n",
    []
  ],
  [
    42,
    "Los licofitos, sin lugar a dudas, constituyen un linaje monofil\u00e9tico independiente; sin embargo, los psilofitos, equisetos y helechos forman un conjunto monofil\u00e9tico, hermano de las plantas con semilla.\r\n",
    []
  ],
  [
    43,
    "Psilotum se agrupa con Ophiglossum y Botrychium como grupo hermano del resto de los helechos, mientras que Equisetum queda usualmente agrupado con los otros helechos eusporangiados (Marattiales), aunque sus relaciones dentro de este lado no est\u00e1n muy claras (Duff y Nickrent, 1999; Soltis et al., 1999; Renzaglia et al., 2000; Nickrent et al., 2000; Pryer et al., 2001).\r\n",
    []
  ],
  [
    44,
    "La mayor\u00eda de las pteridofitas se caracterizan por la presencia de un rizoma del cual emergen las hojas o tallos a\u00e9reos que pueden variar desde pocos cent\u00edmetros hasta varios metros de longitud (figura 3.7.1).\r\n",
    []
  ],
  [
    45,
    "Las hojas pueden estar ausentes o ser vestigiales como en Psilotum y Equisetum, respectivamente; escamosas como en Selaginella y Lycopodium, o pueden alcanzar hasta 6 m de longitud en el Marattia.\r\n",
    []
  ],
  [
    46,
    "Sus esporangios pueden estar en sinangios, estr\u00f3bilos o soros, y generalmente son homosp\u00f3ricos con excepci\u00f3n de Azolla, Iso\u00ebtes, Marsilea, Salvinia y Selaginella.\r\n",
    []
  ],
  [
    47,
    "Su gametofito es peque\u00f1o e independiente en la madurez y requiere agua para la fertilizaci\u00f3n.\r\n",
    []
  ],
  [
    48,
    "\r\n",
    []
  ],
  [
    49,
    "Diversidad \r\n",
    []
  ],
  [
    50,
    "\r\n",
    []
  ],
  [
    51,
    "En el estado de Aguascalientes se tienen registradas 79 especies de pteridofitas hasta el momento (cuadro 3.7.1).\r\n",
    []
  ],
  [
    52,
    "De acuerdo a su diversidad, \u00e9stas se distribuyen en los diferentes municipios de la siguiente manera: el municipio de Calvillo cuenta con la mayor concentraci\u00f3n y diversidad de especies con 27% (53 spp.) del total; San Jos\u00e9 de Gracia con 21% (41 spp.); Aguascalientes con 16% (31 spp.); Jes\u00fas Mar\u00eda con 10% (19 spp.), Tepezal\u00e1 con 8% (16 spp.); Rinc\u00f3n de Romos con 7% (14 spp.); Asientos con 5% (9 spp.); El Llano con 4% (8 spp.); Pabell\u00f3n de Arteaga (1 sp.) y Cos\u00edo (2 spp.) representando 1%, respectivamente, y San Francisco de los Romo no presenta ninguna especie, ya que su cubierta vegetal original ha sido sustituida por \u00e1reas de cultivos agr\u00edcolas, industriales y urbanas.\r\n",
    []
  ],
  [
    53,
    "As\u00ed pues, se ha observado que la mayor riqueza de especies se concentra, principalmente, en los municipios que presentan zonas monta\u00f1osas con bosques caducifolios y/o templados.\r\n",
    []
  ],
  [
    54,
    "Esto se debe a la gran diversidad de barrancas y ca\u00f1adas que presentan, las cuales generan diferentes microclimas adecuados para el desarrollo de este tipo de plantas.\r\n",
    []
  ],
  [
    55,
    "Otra zona que aunque cuenta con una diversidad menor, muestra especies adaptadas a ambientes calizos, es la comprendida por el municipio de Tepezal\u00e1.\r\n",
    []
  ],
  [
    56,
    "De igual forma es notoria la disminuci\u00f3n de especies hacia los municipios del centro del Estado, en donde las fronteras agr\u00edcolas, urbanas e industriales han impactado fuertemente los ecosistemas originales. \r\n",
    []
  ],
  [
    57,
    "\r\n",
    []
  ],
  [
    58,
    "Distribuci\u00f3n, diversidad y abundancia de g\u00e9neros \r\n",
    []
  ],
  [
    59,
    "\r\n",
    []
  ],
  [
    60,
    "Cheilanthes \r\n",
    []
  ],
  [
    61,
    "\r\n",
    []
  ],
  [
    62,
    "Representa 19% con 15 especies.\r\n",
    []
  ],
  [
    63,
    "Es el g\u00e9nero con mayor diversidad y mejor distribuido en el Estado, pudi\u00e9ndosele encontrar en todos los tipos de vegetaci\u00f3n.\r\n",
    []
  ],
  [
    64,
    "Presenta especies caracter\u00edsticas de bosques templados, por ejemplo Ch.\r\n",
    []
  ],
  [
    65,
    "marginata y Ch.\r\n",
    []
  ],
  [
    66,
    "farinosa; de zonas semi\u00e1ridas y subtropicales como Ch. lindheimeri.\r\n",
    []
  ],
  [
    67,
    "Respecto a su abundancia se tienen especies poco abundantes como Ch. eatonii o Ch. brachypus a especies muy abundantes que ocurren en todos los municipios como es el caso de Ch.\r\n",
    []
  ],
  [
    68,
    "bonariensis que lo mismo se le encuentra en zonas naturales que en zonas con disturbio.\r\n",
    []
  ],
  [
    69,
    "\r\n",
    []
  ],
  [
    70,
    "Selaginella \r\n",
    []
  ],
  [
    71,
    "\r\n",
    []
  ],
  [
    72,
    "Constituye 8% con 6 especies.\r\n",
    []
  ],
  [
    73,
    "Es un g\u00e9nero muy com\u00fan en nuestro Estado, altamente adaptado a desarrollarse en ambientes rocosos con periodos de sequ\u00eda prolongados.\r\n",
    []
  ],
  [
    74,
    "En la entidad S. lepidophylla, conocida localmente como \u201cflor de pe\u00f1a\u201d, se distribuye pr\u00e1cticamente en todos los tipos de vegetaci\u00f3n.\r\n",
    []
  ],
  [
    75,
    "Por otro lado, S. underwoodii s\u00f3lo se encuentra en laderas calizas del municipio de Tepezal\u00e1.\r\n",
    []
  ],
  [
    76,
    "El resto de las especies de este g\u00e9nero se presentan en el municipio de Calvillo, principalmente.\r\n",
    []
  ],
  [
    77,
    "\r\n",
    []
  ],
  [
    78,
    "Polypodium, Pellaea y Asplenium \r\n",
    []
  ],
  [
    79,
    "\r\n",
    []
  ],
  [
    80,
    "Con cinco especies cada uno, representando individualmente 6%.\r\n",
    []
  ],
  [
    81,
    "Estos g\u00e9neros se distribuyen principalmente en zonas de bosques templados y matorral subtropical, s\u00f3lo Pellaea ternifolia se le encuentra en la mayor\u00eda de los municipios.\r\n",
    []
  ],
  [
    82,
    "Adiantum, Notholaena y Astrolepis Con cuatro especies cada uno, representando individualmente 5%.\r\n",
    []
  ],
  [
    83,
    "Estos g\u00e9neros se les pueden encontrar en buena parte del Estado, tanto en zonas boscosas como \u00e1ridas.\r\n",
    []
  ],
  [
    84,
    "A pesar de que Adiantum se localiza principalmente en zonas tropicales, tambi\u00e9n se le puede localizar en microclimas sombreados y con alta humedad dentro de zonas \u00e1ridas.\r\n",
    []
  ],
  [
    85,
    "Cabe mencionar la presencia de tres g\u00e9neros acu\u00e1ticos en la entidad, Marsilea e Is\u00f6etes que presentan un desarrollo acu\u00e1tico enraizado en orillas de zonas inundables y cuerpos de agua, mientras que Azolla es de h\u00e1bito libre flotador en cuerpos de agua permanentes.\r\n",
    []
  ],
  [
    86,
    "El resto de los g\u00e9neros presenta una distribuci\u00f3n menos com\u00fan o bien restringida a localidades espec\u00edficas como Osmunda regalis; y otros son bastante escasos como Anogramma, cuya \u00fanica poblaci\u00f3n se encuentra en una ca\u00f1ada de la porci\u00f3n subtropical del municipio de Calvillo; Anemia en algunas pocas laderas de ca\u00f1adas con matorral subtropical; Is\u00f6etes que solo se encuentra en algunas zonas inundables en la Sierra Fr\u00eda; y Equisetum (figura 3.7.2) que aunque anteriormente fue abundante, en la actualidad sus poblaciones han disminuido debido a la sobre colecta de la que ha sido objeto.\r\n",
    [
      {
        "text": "Osmunda regalis",
        "type": "Nombre_cientifico",
        "offset": [
          112,
          127
        ]
      },
      {
        "text": "Anogramma",
        "type": "Nombre_cientifico",
        "offset": [
          163,
          172
        ]
      }
    ]
  ],
  [
    87,
    "\r\n",
    []
  ],
  [
    88,
    "Importancia \r\n",
    []
  ],
  [
    89,
    "Desde el punto de vista ambiental, las pteridofitas generalmente no forman parte conspicua de la vegetaci\u00f3n de una comunidad, pues su presencia va a depender de los niveles de humedad o precipitaci\u00f3n al menos durante una \u00e9poca del a\u00f1o, si el lugar presenta o no afloramientos rocosos, la topograf\u00eda, la cubierta vegetal, entre otras.\r\n",
    []
  ],
  [
    90,
    "Por citar un ejemplo de importancia ambiental, se tienen las selaginellas (figura 3.7.3), que se encuentran en todos los ecosistemas del Estado y act\u00faan como pioneras en la formaci\u00f3n y retenci\u00f3n de suelos, as\u00ed como importantes zonas para la germinaci\u00f3n, el desarrollo y el establecimiento de otras especies, como por ejemplo cact\u00e1ceas, crasul\u00e1ceas, bromelias como Tillandsia aguascalentensis, entre otras.\r\n",
    [
      {
        "text": "Tillandsia aguascalentensis",
        "type": "Nombre_cientifico",
        "offset": [
          364,
          391
        ]
      },
      {
        "text": "crasul\u00e1ceas",
        "type": "Nombre_cientifico",
        "offset": [
          336,
          347
        ]
      },
      {
        "text": "bromelias",
        "type": "Nombre_cientifico",
        "offset": [
          349,
          358
        ]
      },
      {
        "text": "cact\u00e1ceas",
        "type": "Nombre_cientifico",
        "offset": [
          325,
          334
        ]
      }
    ]
  ],
  [
    91,
    "La importancia econ\u00f3mica de las pteridofitas corresponde al \u00e1mbito de la medicina tradicional, en donde se reporta su uso curativo, as\u00ed como ornamental; las especies de los g\u00e9neros Cheilanthes y Polypodium se emplean para quitar la tos y en casos de diarrea.\r\n",
    [
      {
        "text": "quitar la tos y en casos de diarrea",
        "type": "Medicinal",
        "offset": [
          222,
          257
        ]
      },
      {
        "arg2_text": "quitar la tos y en casos de diarrea",
        "arg1_offset": [
          195,
          205
        ],
        "arg2_line": 91,
        "arg2_offset": [
          222,
          257
        ],
        "arg1_text": "Polypodium",
        "type": "se_usa",
        "arg1_line": 91
      },
      {
        "arg2_text": "quitar la tos y en casos de diarrea",
        "arg1_offset": [
          181,
          192
        ],
        "arg2_line": 91,
        "arg2_offset": [
          222,
          257
        ],
        "arg1_text": "Cheilanthes",
        "type": "se_usa",
        "arg1_line": 91
      },
      {
        "text": "Polypodium",
        "type": "Nombre_cientifico",
        "offset": [
          195,
          205
        ]
      },
      {
        "text": "Cheilanthes",
        "type": "Nombre_cientifico",
        "offset": [
          181,
          192
        ]
      }
    ]
  ],
  [
    92,
    "Selaginella lepidophylla se emplea localmente como agua de uso para afecciones de ri\u00f1ones, pr\u00f3stata, dolores de est\u00f3mago y espalda; Equisetum hyemale, conocido tambi\u00e9n como \u201ccola de caballo\u201d, es utilizado para afecciones del ri\u00f1\u00f3n y Phlebodium areolatum para dolores de est\u00f3mago y espalda (Garc\u00eda, 1999a, b; Barba et al., 2003), comercializ\u00e1ndose en general a baja escala en los mercados de los municipios de Aguascalientes, Calvillo y Jes\u00fas Mar\u00eda, principalmente.\r\n",
    [
      {
        "text": "Phlebodium areolatum",
        "type": "Nombre_cientifico",
        "offset": [
          233,
          253
        ]
      },
      {
        "text": "Selaginella lepidophylla",
        "type": "Nombre_cientifico",
        "offset": [
          0,
          24
        ]
      },
      {
        "text": "dolores de est\u00f3mago y espalda",
        "type": "Medicinal",
        "offset": [
          101,
          130
        ]
      },
      {
        "text": "pr\u00f3stata",
        "type": "Medicinal",
        "offset": [
          91,
          99
        ]
      },
      {
        "text": "Equisetum hyemale",
        "type": "Nombre_cientifico",
        "offset": [
          132,
          149
        ]
      },
      {
        "arg2_text": "para dolores de est\u00f3mago y espalda",
        "arg1_offset": [
          233,
          253
        ],
        "arg2_line": 92,
        "arg2_offset": [
          254,
          288
        ],
        "arg1_text": "Phlebodium areolatum",
        "type": "se_usa",
        "arg1_line": 92
      },
      {
        "arg2_text": "afecciones del ri\u00f1\u00f3",
        "arg1_offset": [
          132,
          149
        ],
        "arg2_line": 92,
        "arg2_offset": [
          210,
          229
        ],
        "arg1_text": "Equisetum hyemale",
        "type": "se_usa",
        "arg1_line": 92
      },
      {
        "arg2_text": "afecciones de ri\u00f1ones",
        "arg1_offset": [
          0,
          24
        ],
        "arg2_line": 92,
        "arg2_offset": [
          68,
          89
        ],
        "arg1_text": "Selaginella lepidophylla",
        "type": "se_usa",
        "arg1_line": 92
      },
      {
        "arg2_text": "dolores de est\u00f3mago y espalda",
        "arg1_offset": [
          0,
          24
        ],
        "arg2_line": 92,
        "arg2_offset": [
          101,
          130
        ],
        "arg1_text": "Selaginella lepidophylla",
        "type": "se_usa",
        "arg1_line": 92
      },
      {
        "arg2_text": "pr\u00f3stata",
        "arg1_offset": [
          0,
          24
        ],
        "arg2_line": 92,
        "arg2_offset": [
          91,
          99
        ],
        "arg1_text": "Selaginella lepidophylla",
        "type": "se_usa",
        "arg1_line": 92
      },
      {
        "arg2_text": "Equisetum hyemale",
        "arg1_offset": [
          174,
          189
        ],
        "arg2_line": 92,
        "arg2_offset": [
          132,
          149
        ],
        "arg1_text": "cola de caballo",
        "type": "alias",
        "arg1_line": 92
      },
      {
        "text": "para dolores de est\u00f3mago y espalda",
        "type": "Medicinal",
        "offset": [
          254,
          288
        ]
      },
      {
        "text": "afecciones de ri\u00f1ones",
        "type": "Medicinal",
        "offset": [
          68,
          89
        ]
      },
      {
        "text": "afecciones del ri\u00f1\u00f3",
        "type": "Medicinal",
        "offset": [
          210,
          229
        ]
      },
      {
        "text": "cola de caballo",
        "type": "Nombre_comun",
        "offset": [
          174,
          189
        ]
      }
    ]
  ],
  [
    93,
    "Desde el punto de vista ornamental, se ha observado el uso espor\u00e1dico de Equisetum hyemale en diferentes puntos de la ciudad de Aguascalientes, tanto residencial como en locales comerciales; tambi\u00e9n se han observado que algunas especies de los g\u00e9neros Polypodium y Selaginella se extraen para su posterior comercializaci\u00f3n durante la \u00e9poca navide\u00f1a para la decoraci\u00f3n de nacimientos.\r\n",
    [
      {
        "text": "comercializaci\u00f3n durante la \u00e9poca navide\u00f1a",
        "type": "Uso",
        "offset": [
          306,
          348
        ]
      },
      {
        "text": "Equisetum hyemale",
        "type": "Nombre_cientifico",
        "offset": [
          73,
          90
        ]
      },
      {
        "arg2_text": "comercializaci\u00f3n durante la \u00e9poca navide\u00f1a",
        "arg1_offset": [
          252,
          262
        ],
        "arg2_line": 93,
        "arg2_offset": [
          306,
          348
        ],
        "arg1_text": "Polypodium",
        "type": "se_usa",
        "arg1_line": 93
      },
      {
        "text": "Selaginella",
        "type": "Nombre_cientifico",
        "offset": [
          265,
          276
        ]
      },
      {
        "text": "Polypodium",
        "type": "Nombre_cientifico",
        "offset": [
          252,
          262
        ]
      },
      {
        "arg2_text": "comercializaci\u00f3n durante la \u00e9poca navide\u00f1a",
        "arg1_offset": [
          265,
          276
        ],
        "arg2_line": 93,
        "arg2_offset": [
          306,
          348
        ],
        "arg1_text": "Selaginella",
        "type": "se_usa",
        "arg1_line": 93
      }
    ]
  ],
  [
    94,
    "\r\n",
    []
  ],
  [
    95,
    "Glosario\r\n",
    []
  ],
  [
    96,
    "Esporangio.\r\n",
    []
  ],
  [
    97,
    "Estructura capsular en la cual se desarrollan las esporas.\r\n",
    []
  ],
  [
    98,
    "Esporofito.\r\n",
    []
  ],
  [
    99,
    "Se refiere a la fase diploide (2n) de la planta, es decir, la parte que vemos y que genera esporas o semillas producto de la uni\u00f3n de los gametos, fase dominante en todas las plantas, excepto en musgos.\r\n",
    []
  ],
  [
    100,
    "Estr\u00f3bilo.\r\n",
    []
  ],
  [
    101,
    "Estructura reproductiva semejante a un cono, se presenta en licopodios, selaginelas y equisteos.\r\n",
    []
  ],
  [
    102,
    "Eusporangiados.\r\n",
    []
  ],
  [
    103,
    "Aquellos helechos cuyos esporangios presentan paredes de varias capas de c\u00e9lulas y un n\u00famero grande de esporas.\r\n",
    []
  ],
  [
    104,
    "Gametofito.\r\n",
    []
  ],
  [
    105,
    "Se refiere a la fase haploide (n) de la planta, en la cual se producen los gametos de la planta.\r\n",
    []
  ],
  [
    106,
    "Homosp\u00f3rico.\r\n",
    []
  ],
  [
    107,
    "Se refiere a aquellas plantas que generan esporas de un solo tipo.\r\n",
    []
  ],
  [
    108,
    "Licofitos.\r\n",
    []
  ],
  [
    109,
    "Se refiere al conjunto de los helechos.\r\n",
    []
  ],
  [
    110,
    "Monofil\u00e9tico.\r\n",
    []
  ],
  [
    111,
    "Se refiere a un grupo de especies que presentan un solo ancestro com\u00fan.\r\n",
    []
  ],
  [
    112,
    "Sinangio.\r\n",
    []
  ],
  [
    113,
    "Se refiere a la estructura capsular resultante de la fusi\u00f3n de varios esporangios.\r\n",
    []
  ],
  [
    114,
    "Soro.\r\n",
    []
  ],
  [
    115,
    "Grupo o conjunto de esporangios localizados generalmente en el env\u00e9s de la hoja.\r\n",
    []
  ],
  [
    116,
    "Vestigial.\r\n",
    []
  ],
  [
    117,
    "Se refiere a estructuras de un organismo que tras haber perdido parcial o totalmente su funci\u00f3n original, se han reducido en forma y tama\u00f1o.\r\n",
    []
  ],
  [
    118,
    "\r\n",
    []
  ],
  [
    119,
    "3.7.3 Gimnospermas \r\n",
    []
  ],
  [
    120,
    "Margarita de la Cerda Lemus \r\n",
    []
  ],
  [
    121,
    "Irene Garc\u00eda Gonz\u00e1lez \r\n",
    []
  ],
  [
    122,
    "\r\n",
    []
  ],
  [
    123,
    "Las gimnospermas en el estado de Aguascalientes est\u00e1n representadas por cuatro familias: a) Pinaceae con ocho especies (Pinus cembroides, P. devoniana, P. durangensis, P. durangensis f.\r\n",
    [
      {
        "text": "P. durangensis f.\r\nquinquefoliata",
        "type": "Nombre_cientifico",
        "offset": [
          168,
          201
        ]
      },
      {
        "text": "Pinus cembroides",
        "type": "Nombre_cientifico",
        "offset": [
          120,
          136
        ]
      },
      {
        "text": "Pinaceae",
        "type": "Nombre_cientifico",
        "offset": [
          92,
          100
        ]
      },
      {
        "text": "P. durangensis",
        "type": "Nombre_cientifico",
        "offset": [
          152,
          166
        ]
      },
      {
        "text": "P. devoniana",
        "type": "Nombre_cientifico",
        "offset": [
          138,
          150
        ]
      },
      {
        "text": "P. durangensis f.\r\nquinquefoliata,",
        "type": "Nombre_cientifico",
        "offset": [
          168,
          202
        ]
      }
    ]
  ],
  [
    124,
    "quinquefoliata, P. leiophylla, P. leiophylla var.\r\n",
    [
      {
        "text": "P. leiophylla var",
        "type": "Nombre_cientifico",
        "offset": [
          31,
          48
        ]
      },
      {
        "text": "P. leiophylla",
        "type": "Nombre_cientifico",
        "offset": [
          16,
          29
        ]
      }
    ]
  ],
  [
    125,
    "chihuahuana, P. lumholtzii, P. michoacana var.\r\n",
    []
  ],
  [
    126,
    "cornuta y P. teocote) (figura 3.7.4); b) Cupressaceae con dos g\u00e9neros, cuatro especies y una variedad (Cupressus lusitanica, Juniperus deppeana, J. deppeana var.\r\n",
    []
  ],
  [
    127,
    "zacatecensis, J. durangensis, y J. martinezii); c) Ephedraceae con una especie restringida al municipio de Tepezal\u00e1 (Ephedra compacta); y d) Taxodiaceae con una especie (Taxodium mucronatum) (ver cuadro 3.7.4).\r\n",
    []
  ],
  [
    128,
    "En general, los pinos se ubican en la Sierra Fr\u00eda en asociaci\u00f3n con otras especies formando bosques de encino-pino, donde las especies m\u00e1s frecuentes son P. leiophylla, P. durangensis y P. teocote, mientras que los encinos m\u00e1s comunes son Quercus laeta, Q. potosina y Q. eduardii.\r\n",
    []
  ],
  [
    129,
    "Las comunidades puras de pinos son muy escasas en la entidad y \u00fanicamente se presentan como peque\u00f1os manchones en el municipio de San Jos\u00e9 de Gracia.\r\n",
    []
  ],
  [
    130,
    "Por ejemplo, la especie P. lumholtzii \u00fanicamente se puede encontrar en laderas calizas y pedregosas, generalmente asociada al encino Quercus coccolobifolia.\r\n",
    []
  ],
  [
    131,
    "Este pino es muy escaso, encontr\u00e1ndose s\u00f3lo en peque\u00f1as \u00e1reas en los municipios de San Jos\u00e9 de Gracia y Calvillo.\r\n",
    []
  ],
  [
    132,
    "Cabe mencionar que P. lumholtzii es una especie en peligro de desaparecer en la entidad debido a la explotaci\u00f3n a que ha sido sometida desde hace varios centenares de a\u00f1os, as\u00ed como a las constantes plagas que han afectado sus poblaciones (Siqueiros, 1999).\r\n",
    []
  ],
  [
    133,
    "Por otra parte, en la Sierra Fr\u00eda se pueden encontrar peque\u00f1os bosquecillos de Juniperus deppeana, asociados a encinos y con escasos pinos.\r\n",
    []
  ],
  [
    134,
    "Los bosques de Cupressus lusitanica no existen de manera pura en la entidad.\r\n",
    []
  ],
  [
    135,
    "Empero, es posible encontrar peque\u00f1os grupos en una regi\u00f3n muy localizada de la Sierra de Guajolotes, municipio de San Jos\u00e9 de Gracia, asociados con Pinus cembroides y P. chihuahuana, as\u00ed como de algunos encinos.\r\n",
    []
  ],
  [
    136,
    "Finalmente, el sabino (Taxodium mucronatum) forma tambi\u00e9n peque\u00f1os bosquecillos de galer\u00eda en localidades muy restringidas del municipio de Aguascalientes, en donde la corriente de agua es permanente y se presenta un alto grado de disturbio.\r\n",
    []
  ],
  [
    137,
    "\r\n",
    []
  ],
  [
    138,
    "3.7.4 Angiospermas \r\n",
    []
  ],
  [
    139,
    "Margarita de la Cerda Lemus \r\n",
    []
  ],
  [
    140,
    "Irene Garc\u00eda Gonz\u00e1lez \r\n",
    []
  ],
  [
    141,
    "\r\n",
    []
  ],
  [
    142,
    "Las angiospermas o plantas con flores son los componentes principales de las diferentes comunidades vegetales de Aguascalientes.\r\n",
    []
  ],
  [
    143,
    "Hasta el momento se tienen registradas cerca de 1 542 especies, agrupadas en 622 g\u00e9neros y 132 familias (cuadro 3.7.4).\r\n",
    []
  ],
  [
    144,
    "Este registro est\u00e1 basado en la colecci\u00f3n de plantas del Estado, depositado en el Herbario de la Universidad Aut\u00f3noma de Aguascalientes, as\u00ed como en las colecciones de otros herbarios de la entidad.\r\n",
    []
  ],
  [
    145,
    "\r\n",
    []
  ],
  [
    146,
    "Familia Compositae \r\n",
    []
  ],
  [
    147,
    "\r\n",
    []
  ],
  [
    148,
    "Entre las familias de angiospermas con mayor n\u00famero de especies en Aguascalientes se tiene a las compuestas (Compositae) con 302 especies ubicadas en 113 g\u00e9neros y 12 tribus (Figueroa, 1985; Garc\u00eda, 1999) (cuadro 3.7.3).\r\n",
    []
  ],
  [
    149,
    "Entre ellas se incluye principalmente a especies nativas de la regi\u00f3n, aunque tambi\u00e9n especies cultivadas, de uso medicinal, de ornato, entre otras (figura 3.7.5).\r\n",
    []
  ],
  [
    150,
    "\r\n",
    []
  ],
  [
    151,
    "Familia Gramineae \r\n",
    []
  ],
  [
    152,
    "\r\n",
    []
  ],
  [
    153,
    "Otro de los grupos importantes es el de los pastos (Gramineae) con 72 g\u00e9neros y 188 especies, entre las que se incluyen especies nativas, t\u00edpicas de disturbio, inducidas y algunas cultivadas (De la Cerda y Herrera, 1995; De la Cerda, 1996) (cuadro 3.7.2 y 3.7.3).\r\n",
    []
  ],
  [
    154,
    "Este grupo es muy importante, ya que constituye la fuente principal para la alimentaci\u00f3n humana (figura 3.7.6).\r\n",
    []
  ],
  [
    155,
    "\r\n",
    []
  ],
  [
    156,
    "Familia Leguminosae \r\n",
    []
  ],
  [
    157,
    "\r\n",
    []
  ],
  [
    158,
    "El tercer grupo lo constituyen las leguminosas (Leguminosae) con 117 especies distribuidas en 39 g\u00e9neros (Siqueiros, 1996) (cuadros 3.7.2 y 3.7.4).\r\n",
    []
  ],
  [
    159,
    "Estas plantas, representadas principalmente por mezquites, huizaches y gatu\u00f1os, constituyen un alto porcentaje de la vegetaci\u00f3n del Estado, formando extensas \u00e1reas de matorral xer\u00f3filo que se ubican principalmente en la parte norte y centro.\r\n",
    []
  ],
  [
    160,
    "Su aprovechamiento en Aguascalientes es importante, especialmente en zonas rurales donde son utilizadas como forraje (varaduz Eysenhardtia polystachya; engordacabra Dalea bicolor; mezquite Prosopis laevigata y Calliandra sp., entre otras), as\u00ed como plantas medicinales (huizache Acacia farnesiana; hierba de la v\u00edbora Zornia thymifolia y tronadora Crotalaria pumila, entre otras) (Garc\u00eda, 1999a, 1999b; Barba et al., 2003).\r\n",
    []
  ],
  [
    161,
    "\r\n",
    []
  ],
  [
    162,
    "Familia Cactaceae \r\n",
    []
  ],
  [
    163,
    "\r\n",
    []
  ],
  [
    164,
    "Otra familia de gran importancia en el Estado son las cact\u00e1ceas (Cactaceae), de las cuales hasta la fecha se han registrado 52 especies distribuidas en 12 g\u00e9neros (De la Cerda, 1999a) (cuadro 3.7.4).\r\n",
    []
  ],
  [
    165,
    "Sin embargo, es posible que en algunas zonas de dif\u00edcil acceso existan especies sin registrar.\r\n",
    []
  ],
  [
    166,
    "Los g\u00e9neros m\u00e1s representativos son Opuntia con 18 especies; Mammillaria con nueve especies, entre las que M. bombycina y M. perezdelarosae est\u00e1n incluidas en la NOM-059SEMARNAT-2001 como raras y M. zephyranthoides como amenazada; Coryphanta con seis especies; Stenocactus con cinco especies; Echinocereus, Ferocactus y Stenocereus con tres especies, respectivamente; Echinocereus pulchelus y Ferocactus histrix especies amenazadas; Myrtillocactus, Echinocactus, Hylocereus, Nyctocereus y Neollodia con una especie, cada una.\r\n",
    []
  ],
  [
    167,
    "\r\n",
    []
  ],
  [
    168,
    "Vegetaci\u00f3n secundaria \r\n",
    []
  ],
  [
    169,
    "\r\n",
    []
  ],
  [
    170,
    "En general, en la entidad se observa un incremento en la vegetaci\u00f3n secundaria a manera de matorral espinoso o subespinoso debido al disturbio a que se somete la vegetaci\u00f3n natural.\r\n",
    []
  ],
  [
    171,
    "Por ejemplo, en el municipio de Tepezal\u00e1 extensas zonas de nopaleras y otras cact\u00e1ceas est\u00e1n siendo sustituidas por \u00e1reas de cultivo.\r\n",
    []
  ],
  [
    172,
    "No obstante, en otros sitios como Cos\u00edo, Jes\u00fas Mar\u00eda y Aguascalientes se est\u00e1n sembrando diversas especies de nopal en \u00e1reas que antes estaban desprovistas de vegetaci\u00f3n (De la Cerda, 1999a).\r\n",
    []
  ],
  [
    173,
    "\r\n",
    []
  ],
  [
    174,
    "Familia Fagaceae \r\n",
    []
  ],
  [
    175,
    "\r\n",
    []
  ],
  [
    176,
    "Los encinos (familia Fagaceae, g\u00e9nero Quercus) son otras plantas importantes para la entidad, principalmente en las zonas boscosas.\r\n",
    []
  ],
  [
    177,
    "Hasta el momento se tienen registradas 20 especies de encinos en Aguascalientes (De la Cerda, 1999b) (cuadro 3.7.4; figura 3.7.7).\r\n",
    []
  ],
  [
    178,
    "\r\n",
    []
  ],
  [
    179,
    "Familia Orchidaceae \r\n",
    []
  ],
  [
    180,
    "\r\n",
    []
  ],
  [
    181,
    "Principalmente en zonas boscosas con mayor humedad en los municipios de Calvillo y San Jos\u00e9 de Gracia se distribuyen las orqu\u00eddeas.\r\n",
    []
  ],
  [
    182,
    "Mac\u00edas et al. (2005) reportan 13 g\u00e9neros con 30 especies, una de ellas, Laelia speciosa, amenazada.\r\n",
    []
  ],
  [
    183,
    "\r\n",
    []
  ],
  [
    184,
    "Otras familias \r\n",
    []
  ],
  [
    185,
    "\r\n",
    []
  ],
  [
    186,
    "Otras familias de suma importancia son: Lauraceae en la que est\u00e1 incluido el laurel (Litsea glaucescens) catalogado en la NOM-059-SEMARNAT-2001 en peligro de extinci\u00f3n, Lentibulariaceae, con el g\u00e9nero Pinguicola; Loranthaceae en donde se ubican los mu\u00e9rdagos o injertos, Hypoxidaceae con Hypoxis fibrata e H. mexicana y Melanthiaceae con Schoenocaulon lauricola y S. caricifolium, todas con distribuci\u00f3n \u00fanicamente en los municipios de Calvillo y San Jos\u00e9 de Gracia.\r\n",
    []
  ],
  [
    187,
    "Moraceae con Ficus petiolaris, Bombacaceae con Ceiba aesculifolia, Tiliaceae, Heliocarpus terebinthinaceus y Julianiaceae con Amphipterygium adstringens s\u00f3lo fueron encontradas en el municipio de Calvillo en peque\u00f1os manchones de selva baja caducifolia, las dos \u00faltimas sobreexplotadas por atribu\u00edrseles uso medicinal.\r\n",
    []
  ],
  [
    188,
    "La mayor\u00eda de las familias de angiospermas no mencionadas tienen una amplia distribuci\u00f3n en el Estado aunque algunas como Euphorbiaceae con el g\u00e9nero Euphorbia que presenta una amplia distribuci\u00f3n en la entidad, y adem\u00e1s incluye otros g\u00e9neros como Bernardia albida, catalogada en peligro de extinci\u00f3n, principalmente por la destrucci\u00f3n de la vegetaci\u00f3n original.\r\n",
    []
  ],
  [
    189,
    "\r\n",
    []
  ],
  [
    190,
    "Conclusiones y recomendaciones \r\n",
    []
  ],
  [
    191,
    "\r\n",
    []
  ],
  [
    192,
    "A pesar de que el esfuerzo principalmente del personal del Herbario de la UAA, por conocer completamente al grupo de las angiospermas en el estado de Aguascalientes ha sido constante desde la d\u00e9cada de los a\u00f1os ochenta, a\u00fan quedan importantes \u00e1reas por explorar y algunas familias por revisar.\r\n",
    []
  ],
  [
    193,
    "Entre las numerosas publicaciones sobre la flora de Aguascalientes se pueden mencionar: Bolio et al. (1970); Barba et al. (2003); Corvera (2005); Cu\u00e9llar (1985); De Alba et al. (2001); De la Cerda (1982, 1984, 1992, 1996, 1999a, 1999b, 2000); De la Cerda y Siqueiros (1985); De la Cerda y Herrera (1995); De la Cerda et al. (2004); Figueroa (1985); Garc\u00eda et al. (1993, 1999), Garc\u00eda (1998, 1999, 1999a, 1999b y 2004); Herrera y De la Cerda (1995); Le\u00f3n (1979); Mac\u00edas et al. (2005); Miranda (2004); S\u00e1nchez et al. (1967); Siqueiros (1996, 1999a y 1999b) y Siqueiros y Gonz\u00e1lez (2002 y 2006).\r\n",
    []
  ],
  [
    194,
    "De esta forma es muy importante mantener y reforzar esta l\u00ednea de investigaci\u00f3n con el fin de completar el inventario de este grupo en Aguascalientes y con ello contar con el estudio flor\u00edstico completo del Estado.\r\n",
    []
  ],
  [
    195,
    "\r\n",
    []
  ],
  [
    196,
    "ESTUDIO DE CASO \r\n",
    []
  ],
  [
    197,
    "\r\n",
    []
  ],
  [
    198,
    "La familia Cactaceae en el estado de Aguascalientes \r\n",
    []
  ],
  [
    199,
    "Esperanza Quezada Guzm\u00e1n\r\n",
    []
  ],
  [
    200,
    "\r\n",
    []
  ],
  [
    201,
    "La mayor parte de las cact\u00e1ceas habita en regiones \u00e1ridas y semi\u00e1ridas de M\u00e9xico, estableci\u00e9ndose particularmente en la porci\u00f3n sureste del desierto chihuahuense e incluyendo la zona \u00e1rida Queretano-Hidalguense.\r\n",
    []
  ],
  [
    202,
    "Puesto que el estado de Aguascalientes forma parte de estas regiones, con el fin de aportar informaci\u00f3n flor\u00edstica y ecol\u00f3gica sobre este grupo, se realiz\u00f3 la revisi\u00f3n de fuentes bibliogr\u00e1ficas, registros en colecciones cient\u00edficas y exploraci\u00f3n y colecta en campo, en busca de especies de cact\u00e1ceas reportadas para Aguascalientes.\r\n",
    []
  ],
  [
    203,
    "De la revisi\u00f3n en fuentes bibliogr\u00e1ficas destacan Britton y Rose (1963) con un s\u00f3lo registro; Rzedowski y McVaugh (1966) con 14 especies; Rzedowski y McVaugh (1972) con una especie; Bravo-Hollis y S\u00e1nchez-Mejorada (1978 y 1991) con once reportes; Hern\u00e1ndez y God\u00ednez (1994) con cinco especies; y De la Cerda (1989) con nueve g\u00e9neros y cuarenta y seis especies.\r\n",
    []
  ],
  [
    204,
    "Por su parte, de los herbarios consultados (cuadro 3.7.5), en seis (dos nacionales y cuatro estatales), se hallaron 82 reportes para Aguascalientes: 12 g\u00e9neros y 70 especies.\r\n",
    []
  ],
  [
    205,
    "Finalmente, del registro y colecta en campo durante 1998, 1999 y parte de 2000, se identificaron 13 g\u00e9neros y 70 especies de cact\u00e1ceas (cuadro 3.7.6).\r\n",
    []
  ],
  [
    206,
    "Son nuevos registros de especies para el estado de Aguascalientes: Coryphantha elephantidens, Echinocereus pulchellus subespecie weinbergii, Lophophora williamsii, Mammillaria crinita, Mammillaria densispina, Mammillaria zephyranthoides, Stenocactus coptonogonus.\r\n",
    []
  ],
  [
    207,
    "Por otro lado, se identific\u00f3 que las especies Coryphantha elephantidens (A), Echinocereus pulchellus (Pr), Echinocereus pulchellus subespecie weinbergii (Pr), Mammillaria bombycina (Pr), M. perezdelarosae (Pr), M. zephyranthoides (A), Stenocactus coptonogonus (Pr), presentan alguna categor\u00eda de riesgo (A.Amenazada y Pr.Sujeta a protecci\u00f3n especial) de acuerdo a la NOM-059\u2013SEMARNAT-2001; CITES (1999), todas en el Ap\u00e9ndice II y UICN (1992).\r\n",
    []
  ],
  [
    208,
    "En peligro Coryphanta, casi amenazada Stenocactus y el resto a\u00fan \u201csin evaluaci\u00f3n\u201d.\r\n",
    []
  ],
  [
    209,
    "\r\n",
    []
  ],
  [
    210,
    "Finalmente, se puede decir que el g\u00e9nero que tiene m\u00e1s reportes en Aguascalientes es Opuntia, ya que cuenta con 24 especies documentadas para la entidad: Opuntia cantabrigiensis, O. chavena = O. hyptiacantha, O. durangensis, O. ficus-indica, Grusonia.\r\n",
    []
  ],
  [
    211,
    "grahamii, O. hyptiacantha, Cylindropuntia.\r\n",
    []
  ],
  [
    212,
    "imbricada subespecie imbricata, O. megacantha, O. jaliscana, O. joconostle, O. lasiacantha, O. leucothicha, O. lindheimeri, var.\r\n",
    []
  ],
  [
    213,
    "lucens y var.\r\n",
    []
  ],
  [
    214,
    "cuija, O. megacantha, O. neochrysacantha, O. streptacantha, O. phaeacantha, O. rastrera, O. robusta, O. stenopetala, O. streptacantha, Cylindropuntia.\r\n",
    []
  ],
  [
    215,
    "tunicata, O. undulata y Grusonia.\r\n",
    []
  ],
  [
    216,
    "vilis.\r\n",
    []
  ],
  [
    217,
    "Los resultados de este estudio se public",
    []
  ]
]