[
  [
    1,
    "4.4 plantas \u00fatiles de aguascalientes \r\n",
    []
  ],
  [
    2,
    "Gerardo Garc\u00eda Regalado \r\n",
    []
  ],
  [
    3,
    "\r\n",
    []
  ],
  [
    4,
    "Introducci\u00f3n \r\n",
    []
  ],
  [
    5,
    "\r\n",
    []
  ],
  [
    6,
    "El uso de los recursos naturales se ha venido suscitando desde la aparici\u00f3n del hombre sobre la tierra.\r\n",
    []
  ],
  [
    7,
    "Actualmente, \u00e9stos se encuentran seriamente da\u00f1ados por efecto de una sobreexplotaci\u00f3n, y de muchos de ellos, \u2013como en el caso de las plantas\u2013, a\u00fan se desconoce su utilidad.\r\n",
    []
  ],
  [
    8,
    "En M\u00e9xico, y en el resto del mundo, las comunidades rurales se encuentran permanentemente amenazadas por el incremento del desarrollo de las actividades antropog\u00e9nicas.\r\n",
    []
  ],
  [
    9,
    "Por esta raz\u00f3n, el desarrollo comunitario debe tomar en cuenta el estado en el que se encuentra cada comunidad.\r\n",
    []
  ],
  [
    10,
    "As\u00ed, existen desde comunidades en pleno proceso de desintegraci\u00f3n o descomposici\u00f3n hasta comunidades m\u00e1s o menos organizadas donde es m\u00e1s factible y viable realizar un desarrollo auto-gestivo.\r\n",
    []
  ],
  [
    11,
    "En todos los casos, la propia comunidad deber\u00e1, como primer requisito, elaborar un plan de desarrollo comunitario que es el instrumento esencial de lucha y resistencia y el marco a partir del cual se pueden integrar las acciones (Toledo, 1996).\r\n",
    []
  ],
  [
    12,
    "Por otra parte, de acuerdo con un muestreo de la vegetaci\u00f3n mexicana, existen al menos 7 000 especies de plantas que pueden utilizarse en diversas industrias como la textil, la cosm\u00e9tica, la farmac\u00e9utica o la alimenticia (Toledo, 1996).\r\n",
    []
  ],
  [
    13,
    "La lista de las especies vegetales \u00fatiles para el hombre es interminable.\r\n",
    []
  ],
  [
    14,
    "Se pueden emplear en su forma original o en forma procesada, como el l\u00e1tex o papel.\r\n",
    []
  ],
  [
    15,
    "\r\n",
    []
  ],
  [
    16,
    "Estudio de las plantas \u00fatiles en Aguascalientes \r\n",
    []
  ],
  [
    17,
    "\r\n",
    []
  ],
  [
    18,
    "Dentro del proyecto flora del estado de Aguascalientes que se est\u00e1 realizando desde el a\u00f1o de 1982 por el personal de la Universidad Aut\u00f3noma de Aguascalientes \u2013del cual el autor de este texto es colaborador\u2013 se realiz\u00f3 el subproyecto Plantas \u00fatiles del estado de Aguascalientes, cuyo objetivo principal fue recabar informaci\u00f3n sobre el uso que tradicionalmente se le ha dado a las plantas que nacen espont\u00e1neamente en la entidad.\r\n",
    []
  ],
  [
    19,
    "El m\u00e9todo consisti\u00f3 en obtener informaci\u00f3n con los pobladores del \u00e1rea rural y suburbana mediante entrevistas abiertas y colecta de material vegetal; en el \u00e1rea urbana se visitaron los mercados establecidos y no establecidos de los diferentes municipios obteniendo informaci\u00f3n mediante la compra-entrevista de los expendedores de plantas medicinales.\r\n",
    []
  ],
  [
    20,
    "Despu\u00e9s de la colecta de espec\u00edmenes \u00e9stos se determinaron por medio de claves taxon\u00f3micas de acuerdo con la bibliograf\u00eda disponible.\r\n",
    []
  ],
  [
    21,
    "De los trabajos realizados se han detectado hasta ahora 33 categor\u00edas antropoc\u00e9ntricas, siendo las plantas medicinales las especies mayormente representadas, siguiendo las comestibles y las utilizadas en construcci\u00f3n (Garc\u00eda, 1999a y b; Barba et al., 2003) (cuadro 4.4.1 y 4.4.2 ).\r\n",
    []
  ],
  [
    22,
    "Las familias registradas con mayor n\u00famero de especies en orden decreciente fueron: Asteraceae (28 spp.), Cactaceae (12 spp.), Leguminosae (12 spp.), Euphorbiaceae (ocho spp.), Solanaceae (ocho spp.), Convolvulaceae (siete spp.) y Agavaceae (cuatro spp.).\r\n",
    []
  ],
  [
    23,
    "\r\n",
    []
  ],
  [
    24,
    "Amenazas \r\n",
    []
  ],
  [
    25,
    "\r\n",
    []
  ],
  [
    26,
    "Al igual que en otras entidades del pa\u00eds, en Aguascalientes las plantas \u00fatiles no se cultivan, sino que son extra\u00eddas de su h\u00e1bitat natural propiciando su desaparici\u00f3n.\r\n",
    []
  ],
  [
    27,
    "En el rubro de plantas medicinales se detectaron 20 especies sobreexplotadas y en peligro de extinci\u00f3n localmente (cuadro 4.4.3).\r\n",
    []
  ],
  [
    28,
    "\r\n",
    []
  ],
  [
    29,
    "Casos especiales \r\n",
    []
  ],
  [
    30,
    "\r\n",
    []
  ],
  [
    31,
    "Por otra parte se obtuvo informaci\u00f3n sobre algunas plantas cuyos usos han desaparecido como en los siguientes casos: galuza (Ipomoea stans) cuyas flores rosas se mezclaban con masa de ma\u00edz para elaborar tortillas y las flores se consum\u00edan en quesadillas.\r\n",
    [
      {
        "arg2_text": "Ipomoea stans",
        "arg1_offset": [
          117,
          123
        ],
        "arg2_line": 31,
        "arg2_offset": [
          125,
          138
        ],
        "arg1_text": "galuza",
        "type": "alias",
        "arg1_line": 31
      },
      {
        "arg2_text": "elaborar tortillas y las flores se consum\u00edan en quesadillas",
        "arg1_offset": [
          125,
          138
        ],
        "arg2_line": 31,
        "arg2_offset": [
          194,
          253
        ],
        "arg1_text": "Ipomoea stans",
        "type": "se_usa",
        "arg1_line": 31
      },
      {
        "text": "Ipomoea stans",
        "type": "Nombre_cientifico",
        "offset": [
          125,
          138
        ]
      },
      {
        "text": "elaborar tortillas y las flores se consum\u00edan en quesadillas",
        "type": "Alimentario",
        "offset": [
          194,
          253
        ]
      },
      {
        "text": "galuza",
        "type": "Nombre_comun",
        "offset": [
          117,
          123
        ]
      }
    ]
  ],
  [
    32,
    "La pulpa de los frutos de palma (Yucca filifera) eran mezclados con masa de ma\u00edz para elaborar gorditas de horno; de los troncos de palo bobo (Ipomoea murucoides) y palma (Y. filifera) se elaboraban panales de abeja.\r\n",
    [
      {
        "arg2_text": "elaborar gorditas de horno",
        "arg1_offset": [
          33,
          47
        ],
        "arg2_line": 32,
        "arg2_offset": [
          86,
          112
        ],
        "arg1_text": "Yucca filifera",
        "type": "se_usa",
        "arg1_line": 32
      },
      {
        "arg2_text": "(Ipomoea murucoides",
        "arg1_offset": [
          132,
          141
        ],
        "arg2_line": 32,
        "arg2_offset": [
          142,
          161
        ],
        "arg1_text": "palo bobo",
        "type": "alias",
        "arg1_line": 32
      },
      {
        "arg2_text": "Y. filifera",
        "arg1_offset": [
          165,
          170
        ],
        "arg2_line": 32,
        "arg2_offset": [
          172,
          183
        ],
        "arg1_text": "palma",
        "type": "alias",
        "arg1_line": 32
      },
      {
        "arg2_text": "elaboraban panales de abeja",
        "arg1_offset": [
          142,
          161
        ],
        "arg2_line": 32,
        "arg2_offset": [
          188,
          215
        ],
        "arg1_text": "(Ipomoea murucoides",
        "type": "se_usa",
        "arg1_line": 32
      },
      {
        "arg2_text": "Yucca filifera",
        "arg1_offset": [
          26,
          31
        ],
        "arg2_line": 32,
        "arg2_offset": [
          33,
          47
        ],
        "arg1_text": "palma",
        "type": "alias",
        "arg1_line": 32
      },
      {
        "text": "elaborar gorditas de horno",
        "type": "Alimentario",
        "offset": [
          86,
          112
        ]
      },
      {
        "text": "palo bobo",
        "type": "Nombre_comun",
        "offset": [
          132,
          141
        ]
      },
      {
        "text": "palma",
        "type": "Nombre_comun",
        "offset": [
          26,
          31
        ]
      },
      {
        "text": "Yucca filifera",
        "type": "Nombre_cientifico",
        "offset": [
          33,
          47
        ]
      },
      {
        "arg2_text": "elaboraban panales de abeja",
        "arg1_offset": [
          172,
          183
        ],
        "arg2_line": 32,
        "arg2_offset": [
          188,
          215
        ],
        "arg1_text": "Y. filifera",
        "type": "se_usa",
        "arg1_line": 32
      },
      {
        "text": "palma",
        "type": "Nombre_comun",
        "offset": [
          165,
          170
        ]
      },
      {
        "text": "elaboraban panales de abeja",
        "type": "Uso",
        "offset": [
          188,
          215
        ]
      },
      {
        "text": "Y. filifera",
        "type": "Nombre_cientifico",
        "offset": [
          172,
          183
        ]
      },
      {
        "text": "(Ipomoea murucoides",
        "type": "Nombre_cientifico",
        "offset": [
          142,
          161
        ]
      }
    ]
  ],
  [
    33,
    "\r\n",
    []
  ],
  [
    34,
    "Conclusiones\r\n",
    []
  ],
  [
    35,
    "\r\n",
    []
  ],
  [
    36,
    "Debido a la importancia que tienen las plantas \u00fatiles de Aguascalientes, por el uso continuo que se les da es necesario legislar su aprovechamiento ya que debido a la extracci\u00f3n a que son sometidas las especies pueden llegar a desaparecer del Estado.\r\n",
    []
  ],
  [
    37,
    "Asimismo, debe realizarse por parte de las instancias correspondientes proyectos de un aprovechamiento sustentable encaminados a guiar principalmente a quienes explotan las plantas medicinales y que son reportadas en este trabajo bajo alg\u00fan grado de amenaza.\r\n",
    []
  ]
]